000100**************************************************************/   30950468
000200*  PROGRAM:  PARCV468                                        */   30950468
000300*  RELEASE # ___0468___   SERVICE REQUEST NO(S) ___3095_____ */   30950468
000400*  NAME _M. BAPTISTA___                DATE ____04/16/90_____*/   30950468
000500*  DESCRIPTION                                               */   30950468
000600*      - CONVERSION PROGRAM TO CONVERT PAR RECORD BY         */   30950468
000700*        REFORMATTING THE HOURS ADJ FIELDS:                  */   30950468
000800*                                                            */   30950468
000900*                  OLD                  NEW                  */   30950468
001000*  XPAR-HRS-CODE - PIC 9(4)             PIC 9(4) COMP SYNC   */   30950468
001100*  XPAR-HRS-ADJ  - PIC S9(5)V99 COMP-3  PIC S9(5)V9(6) COMP-3*/   30950468
001200**************************************************************/   30950468
001300     EJECT                                                        PARCV468
001400 IDENTIFICATION DIVISION.                                         PARCV468
001500 PROGRAM-ID. PARCV468.                                            PARCV468
001600 AUTHOR. UNIV. OF CA.                                             PARCV468
001700 DATE-COMPILED.                                                   PARCV468
001800*REMARKS.                                                         PARCV468
001900**   THIS PROGRAM READS PAR RECORDS CREATED PRIOR TO RELEASE 0468 PARCV468
002000**   AND REFORMATS THESE RECORDS TO CONFORM TO THE REVISED PAR    PARCV468
002100**   RECORD LAYOUT AS PER RELEASE 0468.                           PARCV468
002200     EJECT                                                        PARCV468
002300 ENVIRONMENT DIVISION.                                            PARCV468
002400 CONFIGURATION SECTION.                                           PARCV468
002500 SOURCE-COMPUTER.            COPY CPOTXISI.                       PARCV468
002600 OBJECT-COMPUTER.            COPY CPOTXOBJ.                       PARCV468
002700 SPECIAL-NAMES.                                                   PARCV468
002800*    C01 IS NEW-PAGE,                                             PARCV468
002900     C01 IS NEW-PAGE.                                             PARCV468
003000*                                                                 PARCV468
003100 INPUT-OUTPUT SECTION.                                            PARCV468
003200 FILE-CONTROL.                                                    PARCV468
003300     SELECT  PAR-IN-FILE                                          PARCV468
003400                 ASSIGN TO UT-S-PARIN.                            PARCV468
003500*                                                                 PARCV468
003600     SELECT  PAR-OUT-FILE                                         PARCV468
003700                 ASSIGN TO UT-S-PAROUT.                           PARCV468
003800*                                                                 PARCV468
003900     SELECT  PRINT-FILE                      COPY CPSLXPRT.       PARCV468
004000*                                                                 PARCV468
004100     EJECT                                                        PARCV468
004200******************************************************************PARCV468
004300*                D A T A  D I V I S I O N                        *PARCV468
004400******************************************************************PARCV468
004500*                                                                 PARCV468
004600 DATA DIVISION.                                                   PARCV468
004700 FILE SECTION.                                                    PARCV468
004800     SKIP1                                                        PARCV468
004900 FD  PAR-IN-FILE                                                  PARCV468
005000     BLOCK CONTAINS 0 RECORDS                                     PARCV468
005100     RECORDING MODE IS V                                          PARCV468
005200     RECORD CONTAINS 316 TO 10881 CHARACTERS                      PARCV468
005300     LABEL RECORDS ARE STANDARD                                   PARCV468
005400     DATA RECORD IS IPAR-PAY-AUDIT-REC.                           PARCV468
005500     SKIP1                                                        PARCV468
005600 01  IPAR-PAY-AUDIT-REC.                                          PARCV468
005700     SKIP1                                                        PARCV468
005800*                                                                *PARCV468
005900******************************************************************PARCV468
006000*            P A Y R O L L   A U D I T   R E C O R D             *PARCV468
006100******************************************************************PARCV468
006200*                                                                *PARCV468
006300     02  IPAR-FIXED.                                              PARCV468
006400     SKIP1                                                        PARCV468
006500     03  IPAR-KEY.                                                PARCV468
006600         05  IPAR-ID-NO              PICTURE X(9).                PARCV468
006700         05  IPAR-PRI-GRS-CTL        PICTURE S9(3).               PARCV468
006800         05  IPAR-PAY-END-DATE.                                   PARCV468
006900             07  IPAR-PAY-END-YR     PICTURE 99.                  PARCV468
007000             07  IPAR-PAY-END-MO     PICTURE 99.                  PARCV468
007100             07  IPAR-PAY-END-DA     PICTURE 99.                  PARCV468
007200     SKIP1                                                        PARCV468
007300         05  IPAR-PAY-CYCLE          PICTURE XX.                  PARCV468
007400             88  IPAR-BI-WEEKLY-ONE                  VALUE 'B1'.  PARCV468
007500             88  IPAR-BI-WEEKLY-TWO                  VALUE 'B2'.  PARCV468
007600             88  IPAR-SEMI-MONTHLY                   VALUE 'SM'.  PARCV468
007700             88  IPAR-MONTHLY-CURRENT                VALUE 'MO'.  PARCV468
007800             88  IPAR-MONTHLY-ARREARS                VALUE 'MA'.  PARCV468
007900             88  IPAR-SPECIAL                        VALUE 'XX'.  PARCV468
008000     SKIP1                                                        PARCV468
008100         05  IPAR-TRANS-SEQ-CODE     PICTURE XX.                  PARCV468
008200             88  IPAR-EXPENSE-TRANSFER               VALUE '65'.  PARCV468
008300             88  IPAR-CANCELLATION                   VALUE '70'.  PARCV468
008400             88  IPAR-OVERPAYMENT                    VALUE '75'.  PARCV468
008500             88  IPAR-HAND-DRAWN-CHECKS              VALUE '80'.  PARCV468
008600             88  IPAR-CURR-PR-ACTIVITY               VALUE '85'.  PARCV468
008700     SKIP1                                                        PARCV468
008800     03  IPAR-STOP-PAY-IND           PICTURE X.                   PARCV468
008900         88  IPAR-NORMAL-CHECK                       VALUE SPACE. PARCV468
009000         88  IPAR-STOP-PAYMENT                       VALUE 'S'.   PARCV468
009100         88  IPAR-UNCLAIMED-CHECK                    VALUE 'U'.   PARCV468
009200     SKIP1                                                        PARCV468
009300     03  IPAR-UNCLAIM-CK-CODE    PICTURE X.                       PARCV468
009400         88  IPAR-UNCLAIMED-FED-FUNDS                VALUE 'F'.   PARCV468
009500         88  IPAR-UNCLAIMED-UNIV-FUNDS               VALUE 'U'.   PARCV468
009600     SKIP1                                                        PARCV468
009700     03  IPAR-VARIABLE-LNGH-IND.                                  PARCV468
009800         05  IPAR-NO-HRS-ADJ         PICTURE S9(4) COMP SYNC.     PARCV468
009900         05  IPAR-NO-ADJS            PICTURE S9(4) COMP SYNC.     PARCV468
010000         05  IPAR-NO-ACCTS           PICTURE S9(4) COMP SYNC.     PARCV468
010100         05  IPAR-NO-DED-REF         PICTURE S9(4) COMP SYNC.     PARCV468
010200         05  IPAR-NO-WORK-FIL        PICTURE S9(4) COMP SYNC.     PARCV468
010300     SKIP1                                                        PARCV468
010400*    03  IPAR-FIXED-PORTION          PICTURE X(242).              PARCV468
010500     03  IPAR-FIXED-PORTION          PICTURE X(282).              PARCV468
010600     SKIP1                                                        PARCV468
010700     03  IPAR-PCR-REDEFINITION  REDEFINES  IPAR-FIXED-PORTION.    PARCV468
010800     SKIP1                                                        PARCV468
010900         05  IPAR-PAYROLL-CNTL-REC   PICTURE X(224).              PARCV468
011000         05  FILLER                  PICTURE X(18).               PARCV468
011100         05  IPAR-PCR-FILLER-OP      PICTURE X(40).               PARCV468
011200     SKIP1                                                        PARCV468
011300     03  IPAR-FIXED-DATA     REDEFINES   IPAR-FIXED-PORTION.      PARCV468
011400         05  IPAR-NAME.                                           PARCV468
011500             07  IPAR-NAME-26        PICTURE X(26).               PARCV468
011600             07  IPAR-NAME-SUFX      PICTURE X(4).                PARCV468
011700         05  IPAR-EMPL-STATUS        PICTURE X.                   PARCV468
011800             88  IPAR-ACTIVE-STATUS                  VALUE 'A'.   PARCV468
011900             88  IPAR-LV-WO-PAY-STATUS               VALUE 'N'.   PARCV468
012000             88  IPAR-LV-WTH-PAY-STATUS              VALUE 'P'.   PARCV468
012100             88  IPAR-SEPARATED-STATUS               VALUE 'S'.   PARCV468
012200             88  IPAR-INACTIVE-STATUS                VALUE 'I'.   PARCV468
012300     SKIP1                                                        PARCV468
012400         05  IPAR-STATUS-EFF-DATE.                                PARCV468
012500             07  IPAR-STATUS-YR      PICTURE 99.                  PARCV468
012600             07  IPAR-STATUS-MO      PICTURE 99.                  PARCV468
012700             07  IPAR-STATUS-DA      PICTURE 99.                  PARCV468
012800     SKIP1                                                        PARCV468
012900         05  IPAR-CAMPUS             PICTURE XX.                  PARCV468
013000         05  IPAR-DEPT.                                           PARCV468
013100*****        07  IPAR-DEPT-NR        PICTURE 9(6).                PARCV468
013200             07  IPAR-DEPT-NR        PICTURE X(6).                PARCV468
013300             07  FILLER              PICTURE XX.                  PARCV468
013400     SKIP1                                                        PARCV468
013500         05  IPAR-CK-ACCT-PBL.                                    PARCV468
013600             07  IPAR-CK-OR-ACCT-PBL PICTURE X.                   PARCV468
013700                 88  IPAR-EXPEN-TRANSFER-OVERPAYMNT  VALUE ' '.   PARCV468
013800                 88  IPAR-CHECK                      VALUE 'C'.   PARCV468
013900                 88  IPAR-ACCTS-PAYABLE              VALUE 'A'.   PARCV468
014000     SKIP1                                                        PARCV468
014100             07  IPAR-CK-ACCTPYBL-NR PICTURE 9(6).                PARCV468
014200     SKIP1                                                        PARCV468
014300         05  IPAR-CHECK-DATE.                                     PARCV468
014400             07  IPAR-CHECK-YR       PICTURE 99.                  PARCV468
014500             07  IPAR-CHECK-MO       PICTURE 99.                  PARCV468
014600             07  IPAR-CHECK-DA       PICTURE 99.                  PARCV468
014700     SKIP1                                                        PARCV468
014800         05  IPAR-AFFECT-QTR         PICTURE X.                   PARCV468
014900             88  IPAR-PRIOR-YEAR                     VALUE '0'.   PARCV468
015000             88  IPAR-1ST-QTR                        VALUE '1'.   PARCV468
015100             88  IPAR-2ND-QTR                        VALUE '2'.   PARCV468
015200             88  IPAR-3RD-QTR                        VALUE '3'.   PARCV468
015300             88  IPAR-4TH-QTR                        VALUE '4'.   PARCV468
015400     SKIP1                                                        PARCV468
015500         05  IPAR-AFFECT-YEAR        PICTURE X.                   PARCV468
015600             88  IPAR-CURRENT-YEAR                   VALUE 'Y'.   PARCV468
015700             88  IPAR-NO-YTD-BALANCE-AFFECTED        VALUE 'N'.   PARCV468
015800     SKIP1                                                        PARCV468
015900*                                                                *PARCV468
016000*****                                                        *****PARCV468
016100*        CODES:  BLANK                                           *PARCV468
016200*                OR                                              *PARCV468
016300*                Y   =   YEAR-TO-DATE BALANCES AFFECTED          *PARCV468
016400*                N   =   NO YEAR-TO-DATE BALANCES AFFECTED       *PARCV468
016500*****                                                        *****PARCV468
016600*                                                                *PARCV468
016700     SKIP1                                                        PARCV468
016800         05  IPAR-GRS-OVERRIDE       PICTURE X.                   PARCV468
016900             88  IPAR-OVERRIDE-CALC-GRS              VALUE 'Y'.   PARCV468
017000     SKIP1                                                        PARCV468
017100*                                                                *PARCV468
017200*****                                                        *****PARCV468
017300*        CODES:  BLANK   =   NORMAL                              *PARCV468
017400*                N       =   NORMAL (C,O,H TRANSACTIONS ONLY)    *PARCV468
017500*                Y       =   OVERRIDE CALCULATED GROSSES WITH    *PARCV468
017600*                            INPUT GROSSES (C,O,H TRANSACTIONS)  *PARCV468
017700*****                                                        *****PARCV468
017800*                                                                *PARCV468
017900     SKIP1                                                        PARCV468
018000         05  IPAR-GROSSES                                COMP-3.  PARCV468
018100             07  IPAR-TOTAL-GROSS    PICTURE S9(7)V99.            PARCV468
018200             07  IPAR-FWT-GROSS      PICTURE S9(7)V99.            PARCV468
018300             07  IPAR-FICA-GROSS     PICTURE S9(7)V99.            PARCV468
018400             07  IPAR-FILLER-GROSS   PICTURE S9(7)V99.            PARCV468
018500             07  IPAR-STATE-GROSS    PICTURE S9(7)V99.            PARCV468
018600             07  IPAR-RETR-GROSS     PICTURE S9(7)V99.            PARCV468
018700*************07  IPAR-RETR-3-GROSS   PICTURE S9(7)V99.            PARCV468
018800             07  IPAR-FILLER-GROSS-2 PICTURE S9(7)V99.            PARCV468
018900             07  IPAR-WKR-COMP-GROSS PICTURE S9(7)V99.            PARCV468
019000             07  IPAR-UI-GROSS       PICTURE S9(7)V99.            PARCV468
019100     SKIP1                                                        PARCV468
019200         05  IPAR-GROSS-ARRAY    REDEFINES   IPAR-GROSSES.        PARCV468
019300             07  IPAR-GRS    OCCURS  9   TIMES.                   PARCV468
019400                 09  IPAR-GROSS      PICTURE S9(7)V99    COMP-3.  PARCV468
019500     SKIP1                                                        PARCV468
019600         05  IPAR-ADVANCE-INFO                           COMP-3.  PARCV468
019700             07  IPAR-ADV-PAY        PICTURE S9(5)V99.            PARCV468
019800*            07  IPAR-ADDNTL-ADV     PICTURE S9(5)V99.            PARCV468
019900     SKIP1                                                        PARCV468
020000*                                                                *PARCV468
020100******************************************************************PARCV468
020200*        NOTE:   ADDITIONAL ADVANCE AMOUNT HAS NO EFFECT         *PARCV468
020300*                ON NET PAY                                      *PARCV468
020400*   ADD'L ADVANCE AMOUNT REMOVED TO MAKE ROOM FOR                 PARCV468
020500*        MONTHLY DENTAL CONTRIBUTION                              PARCV468
020600******************************************************************PARCV468
020700*                                                                *PARCV468
020800         05  FILLER                  PICTURE X(04).               PARCV468
020900     SKIP1                                                        PARCV468
021000         05  IPAR-NET-PAY            PICTURE S9(7)V99 COMP-3.     PARCV468
021100         05  IPAR-FICA-ELIG-GROSS    PICTURE S9(7)V99 COMP-3.     PARCV468
021200*                                                            CD   PARCV468
021300         05  FILLER                  PICTURE X.                   PARCV468
021400     SKIP1                                                        PARCV468
021500         05  IPAR-RETR-PLAN-CODE     PICTURE X.                   PARCV468
021600             88  IPAR-NO-RETIREMENT                  VALUE SPACE. PARCV468
021700             88  IPAR-NO-RETIREMENT-PLAN             VALUE 'N'.   PARCV468
021800             88  IPAR-CSTRS-RETR                     VALUE 'C'.   PARCV468
021900             88  IPAR-FCSRS-RETR                     VALUE 'F'.   PARCV468
022000             88  IPAR-PERS-RETR                      VALUE 'P'.   PARCV468
022100             88  IPAR-UCRS-NO-DED-RETR               VALUE 'B'.   PARCV468
022200             88  IPAR-UCRS-RETR                      VALUE 'U'.   PARCV468
022300             88  IPAR-OCERS-RETR                     VALUE 'O'.   PARCV468
022400             88  IPAR-SCERS-RETR                     VALUE 'S'.   PARCV468
022500     SKIP1                                                        PARCV468
022600         05  IPAR-HGH-RETR-ELIG      PICTURE X.                   PARCV468
022700             88  IPAR-HGH-NOT-ELIG                   VALUE '0'.   PARCV468
022800             88  IPAR-HGH-ASSOC                      VALUE '1'.   PARCV468
022900             88  IPAR-HGH-SAFETY                     VALUE '2'.   PARCV468
023000             88  IPAR-HGH-REGENTS-3                  VALUE '3'.   PARCV468
023100             88  IPAR-HGH-REGENTS-4                  VALUE '4'.   PARCV468
023200             88  IPAR-HGH-REGENTS-5                  VALUE '5'.   PARCV468
023300     SKIP1                                                        PARCV468
023400         05  IPAR-FICA-ELIG          PICTURE X.                   PARCV468
023500             88  IPAR-NOT-ELIG-FICA                  VALUE 'N'.   PARCV468
023600             88  IPAR-ELIG-FICA                      VALUE 'E'.   PARCV468
023700             88  IPAR-ELIG-MED-FICA                  VALUE 'M'.   PARCV468
023800     SKIP1                                                        PARCV468
023900         05  IPAR-STUDENT-STAT-CODE  PICTURE X.                   PARCV468
024000             88  IPAR-NOT-STUDENT            VALUE '1', '5'.      PARCV468
024100             88  IPAR-DEGREE-CANDIDATE               VALUE '2'.   PARCV468
024200             88  IPAR-UNDR-GRAD-STUDENT              VALUE '3'.   PARCV468
024300             88  IPAR-GRADUATE                       VALUE '4'.   PARCV468
024400     SKIP1                                                        PARCV468
024500         05  IPAR-INS-RED-CD             PIC X.                   PARCV468
024600         05  IPAR-FICA-AT-MAX-IND    PICTURE X.                   PARCV468
024700             88  IPAR-FICA-AT-MAX                    VALUE 'Y'.   PARCV468
024800     SKIP1                                                        PARCV468
024900*                                                                *PARCV468
025000******************************************************************PARCV468
025100*    THE VALUE RANGE FOR THE ABOVE TWO FIELDS ARE 0 THRU 4       *PARCV468
025200******************************************************************PARCV468
025300*                                                                *PARCV468
025400     SKIP1                                                        PARCV468
025500         05  FILLER                  PICTURE X(9).                PARCV468
025600*********05  IPAR-VACA-LOST-OVER-MAX PICTURE S9(3)V99    COMP-3.  PARCV468
025700*********05  IPAR-VACTN-ACCRUED      PICTURE S9(3)V99    COMP-3.  PARCV468
025800*********05  IPAR-SICK-LEAVE-ACCRUED PICTURE S9(3)V99    COMP-3.  PARCV468
025900         05  IPAR-LAST-PAY-DATE.                                  PARCV468
026000             07  IPAR-LAST-PAY-YR    PICTURE 99.                  PARCV468
026100             07  IPAR-LAST-PAY-MO    PICTURE 99.                  PARCV468
026200             07  IPAR-LAST-PAY-DA    PICTURE 99.                  PARCV468
026300     SKIP1                                                        PARCV468
026400         05  IPAR-LAST-PAY-PERIOD    PICTURE XX.                  PARCV468
026500             88  IPAR-LAST-BI-WEEKLY-1               VALUE 'B1'.  PARCV468
026600             88  IPAR-LAST-BI-WEEKLY-2               VALUE 'B2'.  PARCV468
026700             88  IPAR-LAST-SEMI-MONTHLY              VALUE 'SM'.  PARCV468
026800             88  IPAR-LAST-MONTHLY-CURRENT           VALUE 'MO'.  PARCV468
026900             88  IPAR-LAST-MONTHLY-ARREARS           VALUE 'MA'.  PARCV468
027000             88  IPAR-LAST-SPECIAL                   VALUE 'XX'.  PARCV468
027100     SKIP1                                                        PARCV468
027200         05  IPAR-FED-TX-MRT-STAT    PICTURE X.                   PARCV468
027300         05  IPAR-FED-EXEMPTIONS     PICTURE S9(3).               PARCV468
027400         05  IPAR-STATE-TX-MRT-STAT  PICTURE X.                   PARCV468
027500         05  IPAR-STATE-EXEMPTIONS   PICTURE S9(3).               PARCV468
027600         05  IPAR-STATE-ITMZE-EXEMP  PICTURE S9(3).               PARCV468
027700         05  IPAR-PAY-DISPOSITION    PICTURE X.                   PARCV468
027800         05  IPAR-BANK-TRANSIT-NO.                                PARCV468
027900             07  IPAR-BANK-KEY       PICTURE X(5).                PARCV468
028000             07  IPAR-BANK-ACCT      PICTURE X(13).               PARCV468
028100     SKIP1                                                        PARCV468
028200         05  IPAR-PRIOR-EMPLOYEE-ID  PICTURE X(9).                PARCV468
028300         05  IPAR-CBUC               PICTURE X(2).                PARCV468
028400*                                                            CD   PARCV468
028500         05  IPAR-EMP-UNIT-CODE  PICTURE X(02).                   PARCV468
028600         05  IPAR-EMP-SPCL-HNDLG-CODE PICTURE X(01).              PARCV468
028700         05  IPAR-EMP-REL-CODE       PICTURE X(1).                PARCV468
028800         05  IPAR-GTN-PROCESS-SW     PICTURE X.                   PARCV468
028900             88  IPAR-GTN-PROCESS-REQUIRED           VALUE 'G'.   PARCV468
029000     SKIP1                                                        PARCV468
029100         05  IPAR-RCD-DIST-PRI-GROSS PICTURE S9(7)V99    COMP-3.  PARCV468
029200*                                                            CD   PARCV468
029300         05  IPAR-RCD-DIST-PRI-CODE  PICTURE 9.                   PARCV468
029400         05  IPAR-RCD-DIST-PRI-YYMM  PICTURE X(4).                PARCV468
029500         05  IPAR-SS-NUMBER          PICTURE X(9).                PARCV468
029600         05  IPAR-REG-HRS            PICTURE S9(3)V99    COMP-3.  PARCV468
029700         05  IPAR-OT-HRS             PICTURE S9(3)V99    COMP-3.  PARCV468
029800         05  IPAR-NON-WORKED-HRS     PICTURE S9(3)V99    COMP-3.  PARCV468
029900*                                                            CD   PARCV468
030000         05  IPAR-EMP-DIST-UNIT-CODE PICTURE X.                   PARCV468
030100         05  IPAR-EMP-COVERAGE-IND   PICTURE X.                   PARCV468
030200         05  FILLER-2263             PICTURE X(02).               PARCV468
030300         05  IPAR-RTR-GRS-OVR-FICA   PICTURE S9(5)V99 COMP-3.     PARCV468
030400         05  IPAR-MGE-FLEX-GROSS     PICTURE S9(7)V99 COMP-3.     PARCV468
030500         05  IPAR-RETIREMENT-RATE    PICTURE S9(3)V99 COMP-3.     PARCV468
030600*                                                                 PARCV468
030700*  THE FOLLOWING FIELD IS THE 'EXECUTIVE' BENEFIT INDICATOR       PARCV468
030800*  AS OF THE NEW TITLE CODE CLASSIFICATION CHANGES FOR 'MAP'.     PARCV468
030900*  (SEE THE PAR DATA DICTIONARY FOR THE CURRENT DEFINITION.)      PARCV468
031000*     ***    IPAR-MGE-BEN-IND  ***                                PARCV468
031100         05  IPAR-MGE-BEN-IND        PICTURE 9.                   PARCV468
031200             88  IPAR-MGE-NOT-ELIG       VALUE 0.                 PARCV468
031300****                                                              PARCV468
031400             88  IPAR-MGE-BEN-4          VALUE 4.                 PARCV468
031500             88  IPAR-MGE-BEN-5          VALUE 5.                 PARCV468
031600             88  IPAR-MGE-BEN-6          VALUE 6.                 PARCV468
031700             88  IPAR-MGE-BEN-7          VALUE 7.                 PARCV468
031800             88  IPAR-MGE-BEN-8          VALUE 8.                 PARCV468
031900             88  IPAR-MGE-BEN-9          VALUE 9.                 PARCV468
032000     SKIP1                                                        PARCV468
032100         05  FILLER-1400             PICTURE X.                   PARCV468
032200*                                                             CD  PARCV468
032300*********05  FILLER                  PICTURE X(10).               PARCV468
032400         05  FILLER                  PICTURE X(07).               PARCV468
032500         05  IPAR-PRIMARY-PAY-SCHED  PICTURE X(2).                PARCV468
032600         05  IPAR-CURNT-PER-ACRU-IND PICTURE X.                   PARCV468
032700             88  IPAR-ACCRUED-CUR-PER  VALUE 'Y'.                 PARCV468
032800         05  IPAR-VACTN-ACCRUED      PICTURE S9(3)V9(6)  COMP-3.  PARCV468
032900         05  IPAR-SICK-LEAVE-ACCRUED PICTURE S9(3)V9(6)  COMP-3.  PARCV468
033000         05  IPAR-PTO-ACCRUED        PICTURE S9(3)V9(6)  COMP-3.  PARCV468
033100         05  IPAR-VACA-LOST-OVER-MAX PICTURE S9(3)V9(6)  COMP-3.  PARCV468
033200         05  IPAR-SICK-LOST-OVER-MAX PICTURE S9(3)V9(6)  COMP-3.  PARCV468
033300         05  IPAR-PTO-LOST-OVER-MAX  PICTURE S9(3)V9(6)  COMP-3.  PARCV468
033400*********05  IPAR-FILLER-OP          PICTURE X(31).               PARCV468
033500*********05  IPAR-SICK-LOST-OVER-MAX PICTURE S9(3)V99    COMP-3.  PARCV468
033600*********05  IPAR-PTO-ACCRUED        PICTURE S9(3)V99    COMP-3.  PARCV468
033700*********05  IPAR-PTO-LOST-OVER-MAX  PICTURE S9(3)V99    COMP-3.  PARCV468
033800     SKIP1                                                        PARCV468
033900*                                                                *PARCV468
034000******************************************************************PARCV468
034100*        THIS FILLER MAY BE USED FOR OTHER FIXED INFORMATION     *PARCV468
034200******************************************************************PARCV468
034300*                                                                *PARCV468
034400     02  IPAR-VARIABLE.                                           PARCV468
034500     SKIP1                                                        PARCV468
034600     03  IPAR-VARIABLE-PORTION.                                   PARCV468
034700     SKIP1                                                        PARCV468
034800*                                                                 PARCV468
034900******************************************************************PARCV468
035000*            H O U R S   A D J U S T M E N T S                   *PARCV468
035100******************************************************************PARCV468
035200*                                                                *PARCV468
035300     SKIP1                                                        PARCV468
035400         05  IPAR-HRS-ADJS-ARRAY.                                 PARCV468
035500           06  IPAR-HRS-ADJUSTMENTS                               PARCV468
035600                         OCCURS  0   TO  10  TIMES                PARCV468
035700                         DEPENDING   ON  IPAR-NO-HRS-ADJ.         PARCV468
035800     SKIP1                                                        PARCV468
035900             07  IPAR-HRS-CODE       PICTURE 9(4).                PARCV468
036000             07  IPAR-HRS-ADJ        PICTURE S9(5)V99    COMP-3.  PARCV468
036100     SKIP1                                                        PARCV468
036200*                                                                 PARCV468
036300******************************************************************PARCV468
036400*            D O L L A R   A D J U S T M E N T S.                *PARCV468
036500******************************************************************PARCV468
036600*                                                                *PARCV468
036700     SKIP1                                                        PARCV468
036800         05  IPAR-DLR-ADJS-ARRAY.                                 PARCV468
036900           06  IPAR-ADJ-FLDS      OCCURS                          PARCV468
037000                             0   TO  20  TIMES                    PARCV468
037100                             DEPENDING   ON  IPAR-NO-ADJS.        PARCV468
037200     SKIP1                                                        PARCV468
037300             07  IPAR-ADJ-CODE       PICTURE 9(4).                PARCV468
037400     SKIP1                                                        PARCV468
037500*                                                                *PARCV468
037600*****                                                        *****PARCV468
037700*        CODE:   55XX    FOR DOLLAR BALANCE SEGMENT              *PARCV468
037800*                6XXX    FOR FLOATING SEGMENTS, XXX IS DED NO.   *PARCV468
037900*****                                                        *****PARCV468
038000*                                                                *PARCV468
038100     SKIP1                                                        PARCV468
038200             07  IPAR-ADJ-TYPE       PICTURE X.                   PARCV468
038300                 88  IPAR-ADJ-NOT-GTN                VALUE ' '.   PARCV468
038400                 88  IPAR-ADJ-EMPLOYMNT-TO-DATE      VALUE 'E'.   PARCV468
038500                 88  IPAR-ADJ-FISCAL-YTD             VALUE 'F'.   PARCV468
038600                 88  IPAR-ADJ-QTD                    VALUE 'Q'.   PARCV468
038700                 88  IPAR-ADJ-SUSP-PREPAID           VALUE 'S'.   PARCV468
038800                 88  IPAR-ADJ-USER-DEF-BAL           VALUE 'U'.   PARCV468
038900                 88  IPAR-ADJ-CALENDAR-YTD           VALUE 'Y'.   PARCV468
039000                 88  IPAR-ADJ-DECLINING-BAL          VALUE 'D'.   PARCV468
039100                 88  IPAR-ADJ-GTN                    VALUE 'G'.   PARCV468
039200     SKIP1                                                        PARCV468
039300*                                                                *PARCV468
039400******************************************************************PARCV468
039500*        THIS FIELD CONTAINS THE GTN TABLE BALANCE INDICTOR      *PARCV468
039600*        FOR THOSE ADJUSTMENTS TO THE GROSS-TO-NET SEGMENTS.     *PARCV468
039700*        THEIR ASSOCIATED ADJUSTMENT CODE CONTAINS A HIGH-ORDER  *PARCV468
039800*        BLANK.                                                  *PARCV468
039900******************************************************************PARCV468
040000*                                                                *PARCV468
040100     SKIP1                                                        PARCV468
040200             07  IPAR-ADJ-FILLER     PICTURE X.                   PARCV468
040300             07  IPAR-ADJ-AMT        PICTURE S9(5)V99    COMP-3.  PARCV468
040400     SKIP1                                                        PARCV468
040500*                                                                *PARCV468
040600******************************************************************PARCV468
040700*            E A R N I N G   D I S T R I B U T I O N             *PARCV468
040800******************************************************************PARCV468
040900*                                                                *PARCV468
041000     SKIP1                                                        PARCV468
041100         05  IPAR-EARNGS-DIST-ARRAY.                              PARCV468
041200           06  IPAR-EARNING-DISTRIBUTION                          PARCV468
041300                         OCCURS 0 TO 99 TIMES                     PARCV468
041400                             DEPENDING   ON  IPAR-NO-ACCTS.       PARCV468
041500*                                                                 PARCV468
041600*                                                                 PARCV468
041700*                                                                 PARCV468
041800******************************************************************PARCV468
041900     SKIP1                                                        PARCV468
042000             07  IPAR-DIST-CMP-FLD.                               PARCV468
042100                 09  IPAR-ACCT-DESC.                              PARCV468
042200                     11  IPAR-DIST-NO    PICTURE XX.              PARCV468
042300                     11  IPAR-ACCT-FUND.                          PARCV468
042400                         13  IPAR-AF-LOC PICTURE X.               PARCV468
042500                         13  IPAR-ACCT   PICTURE 9(6).            PARCV468
042600                         13  IPAR-FUND   PICTURE 9(5).            PARCV468
042700                         13  IPAR-AF-SUB PICTURE 9.               PARCV468
042800*                                                            CD   PARCV468
042900                     11  IPAR-TITLE-UNIT-CODE PIC X(02).          PARCV468
043000                     11  IPAR-EARN-SPCL-HNDLG-CODE PIC X.         PARCV468
043100                     11  IPAR-EARN-COVERAGE-IND    PIC X.         PARCV468
043200                     11  IPAR-EARN-DIST-UNIT-CODE  PIC X.         PARCV468
043300                     11  IPAR-EARN-EMP-REL-CODE    PIC X.         PARCV468
043400*                                                            CD   PARCV468
043500*********************11  FILLER-3120               PIC X.         PARCV468
043600                     11  IPAR-LV-ASSESSMNT-IND     PIC X.         PARCV468
043700                         88  IPAR-ASSESS-LEAVE     VALUE 'Y'.     PARCV468
043800     SKIP1                                                        PARCV468
043900                     11  IPAR-ACC-MGE-B  PICTURE X.               PARCV468
044000                         88  IPAR-ACC-MGE-ELIG     VALUE 'M'.     PARCV468
044100                     11  IPAR-PAYCY-CODE PICTURE X.               PARCV468
044200                         88  IPAR-SEMI-MNTHLY-PAYCY  VALUE 'S'.   PARCV468
044300                         88  IPAR-BI-WKLY-PAYCY      VALUE 'B'.   PARCV468
044400                         88  IPAR-MONTHLY-PAYCY      VALUE 'M'.   PARCV468
044500     SKIP1                                                        PARCV468
044600                     11  IPAR-RETR-ELIG  PICTURE X.               PARCV468
044700                         88  IPAR-NOT-ELIG           VALUE '0'.   PARCV468
044800                         88  IPAR-ASSOC              VALUE '1'.   PARCV468
044900                         88  IPAR-SAFETY             VALUE '2'.   PARCV468
045000                         88  IPAR-REGENTS-3          VALUE '3'.   PARCV468
045100                         88  IPAR-REGENTS-4          VALUE '4'.   PARCV468
045200                         88  IPAR-REGENTS-5          VALUE '5'.   PARCV468
045300     SKIP1                                                        PARCV468
045400                     11  IPAR-PAYRATE-HR PICTURE S9(3)V9(4)       PARCV468
045500                                                         COMP-3.  PARCV468
045600                     11  IPAR-PAYRATE-SAL   REDEFINES             PARCV468
045700                         IPAR-PAYRATE-HR PICTURE S9(5)V99 COMP-3. PARCV468
045800                     11  IPAR-RATE-TYPE  PICTURE X.               PARCV468
045900                         88  IPAR-RATE-TYP-SAL       VALUE '2'.   PARCV468
046000                         88  IPAR-RATE-HRS           VALUE '4'.   PARCV468
046100     SKIP1                                                        PARCV468
046200                     11  IPAR-EXPS-XFER  PICTURE X.               PARCV468
046300                     11  IPAR-LV-AC-CODE PICTURE X.               PARCV468
046400                         88  IPAR-NO-LV-ACCRUALS     VALUE 'N'.   PARCV468
046500     SKIP1                                                        PARCV468
046600*                                                                *PARCV468
046700******************************************************************PARCV468
046800*    CODED A THRU F, BLANK OR N                                  *PARCV468
046900******************************************************************PARCV468
047000*                                                                *PARCV468
047100     SKIP1                                                        PARCV468
047200                     11  IPAR-WK-STDY-CD PICTURE X.               PARCV468
047300                         88  IPAR-NO-WSP         VALUE ' '.       PARCV468
047400                         88  IPAR-FED-CFY-U          VALUE 'F'.   PARCV468
047500                         88  IPAR-FED-PFY-U          VALUE 'G'    PARCV468
047600                                                           '1'.   PARCV468
047700                         88  IPAR-FED-CFY-G          VALUE 'H'.   PARCV468
047800                         88  IPAR-FED-PFY-G          VALUE 'I'    PARCV468
047900                                                           '2'.   PARCV468
048000                         88  IPAR-PRS-CFY-U          VALUE 'P'.   PARCV468
048100                         88  IPAR-PRS-PFY-U          VALUE 'Q'    PARCV468
048200                                                           '3'.   PARCV468
048300                         88  IPAR-PRS-CFY-G          VALUE 'R'.   PARCV468
048400                         88  IPAR-PRS-PFY-G          VALUE 'S'    PARCV468
048500                                                           '4'.   PARCV468
048600     SKIP1                                                        PARCV468
048700                     11  IPAR-INTRANS-CD PICTURE XX.              PARCV468
048800                         88  IPAR-NO-TC              VALUE SPACES.PARCV468
048900                         88  IPAR-ADDTL-PAY          VALUE 'AP'.  PARCV468
049000                         88  IPAR-CANC               VALUE 'C2'.  PARCV468
049100                         88  IPAR-EXP-TRNSFR-1       VALUE 'E1'.  PARCV468
049200                         88  IPAR-EXP-TRNSFR-3       VALUE 'E3'.  PARCV468
049300                         88  IPAR-ONE-TIME-PAYMNT    VALUE 'FT'.  PARCV468
049400                         88  IPAR-HAND-DRAWN         VALUE 'H2'.  PARCV468
049500                         88  IPAR-LATE-TIME-OR-LV    VALUE 'LX'.  PARCV468
049600                         88  IPAR-OVERPAYMNT         VALUE 'O2'.  PARCV468
049700                         88  IPAR-RETRO-ADJ          VALUE 'RA'.  PARCV468
049800                         88  IPAR-REDUCT-IN-PAY      VALUE 'RX'.  PARCV468
049900                         88  IPAR-LIEU-OF-NOTICE     VALUE 'ST'.  PARCV468
050000                         88  IPAR-TIME-EXCEPT        VALUE 'TE'.  PARCV468
050100                         88  IPAR-POSITIVE-TIME      VALUE 'TX'.  PARCV468
050200     SKIP1                                                        PARCV468
050300                 09  IPAR-PERIOD-END-DATE.                        PARCV468
050400                     11  IPAR-PER-END-YR PICTURE 99.              PARCV468
050500                     11  IPAR-PER-END-MO PICTURE 99.              PARCV468
050600                     11  IPAR-PER-END-DA PICTURE 99.              PARCV468
050700     SKIP1                                                        PARCV468
050800                 09  IPAR-TITLE.                                  PARCV468
050900                     11  IPAR-TITLE-CODE.                         PARCV468
051000                         13  FILLER      PICTURE 9.               PARCV468
051100                         13  IPAR-TTL-CD PICTURE 9(4).            PARCV468
051200     SKIP1                                                        PARCV468
051300     SKIP1                                                        PARCV468
051400                 09  IPAR-DOS            PICTURE X(3).            PARCV468
051500                 09  IPAR-RATE-ADJ-IND   PICTURE X.               PARCV468
051600                     88  IPAR-HOURS-NOT-POSTED       VALUE 'A'.   PARCV468
051700     SKIP1                                                        PARCV468
051800*                                                                *PARCV468
051900*****                                                        *****PARCV468
052000*    CODED:  A  =  HOURS NOT POSTED TO HOURS/GROSS SEGMENT       *PARCV468
052100*****                                                        *****PARCV468
052200*                                                                *PARCV468
052300     SKIP1                                                        PARCV468
052400             07  IPAR-DIST-VARIABLES         COMP-3.              PARCV468
052500                 09  IPAR-TIME-HRS       PICTURE S9(3)V99.        PARCV468
052600                 09  IPAR-EARN-AMT       PICTURE S9(5)V99.        PARCV468
052700                 09  IPAR-EARN-PCT       PICTURE S9V9(4).         PARCV468
052800             07  IPAR-EARN-FILLER-4005   PICTURE X(10).           PARCV468
052900     SKIP1                                                        PARCV468
053000*                                                            CD   PARCV468
053100             07  IPAR-EARN-FILLER-OP     PICTURE X(02).           PARCV468
053200             07  IPAR-EARN-FILLER-COS    PICTURE X(20).           PARCV468
053300             07  IPAR-EARN-PRI-GROSS-NO  PICTURE X.               PARCV468
053400             07  IPAR-APPT-TYPE          PICTURE X(1).            PARCV468
053500*                                                            CD   PARCV468
053600             07  IPAR-EARN-FILLER        PICTURE X(1).            PARCV468
053700     SKIP1                                                        PARCV468
053800*                                                                *PARCV468
053900******************************************************************PARCV468
054000*            D E D U C T I O N S,   C O N T R I B U T I O N S    *PARCV468
054100******************************************************************PARCV468
054200*                                                                *PARCV468
054300     SKIP1                                                        PARCV468
054400         05  IPAR-DEDUCTN-ARRAY.                                  PARCV468
054500           06  IPAR-CUR-DED-REFS                                  PARCV468
054600                                 OCCURS  0  TO  40  TIMES         PARCV468
054700                                 DEPENDING   ON  IPAR-NO-DED-REF. PARCV468
054800     SKIP1                                                        PARCV468
054900             07  IPAR-CUR-DED-CODE   PICTURE 9(3).                PARCV468
055000             07  IPAR-GTN-TYPE       PICTURE X.                   PARCV468
055100                 88  IPAR-GTN-DEDUCTION              VALUE 'D'.   PARCV468
055200                 88  IPAR-GTN-REDUCTION              VALUE 'R'.   PARCV468
055300                 88  IPAR-GTN-CONTRIBUTION           VALUE 'C'.   PARCV468
055400     SKIP1                                                        PARCV468
055500             07  IPAR-GTN-GROUP      PICTURE X.                   PARCV468
055600                 88  IPAR-GTN-GRP-TAX                VALUE 'T'.   PARCV468
055700                 88  IPAR-GTN-GRP-RETIREMENT         VALUE 'R'.   PARCV468
055800                 88  IPAR-GTN-GRP-INSURANCE          VALUE 'I'.   PARCV468
055900                 88  IPAR-GTN-GRP-MISC-DED           VALUE 'M'.   PARCV468
056000     SKIP1                                                        PARCV468
056100             07  IPAR-SPEC-TRANS     PICTURE X.                   PARCV468
056200                 88  IPAR-NORMAL-DED-CONTRIB         VALUE ' '.   PARCV468
056300                 88  IPAR-ONE-TIME-DED               VALUE 'O'.   PARCV468
056400*                                                                 PARCV468
056500*                                                                 PARCV468
056600                 88  IPAR-REFUND                     VALUE 'R'.   PARCV468
056700     SKIP1                                                        PARCV468
056800             07  IPAR-SOURCE-CODE    PICTURE X.                   PARCV468
056900                 88  IPAR-NORMAL-SOURCE              VALUE ' '.   PARCV468
057000                 88  IPAR-PREPAYMENT                 VALUE 'A'.   PARCV468
057100                 88  IPAR-DED-FRM-PREPAYMNT          VALUE 'P'.   PARCV468
057200                 88  IPAR-DED-SUSPENDED              VALUE 'S'.   PARCV468
057300                 88  IPAR-SUSP-RECVBLE               VALUE 'R'.   PARCV468
057400                 88  IPAR-DED-NOT-TAKEN              VALUE 'N'.   PARCV468
057500                 88  IPAR-DED-FRM-PREV-SUSP-BAL      VALUE 'D'.   PARCV468
057600                 88  IPAR-DED-FRM-SUSP-RECVBLE       VALUE 'V'.   PARCV468
057700     SKIP1                                                        PARCV468
057800*                                                                *PARCV468
057900*****                                                        *****PARCV468
058000*        CODES:  BLANK   =   NORMAL                              *PARCV468
058100*                    A   =   PREPAYMENT                          *PARCV468
058200*                    P   =   DEDUCTION FROM A PREPAYMENT         *PARCV468
058300*                    S   =   DEDUCTION WAS SUSPENDED             *PARCV468
058400*                    R   =   DEDUCTION WAS SUSPENDED AS A        *PARCV468
058500*                            RECEIVABLE                          *PARCV468
058600*                    N   =   DEDUCTION NOT TAKEN                 *PARCV468
058700*                    D   =   DEDUCTION WAS TAKEN FROM A          *PARCV468
058800*                            PREVIOUSLY SUSPENDED BALANCE        *PARCV468
058900*                    V   =   DEDUCTION WAS TAKEN FROM A          *PARCV468
059000*                            PREVIOUSLY SUSPENDED RECEIVABLE     *PARCV468
059100*****                                                        *****PARCV468
059200*                                                                *PARCV468
059300     SKIP1                                                        PARCV468
059400             07  IPAR-DED-QTR-CODE   PICTURE X.                   PARCV468
059500             07  IPAR-DED-YR-CODE    PICTURE X.                   PARCV468
059600             07  IPAR-DED-FILLER     PICTURE X.                   PARCV468
059700             07  IPAR-CUR-AMT        PICTURE S9(5)V99    COMP-3.  PARCV468
059800             07  IPAR-BRSC           PIC X(05).                   PARCV468
059900     SKIP1                                                        PARCV468
060000*                                                                *PARCV468
060100******************************************************************PARCV468
060200*                                                                *PARCV468
060300*        VARIABLE    FILLER  FOR ADDITIONAL EXPANSION            *PARCV468
060400*                                                                *PARCV468
060500*            ** NOTE **                                          *PARCV468
060600*                        THIS FILLER IS USED AS A WORK AREA IN   *PARCV468
060700*                        THE PAR INTERFACE BETWEEN THE PAYROLL   *PARCV468
060800*                        CALCULATION AND THE GROSS-TO-NET MODULES*PARCV468
060900*                        BUT IT IS CLEARED BEFORE THE FINAL      *PARCV468
061000*                        ISSUANCE TO THE PAYROLL AUDIT FILE.     *PARCV468
061100*                                                                *PARCV468
061200******************************************************************PARCV468
061300*                                                                *PARCV468
061400     SKIP1                                                        PARCV468
061500         05  IPAR-WORK-FIL-ARRAY.                                 PARCV468
061600           06  IPAR-ADDL-FILLER                                   PARCV468
061700                                 OCCURS  0  TO  20  TIMES         PARCV468
061800                                 DEPENDING   ON  IPAR-NO-WORK-FIL.PARCV468
061900     SKIP1                                                        PARCV468
062000             07  IPAR-WORK-AREA.                                  PARCV468
062100                 09  IPAR-WK-AMT     PICTURE S9(7)V99    COMP-3.  PARCV468
062200                 09  IPAR-WK-CHR     PICTURE X.                   PARCV468
062300     SKIP1                                                        PARCV468
062400*                                                                *PARCV468
062500     SKIP3                                                        PARCV468
062600 FD  PAR-OUT-FILE                        COPY CPFDXPAR.           PARCV468
062700 01  XPAR-PAY-AUDIT-REC.                 COPY CPWSXPAR.           PARCV468
062800     EJECT                                                        PARCV468
062900 FD  PRINT-FILE                          COPY CPFDXPRT.           PARCV468
063000*                                                                 PARCV468
063100 01  PRINT-REC-RDF.                                               PARCV468
063200     05  CARRIAGE-CHAR           PIC X.                           PARCV468
063300     05  PRT-DESC-1              PIC X(25).                       PARCV468
063400     05  PRT-COUNT               PIC Z,ZZZ,ZZ9.                   PARCV468
063500     05  PRT-DESC-2              PIC X(25).                       PARCV468
063600     05  FILLER                  PIC X(73).                       PARCV468
063700     EJECT                                                        PARCV468
063800 WORKING-STORAGE SECTION.                                         PARCV468
063900 01  MISC-DATA.                                                   PARCV468
064000     05  A-STND-PROG-ID          PIC X(15)       VALUE            PARCV468
064100         'PARCV468/041690'.                                       PARCV468
064200     05  LINE-CNT                PIC 9(3)   COMP SYNC VALUE ZERO. PARCV468
064300     05  EOF-PAR-SW              PIC 9      VALUE ZERO.           PARCV468
064400     05  PAR-ERROR-SW            PIC 9      VALUE ZERO.           PARCV468
064500     05  I-O-COUNTS.                                              PARCV468
064600         10  COUNT-IN-PAR-RECS   PIC S9(7) COMP SYNC VALUE ZERO.  PARCV468
064700         10  COUNT-HRS-PAR-RECS  PIC S9(7) COMP SYNC VALUE ZERO.  PARCV468
064800         10  COUNT-OUT-PAR-RECS  PIC S9(7) COMP SYNC VALUE ZERO.  PARCV468
064900     05  HRS-INDEX               PIC S9(3) COMP SYNC VALUE ZERO.  PARCV468
065000 01  DATE-FORMAT.                  COPY CPWSDATE.                 PARCV468
065100     SKIP1                                                        PARCV468
065200*01  STND-RPT-HD                   COPY CPWSPSHR.                 PARCV468
065300 01  STND-RPT-HD.                  COPY CPWSPSHR.                 PARCV468
065400*                                                                 PARCV468
065500     EJECT                                                        PARCV468
065600******************************************************************PARCV468
065700*                P R O C E D U R E  D I V I S I O N              *PARCV468
065800******************************************************************PARCV468
065900 PROCEDURE DIVISION.                                              PARCV468
066300*                                                                 PARCV468
066400     OPEN INPUT  PAR-IN-FILE                                      PARCV468
066500          OUTPUT PAR-OUT-FILE                                     PARCV468
066600                 PRINT-FILE.                                      PARCV468
066700*                                                                 PARCV468
066800     PERFORM READ-WRITE-PAR-1000                                  PARCV468
066900         UNTIL EOF-PAR-SW NOT = ZERO.                             PARCV468
067000*                                                                 PARCV468
067100     PERFORM PRINT-EOJ-COUNTS-2000.                               PARCV468
067200*                                                                 PARCV468
067300     CLOSE PAR-IN-FILE                                            PARCV468
067400           PAR-OUT-FILE                                           PARCV468
067500           PRINT-FILE.                                            PARCV468
067600*                                                                 PARCV468
067700     STOP RUN.                                                    PARCV468
067800*                                                                 PARCV468
067900     EJECT                                                        PARCV468
068000*                                                                 PARCV468
068100 READ-WRITE-PAR-1000  SECTION.                                    PARCV468
068200 READ-WRITE-ENTRY-1000.                                           PARCV468
068300*                                                                 PARCV468
068400     READ PAR-IN-FILE                                             PARCV468
068500         AT END                                                   PARCV468
068600             MOVE 1  TO EOF-PAR-SW                                PARCV468
068700             GO TO EXIT-1000.                                     PARCV468
068800*                                                                 PARCV468
068900     ADD +1  TO COUNT-IN-PAR-RECS.                                PARCV468
069000                                                                  PARCV468
069100     MOVE IPAR-PAY-AUDIT-REC  TO  XPAR-PAY-AUDIT-REC.             PARCV468
069200*                                                                 PARCV468
069300     IF IPAR-NO-HRS-ADJ  >  ZEROES                                PARCV468
069310        ADD +1  TO COUNT-HRS-PAR-RECS                             PARCV468
069400        PERFORM                                                   PARCV468
069500          VARYING  HRS-INDEX  FROM 1 BY 1                         PARCV468
069600          UNTIL    HRS-INDEX  >  IPAR-NO-HRS-ADJ                  PARCV468
069700             MOVE IPAR-HRS-CODE (HRS-INDEX)  TO                   PARCV468
069800                  XPAR-HRS-CODE (HRS-INDEX)                       PARCV468
069900             MOVE IPAR-HRS-ADJ  (HRS-INDEX)  TO                   PARCV468
070000                  XPAR-HRS-ADJ  (HRS-INDEX)                       PARCV468
070100        END-PERFORM                                               PARCV468
070200     END-IF.                                                      PARCV468
070300*                                                                 PARCV468
070400     WRITE XPAR-PAY-AUDIT-REC                                     PARCV468
070500         INVALID KEY                                              PARCV468
070510             MOVE 1  TO EOF-PAR-SW                                PARCV468
070600             MOVE 1  TO PAR-ERROR-SW.                             PARCV468
070700*                                                                 PARCV468
070800     IF PAR-ERROR-SW  = ZERO                                      PARCV468
070900         ADD +1  TO COUNT-OUT-PAR-RECS.                           PARCV468
071000*                                                                 PARCV468
071100 EXIT-1000.        EXIT.                                          PARCV468
071200*                                                                 PARCV468
071201 PRINT-EOJ-COUNTS-2000  SECTION.                                  PARCV468
071202*                                                                 PARCV468
071203     COPY CPPDDATE.                                               PARCV468
071204     MOVE 'PARCONV' TO STND-RPT-ID.                               PARCV468
071205     MOVE A-STND-PROG-ID TO STND-PROG-ID.                         PARCV468
071206     MOVE ZEROS TO STND-PAGE-NO.                                  PARCV468
071207     MOVE GREGORIAN-DATE TO STND-RPT-DATE.                        PARCV468
071208     MOVE SPACES TO STND-RPT-HD3.                                 PARCV468
071209     MOVE '         PAR CONVERSION TOTALS  ' TO STND-RPT-TTL.     PARCV468
071210*                                                                 PARCV468
071211     MOVE 5 TO LINE-CNT.                                          PARCV468
071212     ADD 1 TO STND-PAGE-NO.                                       PARCV468
071213     WRITE PRINT-REC FROM STND-RPT-HD1 AFTER ADVANCING NEW-PAGE.  PARCV468
071214     WRITE PRINT-REC FROM STND-RPT-HD2 AFTER 1.                   PARCV468
071215     WRITE PRINT-REC FROM STND-RPT-HD3 AFTER 1.                   PARCV468
071216*                                                                 PARCV468
071217     MOVE SPACES TO PRINT-REC.                                    PARCV468
071218     IF PAR-ERROR-SW  NOT = ZERO                                  PARCV468
071219         MOVE '** PAR WRITE ERROR **    ' TO PRT-DESC-1           PARCV468
071220         MOVE '** ERROR RERUN JOB **    ' TO PRT-DESC-2           PARCV468
071221         WRITE PRINT-REC AFTER 2                                  PARCV468
071222         MOVE SPACES TO PRINT-REC                                 PARCV468
071223     END-IF.                                                      PARCV468
071224*                                                                 PARCV468
071225     MOVE 'TOTAL PAR RECS READ:     ' TO PRT-DESC-1.              PARCV468
071226     MOVE COUNT-IN-PAR-RECS           TO PRT-COUNT.               PARCV468
071227     WRITE PRINT-REC AFTER 2.                                     PARCV468
071228     MOVE SPACES TO PRINT-REC.                                    PARCV468
071229*                                                                 PARCV468
071230     MOVE 'NUMBER OF PAR RECORDS:   ' TO PRT-DESC-1.              PARCV468
071231     MOVE COUNT-HRS-PAR-RECS          TO PRT-COUNT.               PARCV468
071232     MOVE '  WITH HOUR ADJUSTMENTS  ' TO PRT-DESC-2.              PARCV468
071233     WRITE PRINT-REC AFTER 2.                                     PARCV468
071234     MOVE SPACES TO PRINT-REC.                                    PARCV468
071235*                                                                 PARCV468
071245     MOVE 'TOTAL PAR RECS WRITTEN:  ' TO PRT-DESC-1.              PARCV468
071246     MOVE COUNT-OUT-PAR-RECS          TO PRT-COUNT.               PARCV468
071249     WRITE PRINT-REC AFTER 2.                                     PARCV468
071250     MOVE SPACES TO PRINT-REC.                                    PARCV468
071251*                                                                 PARCV468
071252 EXIT-2000.    EXIT.                                              PARCV468
071260*                                                                 PARCV468
