000100**************************************************************/   37540566
000200*  PROGRAM:  PPCNVPAR                                        */   37540566
000300*  RELEASE # ___0566___   SERVICE REQUEST NO(S) __1442______ */   37540566
000400*  NAME ___M. SANO_____                DATE ____04/11/91_____*/   37540566
000500*  DESCRIPTION                                               */   37540566
000600*      - ONE TIME PROGRAM TO CONVERT PAR RECORD BY INCREASING*/   37540566
000700*        SIZE OF DOLLAR ADJUSTMENT AMOUNT AND DELETING FILLER*/   37540566
000710*        IMMEDIATELY PRECEDING IT                            */   37540566
000800**************************************************************/   37540566
000900**************************************************************/   PPCNVPAR
001000     EJECT                                                        PPCNVPAR
001100 IDENTIFICATION DIVISION.                                         PPCNVPAR
001200 PROGRAM-ID. PPCNVPAR.                                            PPCNVPAR
001300 AUTHOR. UNIV. OF CA.                                             PPCNVPAR
001400 DATE-COMPILED.                                                   PPCNVPAR
001500*REMARKS.                                                         PPCNVPAR
001600**   THIS PROGRAM READS PAR RECORDS CREATED PRIOR TO RELEASE 0566 PPCNVPAR
001700**   AND REFORMATS THESE RECORDS TO CONFORM TO THE REVISED PAR    PPCNVPAR
001800**   RECORD LAYOUT AS PER RELEASE 0566.                           PPCNVPAR
001900     EJECT                                                        PPCNVPAR
002000 ENVIRONMENT DIVISION.                                            PPCNVPAR
002100 CONFIGURATION SECTION.                                           PPCNVPAR
002200 SOURCE-COMPUTER.            COPY CPOTXISI.                       PPCNVPAR
002300 OBJECT-COMPUTER.            COPY CPOTXOBJ.                       PPCNVPAR
002400 SPECIAL-NAMES.                                                   PPCNVPAR
002500*    C01 IS NEW-PAGE,                                             PPCNVPAR
002600     C01 IS NEW-PAGE.                                             PPCNVPAR
002700*                                                                 PPCNVPAR
002800 INPUT-OUTPUT SECTION.                                            PPCNVPAR
002900 FILE-CONTROL.                                                    PPCNVPAR
003000     SELECT  PAR-IN-FILE                                          PPCNVPAR
003100                 ASSIGN TO UT-S-PARIN.                            PPCNVPAR
003200*                                                                 PPCNVPAR
003300     SELECT  PAR-OUT-FILE                                         PPCNVPAR
003400                 ASSIGN TO UT-S-PAROUT.                           PPCNVPAR
003500*                                                                 PPCNVPAR
003600     SELECT  PRINT-FILE                      COPY CPSLXPRT.       PPCNVPAR
003700*                                                                 PPCNVPAR
003800     EJECT                                                        PPCNVPAR
003900******************************************************************PPCNVPAR
004000*                D A T A  D I V I S I O N                        *PPCNVPAR
004100******************************************************************PPCNVPAR
004200*                                                                 PPCNVPAR
004300 DATA DIVISION.                                                   PPCNVPAR
004400 FILE SECTION.                                                    PPCNVPAR
004510 FD  PAR-IN-FILE                         COPY CPFDXPAR.           PPCNVPAR
005100     SKIP1                                                        PPCNVPAR
005200 01  PAR-IN-RECORD.                                               PPCNVPAR
016351     02  IPAR-FIXED.                                              PPCNVPAR
016352     SKIP1                                                        PPCNVPAR
016353     03  IPAR-KEY.                                                PPCNVPAR
016354         05  IPAR-ID-NO              PICTURE X(9).                PPCNVPAR
016355         05  IPAR-PRI-GRS-CTL        PICTURE S9(3).               PPCNVPAR
016356         05  IPAR-PAY-END-DATE.                                   PPCNVPAR
016357             07  IPAR-PAY-END-YR     PICTURE 99.                  PPCNVPAR
016358             07  IPAR-PAY-END-MO     PICTURE 99.                  PPCNVPAR
016359             07  IPAR-PAY-END-DA     PICTURE 99.                  PPCNVPAR
016360     SKIP1                                                        PPCNVPAR
016361         05  IPAR-PAY-CYCLE          PICTURE XX.                  PPCNVPAR
016368     SKIP1                                                        PPCNVPAR
016369         05  IPAR-TRANS-SEQ-CODE     PICTURE XX.                  PPCNVPAR
016376     SKIP1                                                        PPCNVPAR
016377     03  IPAR-STOP-PAY-IND           PICTURE X.                   PPCNVPAR
016381     SKIP1                                                        PPCNVPAR
016382     03  IPAR-UNCLAIM-CK-CODE    PICTURE X.                       PPCNVPAR
016385     SKIP1                                                        PPCNVPAR
016386     03  IPAR-VARIABLE-LNGH-IND.                                  PPCNVPAR
016387         05  IPAR-NO-HRS-ADJ         PICTURE S9(4) COMP SYNC.     PPCNVPAR
016388         05  IPAR-NO-ADJS            PICTURE S9(4) COMP SYNC.     PPCNVPAR
016389         05  IPAR-NO-ACCTS           PICTURE S9(4) COMP SYNC.     PPCNVPAR
016390         05  IPAR-NO-DED-REF         PICTURE S9(4) COMP SYNC.     PPCNVPAR
016391         05  IPAR-NO-WORK-FIL        PICTURE S9(4) COMP SYNC.     PPCNVPAR
016392     SKIP1                                                        PPCNVPAR
016394     03  IPAR-FIXED-PORTION          PICTURE X(282).              PPCNVPAR
016395     SKIP1                                                        PPCNVPAR
016396     03  IPAR-PCR-REDEFINITION  REDEFINES  IPAR-FIXED-PORTION.    PPCNVPAR
016397     SKIP1                                                        PPCNVPAR
016398         05  IPAR-PAYROLL-CNTL-REC   PICTURE X(224).              PPCNVPAR
016399         05  FILLER                  PICTURE X(18).               PPCNVPAR
016400         05  IPAR-PCR-FILLER-OP      PICTURE X(40).               PPCNVPAR
016401     SKIP1                                                        PPCNVPAR
016402     03  IPAR-FIXED-DATA     REDEFINES   IPAR-FIXED-PORTION.      PPCNVPAR
016403         05  IPAR-NAME.                                           PPCNVPAR
016404             07  IPAR-NAME-26        PICTURE X(26).               PPCNVPAR
016405             07  IPAR-NAME-SUFX      PICTURE X(4).                PPCNVPAR
016406         05  IPAR-EMPL-STATUS        PICTURE X.                   PPCNVPAR
016412     SKIP1                                                        PPCNVPAR
016413         05  IPAR-STATUS-EFF-DATE.                                PPCNVPAR
016414             07  IPAR-STATUS-YR      PICTURE 99.                  PPCNVPAR
016415             07  IPAR-STATUS-MO      PICTURE 99.                  PPCNVPAR
016416             07  IPAR-STATUS-DA      PICTURE 99.                  PPCNVPAR
016417     SKIP1                                                        PPCNVPAR
016418         05  IPAR-CAMPUS             PICTURE XX.                  PPCNVPAR
016419         05  IPAR-DEPT.                                           PPCNVPAR
016421             07  IPAR-DEPT-NR        PICTURE X(6).                PPCNVPAR
016422             07  FILLER              PICTURE XX.                  PPCNVPAR
016423     SKIP1                                                        PPCNVPAR
016424         05  IPAR-CK-ACCT-PBL.                                    PPCNVPAR
016425             07  IPAR-CK-OR-ACCT-PBL PICTURE X.                   PPCNVPAR
016429     SKIP1                                                        PPCNVPAR
016430             07  IPAR-CK-ACCTPYBL-NR PICTURE 9(6).                PPCNVPAR
016431     SKIP1                                                        PPCNVPAR
016432         05  IPAR-CHECK-DATE.                                     PPCNVPAR
016433             07  IPAR-CHECK-YR       PICTURE 99.                  PPCNVPAR
016434             07  IPAR-CHECK-MO       PICTURE 99.                  PPCNVPAR
016435             07  IPAR-CHECK-DA       PICTURE 99.                  PPCNVPAR
016436     SKIP1                                                        PPCNVPAR
016437         05  IPAR-AFFECT-QTR         PICTURE X.                   PPCNVPAR
016443     SKIP1                                                        PPCNVPAR
016444         05  IPAR-AFFECT-YEAR        PICTURE X.                   PPCNVPAR
016447     SKIP1                                                        PPCNVPAR
016448*                                                                *PPCNVPAR
016455*                                                                *PPCNVPAR
016456     SKIP1                                                        PPCNVPAR
016457         05  IPAR-GRS-OVERRIDE       PICTURE X.                   PPCNVPAR
016459     SKIP1                                                        PPCNVPAR
016460*                                                                *PPCNVPAR
016467*                                                                *PPCNVPAR
016468     SKIP1                                                        PPCNVPAR
016469         05  IPAR-GROSSES                                COMP-3.  PPCNVPAR
016470             07  IPAR-TOTAL-GROSS    PICTURE S9(7)V99.            PPCNVPAR
016471             07  IPAR-FWT-GROSS      PICTURE S9(7)V99.            PPCNVPAR
016474             07  IPAR-OASDI-GROSS    PICTURE S9(7)V99.            PPCNVPAR
016475             07  IPAR-MEDICR-GROSS   PICTURE S9(7)V99.            PPCNVPAR
016476             07  IPAR-STATE-GROSS    PICTURE S9(7)V99.            PPCNVPAR
016477             07  IPAR-RETR-GROSS     PICTURE S9(7)V99.            PPCNVPAR
016479             07  IPAR-FILLER-GROSS-2 PICTURE S9(7)V99.            PPCNVPAR
016480             07  IPAR-WKR-COMP-GROSS PICTURE S9(7)V99.            PPCNVPAR
016481             07  IPAR-UI-GROSS       PICTURE S9(7)V99.            PPCNVPAR
016482     SKIP1                                                        PPCNVPAR
016483         05  IPAR-GROSS-ARRAY    REDEFINES   IPAR-GROSSES.        PPCNVPAR
016484             07  IPAR-GRS    OCCURS  9   TIMES.                   PPCNVPAR
016485                 09  IPAR-GROSS      PICTURE S9(7)V99    COMP-3.  PPCNVPAR
016486     SKIP1                                                        PPCNVPAR
016487         05  IPAR-ADVANCE-INFO                           COMP-3.  PPCNVPAR
016488             07  IPAR-ADV-PAY        PICTURE S9(5)V99.            PPCNVPAR
016499         05  FILLER                  PICTURE X(04).               PPCNVPAR
016501         05  IPAR-NET-PAY            PICTURE S9(7)V99 COMP-3.     PPCNVPAR
016502         05  IPAR-FICA-ELIG-GROSS    PICTURE S9(7)V99 COMP-3.     PPCNVPAR
016504         05  IPAR-DCP-PLAN-CODE      PICTURE X(01).               PPCNVPAR
016506         05  IPAR-RETR-PLAN-CODE     PICTURE X.                   PPCNVPAR
016517         05  IPAR-HGH-RETR-ELIG      PICTURE X.                   PPCNVPAR
016525         05  IPAR-FICA-ELIG          PICTURE X.                   PPCNVPAR
016530         05  IPAR-STUDENT-STAT-CODE  PICTURE X.                   PPCNVPAR
016536         05  IPAR-INS-RED-CD             PIC X.                   PPCNVPAR
016537         05  IPAR-FICA-AT-MAX-IND    PICTURE X.                   PPCNVPAR
016540*                                                                *PPCNVPAR
016541******************************************************************PPCNVPAR
016542*    THE VALUE RANGE FOR THE ABOVE TWO FIELDS ARE 0 THRU 4       *PPCNVPAR
016543******************************************************************PPCNVPAR
016544*                                                                *PPCNVPAR
016545     SKIP1                                                        PPCNVPAR
016547         05  IPAR-LIABILITY-ACCT     PICTURE X(6).                PPCNVPAR
016548         05  FILLER                  PICTURE X(3).                PPCNVPAR
016550         05  IPAR-LAST-PAY-DATE.                                  PPCNVPAR
016551             07  IPAR-LAST-PAY-YR    PICTURE 99.                  PPCNVPAR
016552             07  IPAR-LAST-PAY-MO    PICTURE 99.                  PPCNVPAR
016553             07  IPAR-LAST-PAY-DA    PICTURE 99.                  PPCNVPAR
016554     SKIP1                                                        PPCNVPAR
016555         05  IPAR-LAST-PAY-PERIOD    PICTURE XX.                  PPCNVPAR
016562     SKIP1                                                        PPCNVPAR
016563         05  IPAR-FED-TX-MRT-STAT    PICTURE X.                   PPCNVPAR
016564         05  IPAR-FED-EXEMPTIONS     PICTURE S9(3).               PPCNVPAR
016565         05  IPAR-STATE-TX-MRT-STAT  PICTURE X.                   PPCNVPAR
016566         05  IPAR-STATE-EXEMPTIONS   PICTURE S9(3).               PPCNVPAR
016567         05  IPAR-STATE-ITMZE-EXEMP  PICTURE S9(3).               PPCNVPAR
016568         05  IPAR-PAY-DISPOSITION    PICTURE X.                   PPCNVPAR
016569         05  IPAR-BANK-TRANSIT-NO.                                PPCNVPAR
016570             07  IPAR-BANK-KEY       PICTURE X(5).                PPCNVPAR
016571             07  IPAR-BANK-ACCT      PICTURE X(13).               PPCNVPAR
016572     SKIP1                                                        PPCNVPAR
016573         05  IPAR-PRIOR-EMPLOYEE-ID  PICTURE X(9).                PPCNVPAR
016574         05  IPAR-CBUC               PICTURE X(2).                PPCNVPAR
016575         05  IPAR-EMP-UNIT-CODE  PICTURE X(02).                   PPCNVPAR
016576         05  IPAR-EMP-SPCL-HNDLG-CODE PICTURE X(01).              PPCNVPAR
016577         05  IPAR-EMP-REL-CODE       PICTURE X(1).                PPCNVPAR
016578         05  IPAR-GTN-PROCESS-SW     PICTURE X.                   PPCNVPAR
016580     SKIP1                                                        PPCNVPAR
016581         05  IPAR-RCD-DIST-PRI-GROSS PICTURE S9(7)V99    COMP-3.  PPCNVPAR
016582         05  IPAR-RCD-DIST-PRI-CODE  PICTURE 9.                   PPCNVPAR
016583         05  IPAR-RCD-DIST-PRI-YYMM  PICTURE X(4).                PPCNVPAR
016584         05  IPAR-SS-NUMBER          PICTURE X(9).                PPCNVPAR
016585         05  IPAR-REG-HRS            PICTURE S9(3)V99    COMP-3.  PPCNVPAR
016586         05  IPAR-OT-HRS             PICTURE S9(3)V99    COMP-3.  PPCNVPAR
016587         05  IPAR-NON-WORKED-HRS     PICTURE S9(3)V99    COMP-3.  PPCNVPAR
016588         05  IPAR-EMP-DIST-UNIT-CODE PICTURE X.                   PPCNVPAR
016589         05  IPAR-EMP-COVERAGE-IND   PICTURE X.                   PPCNVPAR
016590         05  FILLER-2263             PICTURE X(02).               PPCNVPAR
016591         05  IPAR-RTR-GRS-OVR-FICA   PICTURE S9(5)V99 COMP-3.     PPCNVPAR
016592         05  IPAR-MGE-FLEX-GROSS     PICTURE S9(7)V99 COMP-3.     PPCNVPAR
016593         05  IPAR-RETIREMENT-RATE    PICTURE S9(3)V99 COMP-3.     PPCNVPAR
016599         05  IPAR-MGE-BEN-IND        PICTURE 9.                   PPCNVPAR
016608     SKIP1                                                        PPCNVPAR
016609         05  FILLER-1400             PICTURE X.                   PPCNVPAR
016612         05  FILLER                  PICTURE X(06).               PPCNVPAR
016613         05  IPAR-MEDCR-AT-MAX-IND   PICTURE X(01).               PPCNVPAR
016615         05  IPAR-PRIMARY-PAY-SCHED  PICTURE X(2).                PPCNVPAR
016616         05  IPAR-CURNT-PER-ACRU-IND PICTURE X.                   PPCNVPAR
016618         05  IPAR-VACTN-ACCRUED      PICTURE S9(3)V9(6)  COMP-3.  PPCNVPAR
016619         05  IPAR-SICK-LEAVE-ACCRUED PICTURE S9(3)V9(6)  COMP-3.  PPCNVPAR
016620         05  IPAR-PTO-ACCRUED        PICTURE S9(3)V9(6)  COMP-3.  PPCNVPAR
016621         05  IPAR-VACA-LOST-OVER-MAX PICTURE S9(3)V9(6)  COMP-3.  PPCNVPAR
016622         05  IPAR-SICK-LOST-OVER-MAX PICTURE S9(3)V9(6)  COMP-3.  PPCNVPAR
016623         05  IPAR-PTO-LOST-OVER-MAX  PICTURE S9(3)V9(6)  COMP-3.  PPCNVPAR
016625     SKIP1                                                        PPCNVPAR
016626*                                                                *PPCNVPAR
016627******************************************************************PPCNVPAR
016628*        THIS FILLER MAY BE USED FOR OTHER FIXED INFORMATION     *PPCNVPAR
016629******************************************************************PPCNVPAR
016630*                                                                *PPCNVPAR
016631     02  IPAR-VARIABLE.                                           PPCNVPAR
016632     SKIP1                                                        PPCNVPAR
016633     03  IPAR-VARIABLE-PORTION.                                   PPCNVPAR
016634     SKIP1                                                        PPCNVPAR
016635*                                                                 PPCNVPAR
016636******************************************************************PPCNVPAR
016637*            H O U R S   A D J U S T M E N T S                   *PPCNVPAR
016638******************************************************************PPCNVPAR
016639*                                                                *PPCNVPAR
016640     SKIP1                                                        PPCNVPAR
016641         05  IPAR-HRS-ADJS-ARRAY.                                 PPCNVPAR
016642           06  IPAR-HRS-ADJUSTMENTS                               PPCNVPAR
016643                         OCCURS  0   TO  10  TIMES                PPCNVPAR
016644                         DEPENDING   ON  IPAR-NO-HRS-ADJ.         PPCNVPAR
016645     SKIP1                                                        PPCNVPAR
016646             07  IPAR-HRS-CODE       PICTURE 9(4)     COMP SYNC.  PPCNVPAR
016647             07  IPAR-HRS-ADJ        PICTURE S9(5)V9(6)  COMP-3.  PPCNVPAR
016648*****                                                          CD PPCNVPAR
016649     SKIP1                                                        PPCNVPAR
016650*                                                                 PPCNVPAR
016651******************************************************************PPCNVPAR
016652*            D O L L A R   A D J U S T M E N T S.                *PPCNVPAR
016653******************************************************************PPCNVPAR
016654*                                                                *PPCNVPAR
016655     SKIP1                                                        PPCNVPAR
016656         05  IPAR-DLR-ADJS-ARRAY.                                 PPCNVPAR
016657           06  IPAR-ADJ-FLDS      OCCURS                          PPCNVPAR
016658                             0   TO  20  TIMES                    PPCNVPAR
016659                             DEPENDING   ON  IPAR-NO-ADJS.        PPCNVPAR
016661             07  IPAR-ADJ-CODE       PICTURE 9(4).                PPCNVPAR
016670             07  IPAR-ADJ-TYPE       PICTURE X.                   PPCNVPAR
016690             07  IPAR-ADJ-FILLER     PICTURE X.                   PPCNVPAR
016691             07  IPAR-ADJ-AMT        PICTURE S9(5)V99    COMP-3.  PPCNVPAR
016692     SKIP1                                                        PPCNVPAR
016693*                                                                *PPCNVPAR
016694******************************************************************PPCNVPAR
016695*            E A R N I N G   D I S T R I B U T I O N             *PPCNVPAR
016696******************************************************************PPCNVPAR
016697*                                                                *PPCNVPAR
016698     SKIP1                                                        PPCNVPAR
016699         05  IPAR-EARNGS-DIST-ARRAY.                              PPCNVPAR
016700           06  IPAR-EARNING-DISTRIBUTION                          PPCNVPAR
016701                         OCCURS 0 TO 99 TIMES                     PPCNVPAR
016702                             DEPENDING   ON  IPAR-NO-ACCTS.       PPCNVPAR
016703*                                                                 PPCNVPAR
016704*                                                                 PPCNVPAR
016705*                                                                 PPCNVPAR
016706******************************************************************PPCNVPAR
016707     SKIP1                                                        PPCNVPAR
016708             07  IPAR-DIST-CMP-FLD.                               PPCNVPAR
016709                 09  IPAR-ACCT-DESC.                              PPCNVPAR
016710                     11  IPAR-DIST-NO    PICTURE XX.              PPCNVPAR
016711                     11  IPAR-ACCT-FUND.                          PPCNVPAR
016712                         13  IPAR-AF-LOC PICTURE X.               PPCNVPAR
016713                         13  IPAR-ACCT   PICTURE 9(6).            PPCNVPAR
016714                         13  IPAR-FUND   PICTURE 9(5).            PPCNVPAR
016715                         13  IPAR-AF-SUB PICTURE 9.               PPCNVPAR
016716                     11  IPAR-TITLE-UNIT-CODE PIC X(02).          PPCNVPAR
016717                     11  IPAR-EARN-SPCL-HNDLG-CODE PIC X.         PPCNVPAR
016718                     11  IPAR-EARN-COVERAGE-IND    PIC X.         PPCNVPAR
016719                     11  IPAR-EARN-DIST-UNIT-CODE  PIC X.         PPCNVPAR
016720                     11  IPAR-EARN-EMP-REL-CODE    PIC X.         PPCNVPAR
016721*****                                                          CD PPCNVPAR
016722                     11  IPAR-LV-ASSESSMNT-IND     PIC X.         PPCNVPAR
016724     SKIP1                                                        PPCNVPAR
016725                     11  IPAR-ACC-MGE-B  PICTURE X.               PPCNVPAR
016727                     11  IPAR-PAYCY-CODE PICTURE X.               PPCNVPAR
016731     SKIP1                                                        PPCNVPAR
016732                     11  IPAR-RETR-ELIG  PICTURE X.               PPCNVPAR
016739     SKIP1                                                        PPCNVPAR
016740                     11  IPAR-PAYRATE-HR PICTURE S9(3)V9(4)       PPCNVPAR
016741                                                         COMP-3.  PPCNVPAR
016742                     11  IPAR-PAYRATE-SAL   REDEFINES             PPCNVPAR
016743                         IPAR-PAYRATE-HR PICTURE S9(5)V99 COMP-3. PPCNVPAR
016744                     11  IPAR-RATE-TYPE  PICTURE X.               PPCNVPAR
016747     SKIP1                                                        PPCNVPAR
016748                     11  IPAR-EXPS-XFER  PICTURE X.               PPCNVPAR
016749                     11  IPAR-LV-AC-CODE PICTURE X.               PPCNVPAR
016751     SKIP1                                                        PPCNVPAR
016752*                                                                *PPCNVPAR
016753******************************************************************PPCNVPAR
016754*    CODED A THRU F, BLANK OR N                                  *PPCNVPAR
016755******************************************************************PPCNVPAR
016758                     11  IPAR-WK-STDY-CD PICTURE X.               PPCNVPAR
016773                     11  IPAR-INTRANS-CD PICTURE XX.              PPCNVPAR
016789                 09  IPAR-PERIOD-END-DATE.                        PPCNVPAR
016790                     11  IPAR-PER-END-YR PICTURE 99.              PPCNVPAR
016791                     11  IPAR-PER-END-MO PICTURE 99.              PPCNVPAR
016792                     11  IPAR-PER-END-DA PICTURE 99.              PPCNVPAR
016794                 09  IPAR-TITLE.                                  PPCNVPAR
016795                     11  IPAR-TITLE-CODE.                         PPCNVPAR
016796                         13  FILLER      PICTURE 9.               PPCNVPAR
016797                         13  IPAR-TTL-CD PICTURE 9(4).            PPCNVPAR
016800                 09  IPAR-DOS            PICTURE X(3).            PPCNVPAR
016801                 09  IPAR-RATE-ADJ-IND   PICTURE X.               PPCNVPAR
016804*                                                                *PPCNVPAR
016805*****                                                        *****PPCNVPAR
016806*    CODED:  A  =  HOURS NOT POSTED TO HOURS/GROSS SEGMENT       *PPCNVPAR
016807*****                                                        *****PPCNVPAR
016808*                                                                *PPCNVPAR
016810             07  IPAR-DIST-VARIABLES         COMP-3.              PPCNVPAR
016811                 09  IPAR-TIME-HRS       PICTURE S9(3)V99.        PPCNVPAR
016812                 09  IPAR-EARN-AMT       PICTURE S9(5)V99.        PPCNVPAR
016813                 09  IPAR-EARN-PCT       PICTURE S9V9(4).         PPCNVPAR
016814             07  IPAR-EARN-FILLER-4005   PICTURE X(10).           PPCNVPAR
016815     SKIP1                                                        PPCNVPAR
016816             07  IPAR-EARN-FILLER-OP     PICTURE X(02).           PPCNVPAR
016817             07  IPAR-EARN-FILLER-COS    PICTURE X(20).           PPCNVPAR
016818             07  IPAR-EARN-PRI-GROSS-NO  PICTURE X.               PPCNVPAR
016819             07  IPAR-APPT-TYPE          PICTURE X(1).            PPCNVPAR
016820             07  IPAR-EARN-FILLER        PICTURE X(1).            PPCNVPAR
016821     SKIP1                                                        PPCNVPAR
016822*                                                                *PPCNVPAR
016823******************************************************************PPCNVPAR
016824*            D E D U C T I O N S,   C O N T R I B U T I O N S    *PPCNVPAR
016825******************************************************************PPCNVPAR
016826*                                                                *PPCNVPAR
016827     SKIP1                                                        PPCNVPAR
016828         05  IPAR-DEDUCTN-ARRAY.                                  PPCNVPAR
016829           06  IPAR-CUR-DED-REFS                                  PPCNVPAR
016830                                 OCCURS  0  TO  40  TIMES         PPCNVPAR
016831                                 DEPENDING   ON  IPAR-NO-DED-REF. PPCNVPAR
016833             07  IPAR-CUR-DED-CODE   PICTURE 9(3).                PPCNVPAR
016834             07  IPAR-GTN-TYPE       PICTURE X.                   PPCNVPAR
016839             07  IPAR-GTN-GROUP      PICTURE X.                   PPCNVPAR
016845             07  IPAR-SPEC-TRANS     PICTURE X.                   PPCNVPAR
016852             07  IPAR-SOURCE-CODE    PICTURE X.                   PPCNVPAR
016878             07  IPAR-DED-QTR-CODE   PICTURE X.                   PPCNVPAR
016879             07  IPAR-DED-YR-CODE    PICTURE X.                   PPCNVPAR
016880             07  IPAR-DED-FILLER     PICTURE X.                   PPCNVPAR
016881             07  IPAR-CUR-AMT        PICTURE S9(5)V99    COMP-3.  PPCNVPAR
016882             07  IPAR-BRSC           PIC X(05).                   PPCNVPAR
016883     SKIP1                                                        PPCNVPAR
016899         05  IPAR-WORK-FIL-ARRAY.                                 PPCNVPAR
016900           06  IPAR-ADDL-FILLER                                   PPCNVPAR
016901                                 OCCURS  0  TO  20  TIMES         PPCNVPAR
016902                                 DEPENDING   ON  IPAR-NO-WORK-FIL.PPCNVPAR
016904             07  IPAR-WORK-AREA.                                  PPCNVPAR
016905                 09  IPAR-WK-AMT     PICTURE S9(7)V99    COMP-3.  PPCNVPAR
016906                 09  IPAR-WK-CHR     PICTURE X.                   PPCNVPAR
016947     EJECT                                                        PPCNVPAR
016948 FD  PAR-OUT-FILE                        COPY CPFDXPAR.           PPCNVPAR
016949 01  XPAR-PAY-AUDIT-REC.                 COPY CPWSXPAR.           PPCNVPAR
016950     EJECT                                                        PPCNVPAR
016951 FD  PRINT-FILE                          COPY CPFDXPRT.           PPCNVPAR
016960*                                                                 PPCNVPAR
017000 01  PRINT-REC-RDF.                                               PPCNVPAR
017100     05  CARRIAGE-CHAR           PIC X.                           PPCNVPAR
017200     05  PRT-DESC-1              PIC X(25).                       PPCNVPAR
017300     05  PRT-COUNT               PIC Z,ZZZ,ZZ9.                   PPCNVPAR
017400     05  PRT-DESC-2              PIC X(25).                       PPCNVPAR
017500     05  FILLER                  PIC X(73).                       PPCNVPAR
017600     EJECT                                                        PPCNVPAR
017700 WORKING-STORAGE SECTION.                                         PPCNVPAR
017800 01  MISC-DATA.                                                   PPCNVPAR
017900     05  A-STND-PROG-ID          PIC X(15)       VALUE            PPCNVPAR
018000         'PPCNVPAR/041091'.                                       PPCNVPAR
018100     05  LINE-CNT                PIC 9(3)   COMP-3 VALUE ZERO.    PPCNVPAR
018200     05  EOF-PAR-SW              PIC 9      VALUE ZERO.           PPCNVPAR
018300     05  PAR-ERROR-SW            PIC 9      VALUE ZERO.           PPCNVPAR
018400     05  I-O-COUNTS.                                              PPCNVPAR
018500         10  COUNT-IN-PAR-CNTL-RECS  PIC S9(7) COMP-3 VALUE ZERO. PPCNVPAR
018600         10  COUNT-IN-PAR-DETL-RECS  PIC S9(7) COMP-3 VALUE ZERO. PPCNVPAR
018700         10  COUNT-OUT-PAR-RECS      PIC S9(7) COMP-3 VALUE ZERO. PPCNVPAR
018800     05  SUB                     PIC S9(3)   COMP-3 VALUE ZERO.   PPCNVPAR
018900 01  DATE-FORMAT.                  COPY CPWSDATE.                 PPCNVPAR
019000     SKIP1                                                        PPCNVPAR
019100*01  STND-RPT-HD                   COPY CPWSPSHR.                 PPCNVPAR
019200 01  STND-RPT-HD.                  COPY CPWSPSHR.                 PPCNVPAR
019300*                                                                 PPCNVPAR
019400     EJECT                                                        PPCNVPAR
019500******************************************************************PPCNVPAR
019600*                P R O C E D U R E  D I V I S I O N              *PPCNVPAR
019700******************************************************************PPCNVPAR
019800 PROCEDURE DIVISION.                                              PPCNVPAR
019900*                                                                 PPCNVPAR
020000 START-0010 SECTION.                                              PPCNVPAR
020100 START-0010-ENTRY.                                                PPCNVPAR
020200*                                                                 PPCNVPAR
020300     OPEN INPUT  PAR-IN-FILE.                                     PPCNVPAR
020400     OPEN OUTPUT PAR-OUT-FILE.                                    PPCNVPAR
020500     OPEN OUTPUT PRINT-FILE.                                      PPCNVPAR
020600*                                                                 PPCNVPAR
020700     PERFORM READ-WRITE-PAR-1000                                  PPCNVPAR
020800         UNTIL EOF-PAR-SW NOT = ZERO.                             PPCNVPAR
020900*                                                                 PPCNVPAR
021000     PERFORM PRINT-EOJ-COUNTS-2000.                               PPCNVPAR
021100*                                                                 PPCNVPAR
021200     CLOSE PAR-IN-FILE.                                           PPCNVPAR
021300     CLOSE PAR-OUT-FILE.                                          PPCNVPAR
021400     CLOSE PRINT-FILE.                                            PPCNVPAR
021500*                                                                 PPCNVPAR
021600     STOP RUN.                                                    PPCNVPAR
021700*                                                                 PPCNVPAR
021800     EJECT                                                        PPCNVPAR
021900*                                                                 PPCNVPAR
022000 READ-WRITE-PAR-1000  SECTION.                                    PPCNVPAR
022100 READ-WRITE-ENTRY-1000.                                           PPCNVPAR
022200*                                                                 PPCNVPAR
022300     READ PAR-IN-FILE                                             PPCNVPAR
022400         AT END                                                   PPCNVPAR
022500             MOVE 1  TO EOF-PAR-SW                                PPCNVPAR
022600             GO TO EXIT-1000.                                     PPCNVPAR
022700*                                                                 PPCNVPAR
022800*                                                                 PPCNVPAR
022900     IF IPAR-ID-NO = ZEROS OR SPACES                              PPCNVPAR
023000         ADD +1  TO COUNT-IN-PAR-CNTL-RECS                        PPCNVPAR
023100         MOVE PAR-IN-RECORD    TO XPAR-PAY-AUDIT-REC              PPCNVPAR
023200     ELSE                                                         PPCNVPAR
023300         ADD +1  TO COUNT-IN-PAR-DETL-RECS                        PPCNVPAR
023400         MOVE IPAR-FIXED       TO XPAR-FIXED                      PPCNVPAR
023500         PERFORM MOVE-VARIABLES.                                  PPCNVPAR
023600*                                                                 PPCNVPAR
023700     WRITE XPAR-PAY-AUDIT-REC                                     PPCNVPAR
023800         INVALID KEY                                              PPCNVPAR
023900             MOVE 1  TO PAR-ERROR-SW.                             PPCNVPAR
024000*                                                                 PPCNVPAR
024100     IF PAR-ERROR-SW  = ZERO                                      PPCNVPAR
024200         ADD +1  TO COUNT-OUT-PAR-RECS.                           PPCNVPAR
024300*                                                                 PPCNVPAR
024400 EXIT-1000.        EXIT.                                          PPCNVPAR
024500*                                                                 PPCNVPAR
024600 CREATE-NEW-PAR-1500  SECTION.                                    PPCNVPAR
024700 MOVE-VARIABLES.                                                  PPCNVPAR
024800     IF XPAR-NO-HRS-ADJ > 0                                       PPCNVPAR
024900        MOVE 0 TO SUB                                             PPCNVPAR
025000        PERFORM MOVE-HRS-ADJ THRU MOVE-HRS-ADJ-X.                 PPCNVPAR
025100     IF XPAR-NO-ADJS > 0                                          PPCNVPAR
025200        MOVE 0 TO SUB                                             PPCNVPAR
025300        PERFORM MOVE-ADJ THRU MOVE-ADJ-X.                         PPCNVPAR
025400     IF XPAR-NO-ACCTS > 0                                         PPCNVPAR
025500        MOVE 0 TO SUB                                             PPCNVPAR
025600        PERFORM MOVE-ACCTS THRU MOVE-ACCTS-X.                     PPCNVPAR
025700     IF XPAR-NO-DED-REF > 0                                       PPCNVPAR
025800        MOVE 0 TO SUB                                             PPCNVPAR
025900        PERFORM MOVE-DED-REF THRU MOVE-DED-REF-X.                 PPCNVPAR
026000     IF XPAR-WORK-FIL-ARRAY > 0                                   PPCNVPAR
026100        MOVE 0 TO SUB                                             PPCNVPAR
026200        PERFORM MOVE-WORK-FIL-ARRAY THRU MOVE-WORK-FIL-ARRAY-X.   PPCNVPAR
026300     EJECT                                                        PPCNVPAR
026400*                                                                 PPCNVPAR
026500 MOVE-HRS-ADJ.                                                    PPCNVPAR
026600     ADD +1 TO SUB.                                               PPCNVPAR
026700     IF SUB > XPAR-NO-HRS-ADJ                                     PPCNVPAR
026800        GO TO MOVE-HRS-ADJ-X.                                     PPCNVPAR
026900     MOVE IPAR-HRS-ADJUSTMENTS (SUB) TO                           PPCNVPAR
027000          XPAR-HRS-ADJUSTMENTS (SUB).                             PPCNVPAR
027100     GO TO MOVE-HRS-ADJ.                                          PPCNVPAR
027200 MOVE-HRS-ADJ-X.                                                  PPCNVPAR
027300     EXIT.                                                        PPCNVPAR
027400*                                                                 PPCNVPAR
027500 MOVE-ADJ.                                                        PPCNVPAR
027600     ADD +1 TO SUB.                                               PPCNVPAR
027700     IF SUB > XPAR-NO-ADJS                                        PPCNVPAR
027800        GO TO MOVE-ADJ-X.                                         PPCNVPAR
027910     MOVE IPAR-ADJ-CODE (SUB) TO XPAR-ADJ-CODE (SUB).             PPCNVPAR
027920     MOVE IPAR-ADJ-TYPE (SUB) TO XPAR-ADJ-TYPE (SUB).             PPCNVPAR
027940     MOVE IPAR-ADJ-AMT (SUB)  TO XPAR-ADJ-AMT (SUB).              PPCNVPAR
028100     GO TO MOVE-ADJ.                                              PPCNVPAR
028200 MOVE-ADJ-X.                                                      PPCNVPAR
028300     EXIT.                                                        PPCNVPAR
028400*                                                                 PPCNVPAR
028500 MOVE-ACCTS.                                                      PPCNVPAR
028600     ADD +1 TO SUB.                                               PPCNVPAR
028700     IF SUB > XPAR-NO-ACCTS                                       PPCNVPAR
028800        GO TO MOVE-ACCTS-X.                                       PPCNVPAR
028900     MOVE IPAR-EARNING-DISTRIBUTION (SUB) TO                      PPCNVPAR
029000          XPAR-EARNING-DISTRIBUTION (SUB).                        PPCNVPAR
029100     GO TO MOVE-ACCTS.                                            PPCNVPAR
029200 MOVE-ACCTS-X.                                                    PPCNVPAR
029300     EXIT.                                                        PPCNVPAR
029400*                                                                 PPCNVPAR
029500 MOVE-DED-REF.                                                    PPCNVPAR
029600     ADD +1 TO SUB.                                               PPCNVPAR
029700     IF SUB > XPAR-NO-DED-REF                                     PPCNVPAR
029800        GO TO MOVE-DED-REF-X.                                     PPCNVPAR
029900     MOVE IPAR-CUR-DED-REFS (SUB) TO XPAR-CUR-DED-REFS (SUB).     PPCNVPAR
030900     GO TO MOVE-DED-REF.                                          PPCNVPAR
031000 MOVE-DED-REF-X.                                                  PPCNVPAR
031100     EXIT.                                                        PPCNVPAR
031200*                                                                 PPCNVPAR
031300 MOVE-WORK-FIL-ARRAY.                                             PPCNVPAR
031400     ADD +1 TO SUB                                                PPCNVPAR
031500     IF SUB > XPAR-NO-ACCTS                                       PPCNVPAR
031600        GO TO MOVE-WORK-FIL-ARRAY-X.                              PPCNVPAR
031700     MOVE IPAR-ADDL-FILLER (SUB) TO                               PPCNVPAR
031800          XPAR-ADDL-FILLER (SUB).                                 PPCNVPAR
031900     GO TO MOVE-WORK-FIL-ARRAY.                                   PPCNVPAR
032000 MOVE-WORK-FIL-ARRAY-X.                                           PPCNVPAR
032100     EXIT.                                                        PPCNVPAR
032200*                                                                 PPCNVPAR
032300 PRINT-EOJ-COUNTS-2000  SECTION.                                  PPCNVPAR
032400*                                                                 PPCNVPAR
032500     COPY CPPDDATE.                                               PPCNVPAR
032600     MOVE 'PARCONV' TO STND-RPT-ID.                               PPCNVPAR
032700     MOVE A-STND-PROG-ID TO STND-PROG-ID.                         PPCNVPAR
032800     MOVE ZEROS TO STND-PAGE-NO.                                  PPCNVPAR
032900     MOVE GREGORIAN-DATE TO STND-RPT-DATE.                        PPCNVPAR
033000     MOVE SPACES TO STND-RPT-HD3.                                 PPCNVPAR
033100     MOVE '         PAR CONVERSION TOTALS  ' TO STND-RPT-TTL.     PPCNVPAR
033200*                                                                 PPCNVPAR
033300     MOVE 5 TO LINE-CNT.                                          PPCNVPAR
033400     ADD 1 TO STND-PAGE-NO.                                       PPCNVPAR
033500     WRITE PRINT-REC FROM STND-RPT-HD1 AFTER ADVANCING NEW-PAGE.  PPCNVPAR
033600     WRITE PRINT-REC FROM STND-RPT-HD2 AFTER 1.                   PPCNVPAR
033700     WRITE PRINT-REC FROM STND-RPT-HD3 AFTER 1.                   PPCNVPAR
033800*                                                                 PPCNVPAR
033900     MOVE SPACES TO PRINT-REC.                                    PPCNVPAR
034000     IF PAR-ERROR-SW  NOT = ZERO                                  PPCNVPAR
034100         MOVE '** PAR WRITE ERROR **    ' TO PRT-DESC-1           PPCNVPAR
034200         MOVE '** ERROR RERUN JOB **    ' TO PRT-DESC-2           PPCNVPAR
034300         WRITE PRINT-REC AFTER 2                                  PPCNVPAR
034400         MOVE SPACES TO PRINT-REC.                                PPCNVPAR
034500*                                                                 PPCNVPAR
034600     MOVE 'PAR CONTROL RECS READ    ' TO PRT-DESC-1.              PPCNVPAR
034700     MOVE COUNT-IN-PAR-CNTL-RECS      TO PRT-COUNT.               PPCNVPAR
034800     WRITE PRINT-REC AFTER 2.                                     PPCNVPAR
034900     MOVE SPACES TO PRINT-REC.                                    PPCNVPAR
035000*                                                                 PPCNVPAR
035100     MOVE 'PAR DETAIL RECS READ     ' TO PRT-DESC-1.              PPCNVPAR
035200     MOVE COUNT-IN-PAR-DETL-RECS      TO PRT-COUNT.               PPCNVPAR
035300     WRITE PRINT-REC AFTER 2.                                     PPCNVPAR
035400     MOVE SPACES TO PRINT-REC.                                    PPCNVPAR
035500*                                                                 PPCNVPAR
035600     COMPUTE COUNT-IN-PAR-DETL-RECS  =                            PPCNVPAR
035700             COUNT-IN-PAR-DETL-RECS  +                            PPCNVPAR
035800             COUNT-IN-PAR-CNTL-RECS.                              PPCNVPAR
035900*                                                                 PPCNVPAR
036000     MOVE '  TOTAL PAR RECORDS READ ' TO PRT-DESC-1.              PPCNVPAR
036100     MOVE COUNT-IN-PAR-DETL-RECS      TO PRT-COUNT.               PPCNVPAR
036200     WRITE PRINT-REC AFTER 2.                                     PPCNVPAR
036300     MOVE SPACES TO PRINT-REC.                                    PPCNVPAR
036400*                                                                 PPCNVPAR
036500     MOVE '  TOTAL PAR RECS WRITTEN ' TO PRT-DESC-1.              PPCNVPAR
036600     MOVE COUNT-OUT-PAR-RECS          TO PRT-COUNT.               PPCNVPAR
036700     IF   COUNT-OUT-PAR-RECS  NOT = COUNT-IN-PAR-DETL-RECS        PPCNVPAR
036800         MOVE '** ERROR **              ' TO PRT-DESC-2.          PPCNVPAR
036900     WRITE PRINT-REC AFTER 2.                                     PPCNVPAR
037000*                                                                 PPCNVPAR
037100 EXIT-2000.    EXIT.                                              PPCNVPAR
037200*                                                                 PPCNVPAR
