000011*==========================================================%      DU011
000070*=    PROGRAM:  PPL536                                    =%      DU011
000080*=    CHANGE # DU011        PROJ. REQUEST:                =%      DU011
000090*=    NAME: J.E. MCCLANE    MODIFICATION DATE:  7/02/90   =%      DU011
000091*=                                                        =%      DU011
000092*=    DESCRIPTION:                                        =%      DU011
000093*=                                                        =%      DU011
000094*=     MODIFY VALID WORK STUDY FUNDS                      =%      DU011
000095*=                                                        =%      DU011
000096*==========================================================%      DU011
000001*==========================================================%      DS448
000002*=    PROGRAM: PPL423                                     =%      DS448
000003*=    CHANGE # DS448        PROJ. REQUEST: DS448          =%      DS448
000004*=    NAME: M. MC GEE       MODIFICATION DATE: 03/21/90   =%      DS448
000005*=                                                        =%      DS448
000006*=    CHANGE FD OF PARFILE TO COPYMEMBER CPFDXPAR         =%      DS448
000007*=    CHANGE FD OF CONTROL CARD TO COPYMEMGER CPFDXCRD    =%      DS448
000008*=                                                        =%      DS448
000009*==========================================================%      DS448
000001*==========================================================%      DS413
000002*=    PROGRAM: PPL536                                     =%      DS413
000003*=    CHANGE # DS413        PROJ. REQUEST: IBM OFFLOAD    =%      DS413
000004*=    NAME: R. SWIDERSKI    MODIFICATION DATE: 7/27/89    =%      DS413
000005*=                                                        =%      DS413
000006*=    DESCRIPTION: PROGRAM WAS MODIFIED TO CONFORM        =%      DS413
000007*=    TO COBOL II STANDARDS.                              =%      DS413
000010*==========================================================%      DS413
000011*==========================================================%      DU011
000070*=    PROGRAM:  PPL536                                    =%      DU011
000080*=    CHANGE # DU011        PROJ. REQUEST:                =%      DU011
000090*=    NAME: MARI MCGEE      MODIFICATION DATE: 11/04/88   =%      DU011
000091*=                                                        =%      DU011
000092*=    DESCRIPTION:                                        =%      DU011
000093*=                                                        =%      DU011
000094*=     MODIFY VALID WORK STUDY FUNDS                      =%      DU011
000095*=                                                        =%      DU011
000096*==========================================================%      DU011
000100 IDENTIFICATION DIVISION.                                         PPL536
000200                                                                  PPL536
000300 PROGRAM-ID.                                                      PPL536
000400     PPL536.                                                      PPL536
000500                                                                  PPL536
000600 AUTHOR.                                                          PPL536
000700     R SWIDERSKI.                                                 PPL536
000800                                                                  PPL536
000900 INSTALLATION.                                                    PPL536
001000     UCSD.                                                        PPL536
001100                                                                  PPL536
001200 DATE-WRITTEN.                                                    PPL536
001300     MARCH 1982.                                                  PPL536
001400                                                                  PPL536
001500 ENVIRONMENT DIVISION.                                            PPL536
001600                                                                  PPL536
001700 CONFIGURATION SECTION.                                           PPL536
001800 SPECIAL-NAMES.                                                   PPL536
001900     C01 IS TOP-OF-PAGE.                                          PPL536
002000 SOURCE-COMPUTER.                                                 PPL536
002100     IBM-4331.                                                    PPL536
002200                                                                  PPL536
002300 OBJECT-COMPUTER.                                                 PPL536
002400     IBM-4331.                                                    PPL536
002500                                                                  PPL536
002600 INPUT-OUTPUT SECTION.                                            PPL536
002700                                                                  PPL536
002800 FILE-CONTROL.                                                    PPL536
002900                                                                  PPL536
003000     SELECT CONTROL-CARD-FILE                                     PPL536
003100         ASSIGN TO UT-S-CARDFIL.                                  PPL536
003200                                                                  PPL536
003300     SELECT WORKSTUDY-FILE                                        PPL536
003400         ASSIGN TO VSAM-WRKSTDY                                   PPL536
003500         ORGANIZATION IS INDEXED                                  PPL536
003600         ACCESS MODE IS RANDOM                                    PPL536
003700         RECORD KEY IS KEY-OF-RECORD                              PPL536
003800         FILE STATUS IS VSAM-STATUS.                              PPL536
003900                                                                  PPL536
004000     SELECT PAYROLL-AUDIT-FILE                                    PPL536
004100         ASSIGN TO UT-S-PAYAUD.                                   PPL536
004200                                                                  PPL536
004300     SELECT WSXFER-FILE                                           PPL536
004400         ASSIGN TO UT-S-WSXFER.                                   PPL536
004500                                                                  PPL536
004600     SELECT WSXFER-REPORT-FILE                                    PPL536
004700         ASSIGN TO UT-S-PRINTFIL.                                 PPL536
004800                                                                  PPL536
004900     SELECT ERROR-FILE                                            PPL536
005000         ASSIGN TO UT-S-ERRFIL.                                   PPL536
005100                                                                  PPL536
005200     COPY CLSLCRPT.                                               PPL536
005300                                                                  PPL536
005400/                                                                 PPL536
005500 DATA DIVISION.                                                   PPL536
005600                                                                  PPL536
005700 FILE SECTION.                                                    PPL536
005800                                                                  PPL536
005900 FD  CONTROL-CARD-FILE                                            PPL536
006000*    RECORDING MODE IS F                                          DS448
006100*    LABEL RECORDS ARE OMITTED                                    DS448
006200*    DATA RECORD IS CONTROL-FILE-RECORD.                          DS448
006210     COPY CPFDXCRD.                                               DS448
006220*                                                                 DS448
006300 01  CONTROL-FILE-RECORD         PIC X(80).                       PPL536
006400                                                                  PPL536
006500 FD  WORKSTUDY-FILE                                               PPL536
006600     LABEL RECORDS ARE STANDARD                                   PPL536
006700     RECORD CONTAINS 60 CHARACTERS                                PPL536
006800     DATA RECORD IS WORKSTUDY-REC.                                PPL536
006900 01  WORKSTUDY-REC.                                               PPL536
007000     05  KEY-OF-RECORD.                                           PPL536
007100         10 EMPLOYEENO           PIC 9(06).                       PPL536
007200         10 WORKSTUDY-ACCT       PIC 9(06).                       PPL536
007300     05  LOCATION                PIC 9(01).                       PPL536
007400     05  RECHARGE-ACCT           PIC 9(06).                       PPL536
007500     05  RECHARGE-FUND           PIC 9(05).                       PPL536
007600     05  RECHARGE-SUB            PIC 9(01).                       PPL536
007700     05  PRES-WORKSTUDY          PIC X(01).                       PPL536
007800     05  END-DATE                PIC 9(06).                       PPL536
007900     05  COMMENTS                PIC X(28).                       PPL536
008000                                                                  PPL536
008100/                                                                 PPL536
008200 FD  PAYROLL-AUDIT-FILE                                           PPL536
008210*    BLOCK CONTAINS 0 RECORDS                                     DS448
008300*    RECORDING MODE IS V                                          DS448
008400*    RECORD CONTAINS 316 TO 10681 CHARACTERS                      DS448
008500*    LABEL RECORDS ARE STANDARD                                   DS448
008600*    DATA RECORD IS XPAR-PAY-AUDIT-REC.                           DS448
008610     COPY CPFDXPAR.                                               DS448
008620*                                                                 DS448
008700 01  XPAR-PAY-AUDIT-REC.                                          DS413
008800             COPY CPWSXPAR.                                       PPL536
008900/                                                                 PPL536
009000 FD  WSXFER-FILE                                                  PPL536
009100     BLOCK CONTAINS 0 RECORDS                                     PPL536
009200     RECORDING MODE IS F                                          PPL536
009300     LABEL RECORDS ARE STANDARD                                   PPL536
009400     RECORD CONTAINS 110 CHARACTERS                               PPL536
009500     DATA RECORD IS WSXFER-RECORD.                                PPL536
009600 01  WSXFER-RECORD               PIC X(110).                      PPL536
009700/                                                                 PPL536
009800 FD  WSXFER-REPORT-FILE                                           PPL536
009900     BLOCK CONTAINS 0 RECORDS                                     PPL536
009910     RECORDING MODE IS F                                          PPL536
010000     RECORD CONTAINS 133 CHARACTERS                               PPL536
010100     LABEL RECORDS ARE STANDARD                                   PPL536
010200     DATA RECORD IS WSXFER-REPORT-RECORD.                         PPL536
010300 01  WSXFER-REPORT-RECORD        PIC X(133).                      PPL536
010400/                                                                 PPL536
010500 FD  ERROR-FILE                                                   PPL536
010510     BLOCK CONTAINS 0 RECORDS                                     PPL536
010600     RECORDING MODE IS F                                          PPL536
010700     RECORD CONTAINS 67 CHARACTERS                                PPL536
010800     LABEL RECORDS ARE STANDARD                                   PPL536
010900     DATA RECORD IS ERROR-RECORD.                                 PPL536
011000 01  ERROR-RECORD.                                                PPL536
011100     05  CARR-CTL-CHAR           PIC X(1).                        PPL536
011200     05  ID-NO-ERROR             PIC 9(6).                        PPL536
011300     05  FILLER                  PIC X(3).                        PPL536
011400     05  NAME-ERROR              PIC X(30).                       PPL536
011500     05  ACCT-ERROR              PIC Z(3)9(6).                    PPL536
011600     05  FUND-ERROR              PIC Z(1)9(5).                    PPL536
011700     05  EARN-AMT-ERROR          PIC Z(7)9(1).9(2)-.              PPL536
011800/                                                                 PPL536
011900     COPY CLFDCRPT.                                               PPL536
012000/                                                                 PPL536
012100 WORKING-STORAGE SECTION.                                         PPL536
012110     SKIP1                                                        PPL536
012120 01  DATE-FORMAT.                                                 PPL536
012130     COPY CPWSDATE.                                               PPL536
012200                                                                  PPL536
012300 01  CONTROL-CARD-VALIDATION-AREA.                                PPL536
012400     03  VALID-PERCENTAGE-FLD    PIC 9(3).                        PPL536
012500     88  VALID-PERCENTAGE                        VALUE            PPL536
012600         000 THRU 100.                                            PPL536
012700     03  FILLER                  PIC X(77).                       PPL536
012800                                                                  PPL536
012900 77  DEPT-PERCENT                PIC 9(1)V9(2)   VALUE 0.30.      PPL536
013000                                                                  PPL536
013100 77  MAX-LINES-PER-PAGE          PIC 9(2)        VALUE 57.        PPL536
013200                                                                  PPL536
013300 77  DASH                        PIC X(3)        VALUE '  -'.     PPL536
013400                                                                  PPL536
013500 77  UNDERSCORES                 PIC X(9)        VALUE            PPL536
013600     '_________'.                                                 PPL536
013700                                                                  PPL536
013800 01  COUNTERS                                    COMP.            PPL536
013900     05  VALID-FUND-CTR          PIC S9(4)       VALUE +0.        PPL536
014000     05  WSXFER-RECORD-CTR       PIC S9(4)       VALUE +0.        PPL536
014100     05  ERROR-RECORD-CTR        PIC S9(4)       VALUE +0.        PPL536
014200     05  LINE-CTR                PIC S9(4)       VALUE +0.        PPL536
014300     05  PAGE-CTR                PIC S9(4)       VALUE +0.        PPL536
014400     05  CARD-CTR                PIC S9(4)       VALUE +0.        PPL536
014500     05  PAR-CTR                 PIC S9(7)       VALUE +0.        PPL536
014600     05  WRKSTDY-CTR             PIC S9(7)       VALUE +0.        PPL536
014700                                                                  PPL536
014800 01  VSAM-STATUS.                                                 PPL536
014900     05  VSAM-STATUS-BYTE-1      PIC X.                           PPL536
015000     05  VSAM-STATUS-BYTE-2      PIC X.                           PPL536
015100                                                                  PPL536
015200 01  WSXFER-RECORD-WS.                                            PPL536
015300     05  EMPLOYEENO-OUT          PIC 9(6).                        PPL536
015400     05  TITLECODE-OUT           PIC 9(4).                        PPL536
015500     05  WORKSTUDY-ACCT-OUT      PIC 9(6).                        PPL536
015600     05  WORKSTUDY-FUND-OUT      PIC 9(5).                        PPL536
015700     05  LOCATION-OUT            PIC 9(1).                        PPL536
015800     05  RECHARGE-ACCT-OUT       PIC 9(6).                        PPL536
015900     05  RECHARGE-FUND-OUT       PIC 9(5).                        PPL536
016000     05  RECHARGE-SUB-OUT        PIC 9(1).                        PPL536
016100     05  PRES-WORKSTUDY-OUT      PIC X(1).                        PPL536
016200     05  END-DATE-OUT            PIC 9(6).                        PPL536
016300     05  COMMENTS-OUT            PIC X(25).                       PPL536
016400     05  FULL-AMOUNT             PIC S9(5)V9(2).                  PPL536
016500     05  DEPARTMENTAL-CHARGE     PIC S9(5)V9(2).                  PPL536
016600     05  NAME-OUT                PIC X(30).                       PPL536
016700                                                                  PPL536
016800 01  ACCUMULATORS.                                                PPL536
016900     05  AMT-SUBTOTAL-ACCUM      PIC S9(5)V9(2)  VALUE ZERO.      PPL536
017000     05  RECHARGE-SUBTOTAL-ACCUM PIC S9(5)V9(2)  VALUE ZERO.      PPL536
017100     05  AMT-TOTAL-ACCUM         PIC S9(7)V9(2)  VALUE ZERO.      PPL536
017200     05  RECHARGE-TOTAL-ACCUM    PIC S9(7)V9(2)  VALUE ZERO.      PPL536
017300                                                                  PPL536
017400 01  I                           PIC S9(04)      COMP.            PPL536
017500                                                                  PPL536
017600 01  EOF-PAR-IN                  PIC X(1)        VALUE SPACE.     PPL536
017700     88  AT-END-OF-PAR-FILE                      VALUE 'X'.       PPL536
017800                                                                  PPL536
017900 01  VALID-WORKSTUDY-FUND-NUMBERS                                 PPL536
018000                                 PIC 9(5).                        PPL536
018100     88  VALID-WORKSTUDY-FUND                    VALUE            PPL536
018200*        20096 23494 23495 23496 23497 23498 23499                PPL536
018300*        20548.                                                   PPL536
018310*        20546 23494 23495 23496 23497 23498 23499                DU011
018311         20546 20705 23495 23496 23497 23498 23499                DU011
018320*        20548 20547 20689 23494.                                 DU011
018330****     20548 20547 20689 23494 23491 20740.                     DU011
018330         20548 20547 20689 20773 23494 23491 20740.               DU011
018400                                                                  PPL536
018500 01  HOLD-9-CHAR-ID-NO.                                           PPL536
018600     05  FILLER                  PIC X(3).                        PPL536
018700     05  HOLD-6-CHAR-ID-NO       PIC 9(6).                        PPL536
018800                                                                  PPL536
018900 01  HOLD-DATE.                                                   PPL536
019000     05  HOLD-YEAR               PIC 9(2)        VALUE ZEROS.     PPL536
019100     05  HOLD-MONTH              PIC 9(2)        VALUE ZEROS.     PPL536
019200     05  HOLD-DAY                PIC 9(2)        VALUE ZEROS.     PPL536
019300                                                                  PPL536
019400 01  INVALID-KEY-FLAG            PIC X(3)        VALUE 'NO '.     PPL536
019500     88  RECORD-FOUND                            VALUE 'NO '.     PPL536
019600                                                                  PPL536
019700 01  NEW-EMP-FLAG                PIC X(3)        VALUE 'YES'.     PPL536
019800     88  NEW-EMP-REC                             VALUE 'YES'.     PPL536
019900     88  STILL-SAME-EMP-REC                      VALUE 'NO '.     PPL536
020000                                                                  PPL536
020100 01  MULTIPLE-VALID-DIST-FLAG    PIC X(3)        VALUE 'NO '.     PPL536
020200     88  MULTIPLE-VALID-DIST                     VALUE 'YES'.     PPL536
020300                                                                  PPL536
020400 01  FIRST-ERROR-OCCURRENCE-FLAG PIC X(3)        VALUE 'YES'.     PPL536
020500     88  FIRST-ERROR-OCCURRENCE                  VALUE 'YES'.     PPL536
020600                                                                  PPL536
020700 01  VPAR-CONTROLS.                                               PPL536
020800*    05  VPAR-INX                PIC 9(2)        VALUE ZEROS.     PPL536
020900     05  VPAR-INX                PIC 9(3)        VALUE ZEROS.     PPL536
021000*    05  VPAR-INX1               PIC 9(2)        VALUE ZEROS.     PPL536
021100     05  VPAR-INX1               PIC 9(3)        VALUE ZEROS.     PPL536
021200*    05  VPAR-DIST-MAX           PIC 9(1)        VALUE 4.         PPL536
021300     05  VPAR-DIST-MAX           PIC 9(1)        VALUE 3.         PPL536
021400     05  VPAR-DED-MAX            PIC 9(2)        VALUE 20.        PPL536
021500     05  VPAR-SEQ                PIC 9(2)        VALUE ZEROS.     PPL536
021600     05  VPAR-TEST-SEQ           PIC 9(2)        VALUE ZEROS.     PPL536
021700/                                                                 PPL536
021800 01  REPORT-HDG-1.                                                PPL536
021900     05  CARR-CTL-CHAR           PIC X(1)        VALUE '1'.       PPL536
022000     05  FILLER                  PIC X(38)       VALUE SPACES.    PPL536
022100     05  FILLER                  PIC X(26)       VALUE            PPL536
022200         'WORK-STUDY PROGRAM FEDERAL'.                            PPL536
022300     05  FILLER                  PIC X(39)       VALUE SPACES.    PPL536
022400     05  DATE-HDG.                                                PPL536
022500         10  MONTH-HDG           PIC 9(2)        VALUE ZEROS.     PPL536
022600         10  FILLER              PIC X(1)        VALUE '/'.       PPL536
022700         10  DAY-HDG             PIC 9(2)        VALUE ZEROS.     PPL536
022800         10  FILLER              PIC X(1)        VALUE '/'.       PPL536
022900         10  YEAR-HDG            PIC 9(2)        VALUE ZEROS.     PPL536
023000     05  FILLER                  PIC X(8)        VALUE SPACES.    PPL536
023100     05  FILLER                  PIC X(9)        VALUE            PPL536
023200         'PAGE NO. '.                                             PPL536
023300     05  PAGE-CTR-HDG            PIC Z(3)9(1).                    PPL536
023400                                                                  PPL536
023500 01  REPORT-HDG-2.                                                PPL536
023600     05  CARR-CTL-CHAR           PIC X(1)        VALUE SPACE.     PPL536
023700     05  FILLER                  PIC X(23)       VALUE SPACES.    PPL536
023800*    05  FILLER                  PIC X(32)       VALUE            PPL536
023900*        'DISTRIBUTION OF 20% OF EARNINGS '.                      PPL536
024000     05  FILLER                  PIC X(16)       VALUE            PPL536
024100         'DISTRIBUTION OF '.                                      PPL536
024200     05  HDG-PERCENTAGE          PIC Z(2)9(1).                    PPL536
024300     05  FILLER                  PIC X(14)       VALUE            PPL536
024400         '% OF EARNINGS '.                                        PPL536
024500     05  FILLER                  PIC X(24)       VALUE            PPL536
024600         'TO CONTRIBUTION ACCOUNTS'.                              PPL536
024700*    05  FILLER                  PIC X(53)       VALUE SPACES.    PPL536
024800     05  FILLER                  PIC X(52)       VALUE SPACES.    PPL536
024900                                                                  PPL536
025000 01  REPORT-HDG-3.                                                PPL536
025100     05  CARR-CTL-CHAR           PIC X(1)        VALUE ZERO.      PPL536
025200     05  FILLER                  PIC X(48)       VALUE SPACES.    PPL536
025300     05  FILLER                  PIC X(5)        VALUE 'GROSS'.   PPL536
025400     05  FILLER                  PIC X(8)        VALUE SPACES.    PPL536
025500     05  FILLER                  PIC X(8)        VALUE 'TRANSFER'.PPL536
025600     05  FILLER                  PIC X(5)        VALUE SPACES.    PPL536
025700     05  FILLER                  PIC X(11)       VALUE            PPL536
025800         'TRANSFERRED'.                                           PPL536
025900     05  FILLER                  PIC X(6)        VALUE SPACES.    PPL536
026000     05  FILLER                  PIC X(11)       VALUE            PPL536
026100         'TRANSFERRED'.                                           PPL536
026200     05  FILLER                  PIC X(30)       VALUE SPACES.    PPL536
026300                                                                  PPL536
026400 01  REPORT-HDG-4.                                                PPL536
026500     05  CARR-CTL-CHAR           PIC X(1)        VALUE SPACE.     PPL536
026600     05  FILLER                  PIC X(6)        VALUE 'EMP ID'.  PPL536
026700     05  FILLER                  PIC X(5)        VALUE SPACES.    PPL536
026800     05  FILLER                  PIC X(13)       VALUE            PPL536
026900         'EMPLOYEE NAME'.                                         PPL536
027000     05  FILLER                  PIC X(23)       VALUE SPACES.    PPL536
027100     05  FILLER                  PIC X(8)        VALUE 'EARNINGS'.PPL536
027200     05  FILLER                  PIC X(7)        VALUE SPACES.    PPL536
027300     05  FILLER                  PIC X(6)        VALUE 'AMOUNT'.  PPL536
027400     05  FILLER                  PIC X(6)        VALUE SPACES.    PPL536
027500     05  FILLER                  PIC X(12)       VALUE            PPL536
027600         'FROM ACCOUNT'.                                          PPL536
027700     05  FILLER                  PIC X(5)        VALUE SPACES.    PPL536
027800     05  FILLER                  PIC X(10)       VALUE            PPL536
027900         'TO ACCOUNT'.                                            PPL536
028000     05  FILLER                  PIC X(31)       VALUE SPACES.    PPL536
028100                                                                  PPL536
028200 01  WSXFER-REPORT-DETAIL-LINE.                                   PPL536
028300     05  CARR-CTL-CHAR           PIC X(1)        VALUE SPACE.     PPL536
028400     05  EMPLOYEENO-REPORT       PIC X(6)        VALUE SPACES.    PPL536
028500     05  FILLER                  PIC X(5)        VALUE SPACES.    PPL536
028600     05  NAME-REPORT             PIC X(30)       VALUE SPACES.    PPL536
028700     05  FILLER                  PIC X(5)        VALUE SPACES.    PPL536
028800     05  AMOUNT-REPORT           PIC Z(4)9(1).9(2)-.              PPL536
028900     05  FILLER                  PIC X(5)        VALUE SPACES.    PPL536
029000     05  RECHARGE-AMT-REPORT     PIC Z(4)9(1).9(2)-.              PPL536
029100     05  FILLER                  PIC X(5)        VALUE SPACES.    PPL536
029200     05  PAR-ACCT-FUND.                                           PPL536
029300         10  PAR-ACCT-REPORT     PIC 9(6)        VALUE ZEROS.     PPL536
029400         10  FILLER              PIC X(1)        VALUE SPACE.     PPL536
029500         10  PAR-FUND-REPORT     PIC 9(5)        VALUE ZEROS.     PPL536
029600     05  FILLER                  PIC X(5)        VALUE SPACES.    PPL536
029700     05  WS-ACCT-FUND.                                            PPL536
029800         10  WS-ACCT-REPORT      PIC 9(6)        VALUE ZEROS.     PPL536
029900         10  FILLER              PIC X(1)        VALUE SPACE.     PPL536
030000         10  WS-FUND-REPORT      PIC 9(5)        VALUE ZEROS.     PPL536
030100     05  FILLER                  PIC X(29)       VALUE SPACES.    PPL536
030200                                                                  PPL536
030300 01  WSXFER-REPORT-SUBTOTAL.                                      PPL536
030400     05  CARR-CTL-CHAR           PIC X(1)        VALUE SPACE.     PPL536
030500     05  FILLER                  PIC X(46)       VALUE SPACES.    PPL536
030600     05  AMT-SUBTOTAL            PIC Z(4)9(1).9(2)-.              PPL536
030700     05  UNDERSCORE-LINE-1 REDEFINES AMT-SUBTOTAL                 PPL536
030800                                 PIC X(9).                        PPL536
030900     05  FILLER                  PIC X(5)        VALUE SPACES.    PPL536
031000     05  RECHARGE-AMT-SUBTOTAL   PIC Z(4)9(1).9(2)-.              PPL536
031100     05  UNDERSCORE-LINE-2 REDEFINES RECHARGE-AMT-SUBTOTAL        PPL536
031200                                 PIC X(9).                        PPL536
031300     05  FILLER                  PIC X(63)       VALUE SPACES.    PPL536
031400                                                                  PPL536
031500 01  WSXFER-REPORT-TOTAL.                                         PPL536
031600     05  CARR-CTL-CHAR           PIC X(1)        VALUE ZERO.      PPL536
031700     05  FILLER                  PIC X(42)       VALUE SPACES.    PPL536
031800     05  AMT-TOTAL               PIC Z(1),Z(3),Z(2)9(1).9(2)-.    PPL536
031900     05  FILLER                  PIC X(1)        VALUE SPACE.     PPL536
032000     05  RECHARGE-AMT-TOTAL      PIC Z(1),Z(3),Z(2)9(1).9(2)-.    PPL536
032100     05  FILLER                  PIC X(63)       VALUE SPACES.    PPL536
032200                                                                  PPL536
032300     COPY CLWSCRPT.                                               PPL536
032400/                                                                 PPL536
032500 PROCEDURE DIVISION.                                              PPL536
032600                                                                  PPL536
032700 MAIN-PARA.                                                       PPL536
032800     COPY CLPDCRPT.                                               PPL536
032900                                                                  PPL536
033000     OPEN INPUT  CONTROL-CARD-FILE                                PPL536
033100                 PAYROLL-AUDIT-FILE                               PPL536
033200                 WORKSTUDY-FILE                                   PPL536
033300          OUTPUT WSXFER-FILE                                      PPL536
033400                 WSXFER-REPORT-FILE                               PPL536
033500                 ERROR-FILE.                                      PPL536
033600     PERFORM CONTROL-CARD-PROCESSING.                             PPL536
033700                                                                  PPL536
033800     ACCEPT HOLD-DATE FROM DATE.                                  PPL536
033900     MOVE HOLD-MONTH TO MONTH-HDG.                                PPL536
034000     MOVE HOLD-DAY TO DAY-HDG.                                    PPL536
034100     MOVE HOLD-YEAR TO YEAR-HDG.                                  PPL536
034200     PERFORM WRITE-REPORT-HDG.                                    PPL536
034300     PERFORM VPAR-READ-PROC 2 TIMES.                              PPL536
034400     PERFORM PROCESS-PAR                                          PPL536
034500         UNTIL AT-END-OF-PAR-FILE.                                PPL536
034600     PERFORM WRITE-REPORT-TOTAL.                                  PPL536
034700     PERFORM EOJ-ROUTINE.                                         PPL536
034800                                                                  PPL536
034900 EOJ-ROUTINE.                                                     PPL536
035000                                                                  PPL536
035100     PERFORM PRINT-CONTROL-REPORT.                                PPL536
035200     CLOSE PAYROLL-AUDIT-FILE                                     PPL536
035300           CONTROL-CARD-FILE                                      PPL536
035400           WORKSTUDY-FILE                                         PPL536
035500           WSXFER-FILE                                            PPL536
035600           WSXFER-REPORT-FILE                                     PPL536
035700           ERROR-FILE.                                            PPL536
035800                                                                  PPL536
035900     STOP RUN.                                                    PPL536
036000                                                                  PPL536
036100 CONTROL-CARD-PROCESSING.                                         PPL536
036200                                                                  PPL536
036300     PERFORM READ-CONTROL-CARD-FILE.                              PPL536
036400     IF VALID-PERCENTAGE                                          PPL536
036500         MOVE CONTROL-CARD-VALIDATION-AREA TO HDG-PERCENTAGE      PPL536
036600         MULTIPLY VALID-PERCENTAGE-FLD BY .01                     PPL536
036700             GIVING DEPT-PERCENT                                  PPL536
036800     ELSE                                                         PPL536
036900         MOVE 'INVALID CONTROL CARD PARAMETER RUN ABORTED'        PPL536
037000             TO CR-DL7-CTL-STAT                                   PPL536
037100         PERFORM EOJ-ROUTINE.                                     PPL536
037200                                                                  PPL536
037300 READ-CONTROL-CARD-FILE.                                          PPL536
037400                                                                  PPL536
037500     READ CONTROL-CARD-FILE                                       PPL536
037600         INTO CONTROL-CARD-VALIDATION-AREA                        PPL536
037700             AT END                                               PPL536
037800                 MOVE '*** ERROR CONTROL CARD MISSING'            PPL536
037900                     TO CR-DL7-CTL-STAT                           PPL536
038000                 PERFORM EOJ-ROUTINE.                             PPL536
038100                                                                  PPL536
038200 PROCESS-PAR.                                                     PPL536
038300                                                                  PPL536
038400     IF XPAR-CURR-PR-ACTIVITY                                     PPL536
038500         PERFORM READ-DISTRIBUTIONS                               PPL536
038600             VARYING I FROM 1 BY 1                                PPL536
038700             UNTIL I > XPAR-NO-ACCTS.                             PPL536
038800     MOVE 'YES' TO NEW-EMP-FLAG.                                  PPL536
038900     PERFORM VPAR-READ-PROC.                                      PPL536
039000                                                                  PPL536
039100 READ-DISTRIBUTIONS.                                              PPL536
039200                                                                  PPL536
039300     MOVE XPAR-FUND (I) TO VALID-WORKSTUDY-FUND-NUMBERS.          PPL536
039400     IF VALID-WORKSTUDY-FUND                                      PPL536
039500         MOVE XPAR-ID-NO TO HOLD-9-CHAR-ID-NO                     PPL536
039600         MOVE HOLD-6-CHAR-ID-NO TO EMPLOYEENO                     PPL536
039700         MOVE XPAR-ACCT (I) TO WORKSTUDY-ACCT                     PPL536
039800         ADD 1 TO VALID-FUND-CTR                                  PPL536
039900         MOVE 'NO ' TO INVALID-KEY-FLAG                           PPL536
040000         PERFORM READ-WORKSTUDY-FILE.                             PPL536
040100                                                                  PPL536
040200 READ-WORKSTUDY-FILE.                                             PPL536
040300     READ WORKSTUDY-FILE                                          PPL536
040400*        KEY IS KEY-OF-RECORD                                     PPL536
040500         INVALID KEY                                              PPL536
040600             MOVE 'YES' TO INVALID-KEY-FLAG.                      PPL536
040700     IF RECORD-FOUND                                              PPL536
040800         PERFORM NORMAL-PROCESSING                                PPL536
040900     ELSE                                                         PPL536
041000         PERFORM ERROR-ROUTINE.                                   PPL536
041100                                                                  PPL536
041200 NORMAL-PROCESSING.                                               PPL536
041300     IF NEW-EMP-REC                                               PPL536
041400         MOVE EMPLOYEENO TO EMPLOYEENO-REPORT                     PPL536
041500         MOVE XPAR-NAME TO NAME-REPORT                            PPL536
041600     ELSE                                                         PPL536
041700         MOVE DASH TO EMPLOYEENO-REPORT                           PPL536
041800                      NAME-REPORT.                                PPL536
041900     MOVE EMPLOYEENO TO EMPLOYEENO-OUT.                           PPL536
042000     MOVE XPAR-TTL-CD (I) TO TITLECODE-OUT.                       PPL536
042100     MOVE WORKSTUDY-ACCT TO WORKSTUDY-ACCT-OUT.                   PPL536
042200     MOVE XPAR-ACCT (I) TO PAR-ACCT-REPORT.                       PPL536
042300     MOVE XPAR-FUND (I) TO WORKSTUDY-FUND-OUT                     PPL536
042400                           PAR-FUND-REPORT.                       PPL536
042500     MOVE LOCATION TO LOCATION-OUT.                               PPL536
042600     MOVE RECHARGE-ACCT TO RECHARGE-ACCT-OUT                      PPL536
042700                           WS-ACCT-REPORT.                        PPL536
042800     MOVE RECHARGE-FUND TO RECHARGE-FUND-OUT                      PPL536
042900                           WS-FUND-REPORT.                        PPL536
043000     MOVE RECHARGE-SUB TO RECHARGE-SUB-OUT.                       PPL536
043100     MOVE PRES-WORKSTUDY TO PRES-WORKSTUDY-OUT.                   PPL536
043200     MOVE END-DATE TO END-DATE-OUT.                               PPL536
043300     MOVE COMMENTS TO COMMENTS-OUT.                               PPL536
043400     MOVE XPAR-EARN-AMT (I) TO FULL-AMOUNT                        PPL536
043500                               AMOUNT-REPORT.                     PPL536
043600     MULTIPLY DEPT-PERCENT BY FULL-AMOUNT                         PPL536
043700         GIVING DEPARTMENTAL-CHARGE ROUNDED.                      PPL536
043800     MOVE DEPARTMENTAL-CHARGE TO RECHARGE-AMT-REPORT.             PPL536
043900     MOVE XPAR-NAME-26 TO NAME-OUT.                               PPL536
044000     PERFORM WRITE-WSXFER-RECORD.                                 PPL536
044100     ADD 1 TO WSXFER-RECORD-CTR.                                  PPL536
044200     PERFORM FORMAT-MATCHES-REPORT.                               PPL536
044300     MOVE 'NO ' TO NEW-EMP-FLAG.                                  PPL536
044400                                                                  PPL536
044500 FORMAT-MATCHES-REPORT.                                           PPL536
044600     ADD 1 TO LINE-CTR.                                           PPL536
044700     IF LINE-CTR > MAX-LINES-PER-PAGE                             PPL536
044800         IF NEW-EMP-REC AND MULTIPLE-VALID-DIST                   PPL536
044900             PERFORM SET-UP-SUBTOTAL                              PPL536
045000             PERFORM WRITE-REPORT-HDG                             PPL536
045100         ELSE                                                     PPL536
045200             PERFORM WRITE-REPORT-HDG                             PPL536
045300     ELSE                                                         PPL536
045400     IF NEW-EMP-REC AND MULTIPLE-VALID-DIST                       PPL536
045500         PERFORM SET-UP-SUBTOTAL                                  PPL536
045600     ELSE                                                         PPL536
045700     IF NEW-EMP-REC                                               PPL536
045800         MOVE SPACES TO WSXFER-REPORT-RECORD                      PPL536
045900         PERFORM WRITE-WSXFER-REPORT-RECORD 2 TIMES               PPL536
046000         ADD 2 TO LINE-CTR.                                       PPL536
046100     IF NEW-EMP-REC                                               PPL536
046200         MOVE ZEROS TO AMT-SUBTOTAL-ACCUM                         PPL536
046300                       RECHARGE-SUBTOTAL-ACCUM.                   PPL536
046400     ADD FULL-AMOUNT TO AMT-SUBTOTAL-ACCUM                        PPL536
046500                        AMT-TOTAL-ACCUM.                          PPL536
046600     ADD DEPARTMENTAL-CHARGE TO RECHARGE-SUBTOTAL-ACCUM           PPL536
046700                                RECHARGE-TOTAL-ACCUM.             PPL536
046800     IF STILL-SAME-EMP-REC                                        PPL536
046900         MOVE 'YES' TO MULTIPLE-VALID-DIST-FLAG.                  PPL536
047000     MOVE WSXFER-REPORT-DETAIL-LINE TO WSXFER-REPORT-RECORD.      PPL536
047100     PERFORM WRITE-WSXFER-REPORT-RECORD.                          PPL536
047200                                                                  PPL536
047300 SET-UP-SUBTOTAL.                                                 PPL536
047400     MOVE SPACES TO WSXFER-REPORT-SUBTOTAL.                       PPL536
047500     MOVE UNDERSCORES TO UNDERSCORE-LINE-1                        PPL536
047600                         UNDERSCORE-LINE-2.                       PPL536
047700     MOVE WSXFER-REPORT-SUBTOTAL TO WSXFER-REPORT-RECORD.         PPL536
047800     PERFORM WRITE-WSXFER-REPORT-RECORD.                          PPL536
047900     MOVE AMT-SUBTOTAL-ACCUM TO AMT-SUBTOTAL.                     PPL536
048000     MOVE RECHARGE-SUBTOTAL-ACCUM TO RECHARGE-AMT-SUBTOTAL.       PPL536
048100     MOVE WSXFER-REPORT-SUBTOTAL TO WSXFER-REPORT-RECORD.         PPL536
048200     PERFORM WRITE-WSXFER-REPORT-RECORD.                          PPL536
048300     MOVE SPACES TO WSXFER-REPORT-RECORD.                         PPL536
048400     PERFORM WRITE-WSXFER-REPORT-RECORD.                          PPL536
048500     ADD 3 TO LINE-CTR.                                           PPL536
048600     MOVE ZEROS TO AMT-SUBTOTAL-ACCUM                             PPL536
048700                   RECHARGE-SUBTOTAL-ACCUM.                       PPL536
048800     MOVE 'NO ' TO MULTIPLE-VALID-DIST-FLAG.                      PPL536
048900                                                                  PPL536
049000 WRITE-REPORT-HDG.                                                PPL536
049100     ADD 1 TO PAGE-CTR.                                           PPL536
049200     MOVE PAGE-CTR TO PAGE-CTR-HDG.                               PPL536
049300     WRITE WSXFER-REPORT-RECORD FROM REPORT-HDG-1                 PPL536
049400         AFTER ADVANCING PAGE.                                    PPL536
049500     MOVE REPORT-HDG-2 TO WSXFER-REPORT-RECORD.                   PPL536
049600     PERFORM WRITE-WSXFER-REPORT-RECORD.                          PPL536
049700     MOVE SPACES TO WSXFER-REPORT-RECORD.                         PPL536
049800     PERFORM WRITE-WSXFER-REPORT-RECORD.                          PPL536
049900     MOVE REPORT-HDG-3 TO WSXFER-REPORT-RECORD.                   PPL536
050000     PERFORM WRITE-WSXFER-REPORT-RECORD.                          PPL536
050100     MOVE REPORT-HDG-4 TO WSXFER-REPORT-RECORD.                   PPL536
050200     PERFORM WRITE-WSXFER-REPORT-RECORD.                          PPL536
050300     MOVE SPACES TO WSXFER-REPORT-RECORD.                         PPL536
050400     PERFORM WRITE-WSXFER-REPORT-RECORD.                          PPL536
050500     MOVE 5 TO LINE-CTR.                                          PPL536
050600                                                                  PPL536
050700 WRITE-WSXFER-REPORT-RECORD.                                      PPL536
050800                                                                  PPL536
050900     WRITE WSXFER-REPORT-RECORD.                                  PPL536
051000                                                                  PPL536
051100 WRITE-WSXFER-RECORD.                                             PPL536
051200                                                                  PPL536
051300     WRITE WSXFER-RECORD FROM WSXFER-RECORD-WS.                   PPL536
051400                                                                  PPL536
051500 ERROR-ROUTINE.                                                   PPL536
051600     MOVE HOLD-6-CHAR-ID-NO TO ID-NO-ERROR.                       PPL536
051700     MOVE XPAR-NAME TO NAME-ERROR.                                PPL536
051800     MOVE XPAR-ACCT (I) TO ACCT-ERROR.                            PPL536
051900     MOVE XPAR-FUND (I) TO FUND-ERROR.                            PPL536
052000     MOVE XPAR-EARN-AMT (I) TO EARN-AMT-ERROR.                    PPL536
052100     PERFORM WRITE-ERROR-RECORD.                                  PPL536
052200     ADD 1 TO ERROR-RECORD-CTR.                                   PPL536
052300                                                                  PPL536
052400 WRITE-ERROR-RECORD.                                              PPL536
052500                                                                  PPL536
052600     IF FIRST-ERROR-OCCURRENCE                                    PPL536
052700         WRITE ERROR-RECORD                                       PPL536
052800             AFTER ADVANCING 2 LINES                              PPL536
052900         MOVE 'NO ' TO FIRST-ERROR-OCCURRENCE-FLAG                PPL536
053000     ELSE                                                         PPL536
053100         WRITE ERROR-RECORD.                                      PPL536
053200                                                                  PPL536
053300 WRITE-REPORT-TOTAL.                                              PPL536
053400     MOVE AMT-TOTAL-ACCUM TO AMT-TOTAL.                           PPL536
053500     MOVE RECHARGE-TOTAL-ACCUM TO RECHARGE-AMT-TOTAL.             PPL536
053600     IF LINE-CTR > MAX-LINES-PER-PAGE                             PPL536
053700         PERFORM WRITE-REPORT-HDG.                                PPL536
053800     MOVE SPACES TO WSXFER-REPORT-RECORD.                         PPL536
053900     PERFORM WRITE-WSXFER-REPORT-RECORD.                          PPL536
054000     MOVE WSXFER-REPORT-TOTAL TO WSXFER-REPORT-RECORD.            PPL536
054100     PERFORM WRITE-WSXFER-REPORT-RECORD.                          PPL536
054200                                                                  PPL536
054300 VPAR-READ-PROC.                                                  PPL536
054400                                                                  PPL536
054500     READ PAYROLL-AUDIT-FILE                                      PPL536
054600         AT END                                                   PPL536
054700            MOVE 'X' TO EOF-PAR-IN.                               PPL536
054800                                                                  PPL536
054900     IF AT-END-OF-PAR-FILE                                        PPL536
055000         NEXT SENTENCE                                            PPL536
055100     ELSE                                                         PPL536
055200         ADD +1 TO PAR-CTR.                                       PPL536
055300*                                                                 PPL536
055400*      CONTROL REPORT PPL536CR                                    PPL536
055500*                                                                 PPL536
055600*                                                                 PPL536
055700 PRINT-CONTROL-REPORT.                                            PPL536
055800                                                                  PPL536
055900     OPEN OUTPUT CONTROLREPORT.                                   PPL536
056000                                                                  PPL536
056100     MOVE 'PPL536CR'             TO CR-HL1-RPT.                   PPL536
056200     MOVE CR-HDG-LINE1           TO CONTROL-DATA.                 PPL536
056300     WRITE CONTROLRECORD AFTER ADVANCING PAGE.                    PPL536
056400                                                                  PPL536
056500     MOVE CR-HDG-LINE2           TO CONTROL-DATA.                 PPL536
056600     WRITE CONTROLRECORD AFTER ADVANCING 1 LINES.                 PPL536
056700                                                                  PPL536
056800     MOVE WHEN-COMPILED          TO COMPILE-TIME-AND-DATE.        PPL536
056900     MOVE COMPILE-TIME           TO CR-HL3-CMP-TIME.              PPL536
057000     MOVE COMPILE-DATE           TO CR-HL3-CMP-DATE.              PPL536
057100     MOVE CR-HDG-LINE3           TO CONTROL-DATA.                 PPL536
057200     WRITE CONTROLRECORD AFTER ADVANCING 2 LINES.                 PPL536
057300                                                                  PPL536
057400     MOVE CR-HDG-LINE4           TO CONTROL-DATA.                 PPL536
057500     WRITE CONTROLRECORD AFTER ADVANCING 3 LINES.                 PPL536
057600                                                                  PPL536
057700     MOVE CONTROL-CARD-VALIDATION-AREA                            PPL536
057800         TO CR-DL5-CTL-CARD.                                      PPL536
057900     MOVE CR-DET-LINE5           TO CONTROL-DATA.                 PPL536
058000     WRITE CONTROLRECORD AFTER ADVANCING 2 LINES.                 PPL536
058100                                                                  PPL536
058200     MOVE CR-HDG-LINE6           TO CONTROL-DATA.                 PPL536
058300     WRITE CONTROLRECORD AFTER ADVANCING 3 LINES.                 PPL536
058400                                                                  PPL536
058500*    MOVE TIME-OF-DAY            TO TIME-WORK-AREA.               PPL536
058510     ACCEPT TIME-WORK-AREA FROM TIME.                             DS413
058600     MOVE CORR TIME-WORK-AREA    TO TIME-WORK-AREA-SPLIT.         PPL536
058700     MOVE TIME-WORK-AREA-SPLIT   TO CR-DL7-CTL-TIME.              PPL536
058800     MOVE CR-DET-LINE7           TO CONTROL-DATA.                 PPL536
058900     WRITE CONTROLRECORD AFTER ADVANCING 2 LINES.                 PPL536
059000                                                                  PPL536
059100     MOVE CR-HDG-LINE8           TO CONTROL-DATA.                 PPL536
059200     WRITE CONTROLRECORD AFTER ADVANCING 3 LINES.                 PPL536
059300*                                                                 PPL536
059400*  FOLLOWING CODE MUST BE DUPLICATED FOR EVERY FILE               PPL536
059500*                                                                 PPL536
059600*  FILE NAME, ACTION (SO-CREATED OR SO-READ), AND                 PPL536
059700*  THE ACTUAL RECORD COUNTER MUST BE FILLED IN                    PPL536
059800*                                                                 PPL536
059900     MOVE 'FNLPAR.PREV'          TO CR-DL9-FILE.                  PPL536
060000     MOVE SO-READ                TO CR-DL9-ACTION.                PPL536
060100     MOVE PAR-CTR                TO CR-DL9-VALUE.                 PPL536
060200     MOVE CR-DET-LINE9           TO CONTROL-DATA.                 PPL536
060300     WRITE CONTROLRECORD AFTER ADVANCING 2 LINES.                 PPL536
060400*                                                                 PPL536
060500     MOVE 'WSXFER'               TO CR-DL9-FILE.                  PPL536
060600     MOVE SO-CREATED             TO CR-DL9-ACTION.                PPL536
060700     MOVE WSXFER-RECORD-CTR      TO CR-DL9-VALUE.                 PPL536
060800     MOVE CR-DET-LINE9           TO CONTROL-DATA.                 PPL536
060900     WRITE CONTROLRECORD AFTER ADVANCING 2 LINES.                 PPL536
061000*                                                                 PPL536
061100     MOVE END-OF-REPORT-MSG      TO CONTROL-DATA.                 PPL536
061200     WRITE CONTROLRECORD AFTER ADVANCING 4 LINES.                 PPL536
061300                                                                  PPL536
061400     CLOSE CONTROLREPORT.                                         PPL536
