000100 IDENTIFICATION DIVISION.                                         PPL616
000200 PROGRAM-ID. PPL616.                                              PPL616
000300*==========================================================%      UCSD9999
000400*= UCSD LOCAL CHANGES HAVE BEEN IMPLEMENTED.              =%      UCSD9999
000500*= COLUMN 73 THRU 80 DENOTES CHANGE NUMBER - UCSD9999     =%      UCSD9999
000600*=                                                        =%      UCSD9999
000700*==========================================================%      UCSD9999
000800*==========================================================%      DU032
000900*=    PROGRAM: PPL616                                     =%      DU032
001000*=    CHANGE # DU032        PROJ. REQUEST: DU032          =%      DU032
001100*=    NAME:JIM PIERCE       MODIFICATION DATE: 3/06/90    =%      DU032
001200*=                                                        =%      DU032
001300*=    DESCRIPTION: PROGRAM WAS MODIFIED TO MATCH PPL615   =%      DU032
001400*=    CHANGES DUE TO RE-FORMATTING OF IRS1042S FORMS      =%      DU032
001500*==========================================================%      DU032
001600*==========================================================%      DS413
001700*=    PROGRAM: PPP120                                     =%      DS413
001800*=    CHANGE # DS413        PROJ. REQUEST: COBOL II       =%      DS413
001900*=    NAME:JIM PIERCE       MODIFICATION DATE: 7/31/89    =%      DS413
002000*=                                                        =%      DS413
002100*=    DESCRIPTION: PROGRAM WAS MODIFIED FOR CONVERSION    =%      DS413
002200*=    TO COBOL II                                         =%      DS413
002300*==========================================================%      DS413
002400*REMARKS.                                                         DS413
002500***************************************************************   DS413
002600*  THIS PROGRAM PRINTS IRS 1042S INFORMATION IN FORMS LAYOUT  *   DS413
002700*  FORMAT BUT WITHOUT THE FORMS AT A LASER PRINTER IN ORDER   *   DS413
002800*  TO MONITOR PAYROLL AUDITING OF 1042S FOCUS DATA ENTRY.     *   DS413
002900*  THIS IS A MODIFICATION OF PPL616, WITH ADDITIONAL INFO     *   DS413
003000*  PRINTED: RECORD NUMBER, DELETE FLAG STATUS, AND TOTALS     *   DS413
003100*  FOR GROSS INCOME AND FEDERAL TAX WITHHELD.                 *   DS413
003200***************************************************************   DS413
003300 AUTHOR.  JIM PIERCE.                                             PPL616
003400 DATE-WRITTEN.  2/25/89.                                          PPL616
003500 DATE-COMPILED.                                                   PPL616
003600                                                                  PPL616
003700 ENVIRONMENT DIVISION.                                            PPL616
003800 CONFIGURATION SECTION.                                           PPL616
003900 SPECIAL-NAMES.  C01 IS TOP-OF-PAGE.                              PPL616
004000 SOURCE-COMPUTER.  COPY CPOTXUCS.                                 PPL616
004100 OBJECT-COMPUTER.  COPY CPOTXOBJ.                                 PPL616
004200                                                                  PPL616
004300 INPUT-OUTPUT SECTION.                                            PPL616
004400 FILE-CONTROL.                                                    PPL616
004500                                                                  PPL616
004600     SELECT PAYROLL-TAX-FILE ASSIGN TO US-S-TAXFL.                PPL616
004700     SELECT PRINT-FILE       ASSIGN TO UT-S-PRT1042S.             PPL616
004800     SELECT SORT-FILE        ASSIGN TO UT-S-SORTWK01.             PPL616
004900     COPY CLSLCRPT.                                               PPL616
005000                                                                  PPL616
005100 DATA DIVISION.                                                   PPL616
005200                                                                  PPL616
005300 FILE SECTION.                                                    PPL616
005400                                                                  PPL616
005500 FD  PAYROLL-TAX-FILE                                             PPL616
005600     RECORDING MODE IS F                                          PPL616
005700     RECORD CONTAINS 302 CHARACTERS                               DU032
005800     BLOCK CONTAINS 0 RECORDS                                     PPL616
005900     LABEL RECORDS ARE STANDARD                                   PPL616
006000     DATA RECORD IS PAYTROLL-TAX-REC.                             PPL616
006100                                                                  PPL616
006200 01  PAYROLL-TAX-REC           PIC X(302).                        DU032
006300                                                                  PPL616
006400 FD  PRINT-FILE                                                   PPL616
006500     RECORDING MODE IS F                                          PPL616
006600     RECORD CONTAINS 133 CHARACTERS                               PPL616
006700     BLOCK CONTAINS 0 RECORDS                                     PPL616
006800     LABEL RECORDS ARE STANDARD                                   PPL616
006900     DATA RECORD IS PRT-TAX-FM1042S.                              PPL616
007000                                                                  PPL616
007100 01  PRT-TAX-FM1042S.                                             PPL616
007200     05  PRT-TAX-CARR-CTL        PIC X(001).                      PPL616
007300     05  PRT-TAX-REC             PIC X(132).                      PPL616
007400                                                                  PPL616
007500     COPY CLFDCRPT.                                               PPL616
007600                                                                  PPL616
007700 SD  SORT-FILE                                                    PPL616
007800     RECORD CONTAINS 302 CHARACTERS.                              DU032
007900                                                                  PPL616
008000 01  SORT-RECORD.                                                 PPL616
008100     05  SORT-REC-NUMBER         PIC 9(03).                       PPL616
008200     05  SORT-DEL-FLAG           PIC X(01).                       PPL616
008300     05  SORT-FIRST-NAME         PIC X(15).                       PPL616
008400     05  SORT-LAST-NAME          PIC X(18).                       PPL616
008500     05  FILLER                  PIC X(265).                      DU032
008600     EJECT                                                        PPL616
008700 WORKING-STORAGE SECTION.                                         PPL616
008800                                                                  PPL616
008900 01  WS-COUNTS.                                                   PPL616
009000     05  WS-CNT-READ             PIC S9(5)     VALUE ZEROS.       PPL616
009100     05  WS-CNT-WRITE            PIC S9(5)     VALUE ZEROS.       PPL616
009200     05  WS-CNT-DELETE           PIC S9(5)     VALUE ZEROS.       PPL616
009300     05  WS-CNT-LINE             PIC S99       VALUE ZEROS.       PPL616
009400     05  WS-CNT-LASTNAME         PIC S9(18)    VALUE ZEROS.       PPL616
009500     05  WS-CNT-FIRSTNAME        PIC S9(13)    VALUE ZEROS.       PPL616
009600     05  WS-CNT-CITY             PIC S99       VALUE ZEROS.       PPL616
009700     05  WS-CNT-PROVINCE         PIC S99       VALUE ZEROS.       PPL616
009800     05  WS-TOT-GROSS            PIC S9(11)V99 VALUE ZEROS.       PPL616
009900     05  WS-TOT-WITHHELD         PIC S9(11)V99 VALUE ZEROS.       PPL616
010000     05  WS-TOT-NET              PIC S9(11)V99 VALUE ZEROS.       DU032
010100     05  WS-TOT-ALLOW            PIC S9(11)V99 VALUE ZEROS.       DU032
010200     05  WS-HOLD-GROSS           PIC S9(11)V99 VALUE ZEROS.       DU032
010300     05  WS-HOLD-NET             PIC S9(11)V99 VALUE ZEROS.       DU032
010400     05  WS-HOLD-ALLOW           PIC S9(11)V99 VALUE ZEROS.       DU032
010500     05  WS-SUM-GROSS            PIC S9(12)V99 VALUE ZEROS.       PPL616
010600     05  WS-SUM-WITHHELD         PIC S9(12)V99 VALUE ZEROS.       PPL616
010700     05  WS-SUM-STUDENT-GROSS    PIC S9(12)V99 VALUE ZEROS.       DU032
010800     05  WS-SUM-ALLOW            PIC S9(12)V99 VALUE ZEROS.       DU032
010900     05  WS-SUM-NET              PIC S9(12)V99 VALUE ZEROS.       DU032
011000     05  WS-QUOTIENT             PIC S9(5)     VALUE ZEROS.       PPL616
011100     05  WS-REMAINDER            PIC S9(5)     VALUE ZEROS.       PPL616
011200     05  WS-CHAR-INX             PIC S99       VALUE ZEROS.       PPL616
011300     05  WS-DATA-INX             PIC S99       VALUE ZEROS.       PPL616
011400     05  WS-NEXT-INX             PIC S99       VALUE ZEROS.       PPL616
011500     05  WS-LAST-INX             PIC S99       VALUE ZEROS.       PPL616
011600                                                                  PPL616
011700 01  WS-LITERALS.                                                 PPL616
011800     05  WS-LIT-X                PIC X         VALUE 'X'.         PPL616
011900     05  WS-LIT-YES              PIC X         VALUE 'Y'.         PPL616
012000     05  WS-LIT-NO               PIC X         VALUE 'N'.         PPL616
012100     05  WS-LIT-ONE              PIC S9        VALUE +1.          PPL616
012200     05  WS-LIT-COM-MA           PIC X         VALUE ','.         PPL616
012300     05  WS-LIT-FIVE             PIC S9        VALUE +5.          PPL616
012400     05  WS-LIT-SIX              PIC S9        VALUE +6.          PPL616
012500     05  WS-LIT-NINE             PIC 9         VALUE 9.           PPL616
012600     05  WS-LIT-FIFTEEN          PIC 99        VALUE 15.          PPL616
012700     05  WS-LIT-SEVENTEEN        PIC 99        VALUE 17.          PPL616
012800     05  WS-LIT-TWENTY-FIVE      PIC 99        VALUE 25.          PPL616
012900     05  WS-LIT-THIRTY           PIC 99        VALUE 30.          PPL616
013000     05  WS-LIT-STATE-TAX        PIC X(19)     VALUE              PPL616
013100         'FOR STATE TAX INFO '.                                   PPL616
013200                                                                  PPL616
013300 01  WS-NAME.                                                     PPL616
013400     05  WS-NAME-LAST           PIC X(18).                        PPL616
013500     05  WS-LAST-NAME REDEFINES WS-NAME-LAST                      PPL616
013600                                PIC X OCCURS 18 TIMES.            PPL616
013700     05  WS-NAME-FIRST          PIC X(15).                        PPL616
013800     05  WS-FIRST-NAME REDEFINES WS-NAME-FIRST                    PPL616
013900                                PIC X OCCURS 15 TIMES.            PPL616
014000     05  WS-NAME-LASTFIRST      PIC X(35).                        PPL616
014100     05  WS-LASTFIRST-NAME REDEFINES WS-NAME-LASTFIRST            PPL616
014200                                PIC X OCCURS 35 TIMES.            PPL616
014300                                                                  PPL616
014400 01  WS-CITY-ZONE.                                                PPL616
014500     05  WS-CITY-FORM           PIC X(25).                        PPL616
014600     05  WS-FORM-CITY REDEFINES WS-CITY-FORM                      PPL616
014700                                PIC X OCCURS 25 TIMES.            PPL616
014800     05  WS-PROVINCE-FORM       PIC X(15).                        PPL616
014900     05  WS-FORM-PROVINCE REDEFINES WS-PROVINCE-FORM              PPL616
015000                                PIC X OCCURS 15 TIMES.            PPL616
015100     05  WS-POSTAL-FORM         PIC X(9).                         PPL616
015200     05  WS-FORM-POSTAL REDEFINES WS-POSTAL-FORM                  PPL616
015300                                PIC X OCCURS 9 TIMES.             PPL616
015400     05  WS-STATE-FORM          PIC XX.                           PPL616
015500     05  WS-FORM-STATE REDEFINES WS-STATE-FORM                    PPL616
015600                                PIC X OCCURS 2 TIMES.             PPL616
015700     05  WS-LINE-CITYZONE       PIC X(35).                        PPL616
015800     05  WS-CITYZONE-LINE REDEFINES WS-LINE-CITYZONE              PPL616
015900                                PIC X OCCURS 35 TIMES.            PPL616
016000                                                                  PPL616
016100 01  WS-SOC-SEC-NO.                                               PPL616
016200     05  WS-SOC-SEC-FIRST3       PIC XXX.                         PPL616
016300     05  WS-SOC-SEC-NEXT2        PIC XX.                          PPL616
016400     05  WS-SOC-SEC-LAST4        PIC X(4).                        PPL616
016500                                                                  PPL616
016600 01  WS-ZIP-HOLD.                                                 PPL616
016700     05  WS-ZIP-FIRST5           PIC X(5)    VALUE SPACES.        PPL616
016800     05  WS-ZIP-LAST4            PIC X(4)    VALUE SPACES.        PPL616
016900                                                                  PPL616
017000 01  WS-ZIP-FORM.                                                 PPL616
017100     05  WS-ZIP-FORM5            PIC X(5)    VALUE SPACES.        PPL616
017200     05  FILLER                  PIC X       VALUE SPACES.        DU032
017300     05  WS-ZIP-FORM4            PIC X(4)    VALUE SPACES.        PPL616
017400                                                                  PPL616
017500 01  WS-RATE-HOLD.                                                PPL616
017600     05  WS-TAX-FIRST3           PIC 999     VALUE ZEROS.         PPL616
017700     05  WS-TAX-LAST8            PIC 9(6)V99 VALUE ZEROS.         PPL616
017800                                                                  PPL616
017900 01  WS-RATETOT-HOLD.                                             PPL616
018000     05  WS-TAXTOT-FIRST5        PIC 9(5)    VALUE ZEROS.         PPL616
018100     05  WS-TAXTOT-LAST8         PIC 9(6)V99 VALUE ZEROS.         PPL616
018200                                                                  PPL616
018300 01  WS-TAX-END                  PIC X.                           PPL616
018400     88  TAX-END-OF-FILE                      VALUE 'Y'.          PPL616
018500                                                                  PPL616
018600 01  WS-SOCSEC-FORM.                                              DU032
018700     05  WS-SSNO-FIRST3          PIC XXX.                         DU032
018800     05  FILLER                  PIC X     VALUE '-'.             DU032
018900     05  WS-SSNO-NEXT2           PIC XX.                          DU032
019000     05  FILLER                  PIC X     VALUE '-'.             DU032
019100     05  WS-SSNO-LAST4           PIC X(4).                        DU032
019200     EJECT                                                        PPL616
019300 01  RECIP-INPUT-WS.             COPY CLWSIRSI.                   DS413
019400     EJECT                                                        PPL616
019500 01  PRT-TAX-FORM1.                                               DU032
019600     05  FILLER                  PIC X(14) VALUE SPACES.          DU032
019700     05  PRT-TAX-IN-CODE         PIC XX.                          DU032
019800     05  FILLER                  PIC XXX   VALUE SPACES.          DU032
019900     05  PRT-TAX-FEDGROSS        PIC ZZZ,ZZ9.99.                  DU032
020000     05  FILLER                  PIC XX    VALUE SPACES.          DU032
020100     05  PRT-TAX-ALLOW           PIC ZZZ,ZZ9.99.                  DU032
020200     05  PRT-TAX-ALLOWED REDEFINES PRT-TAX-ALLOW                  DU032
020300                                 PIC X(10).                       DU032
020400     05  FILLER                  PIC X(4)  VALUE SPACES.          DU032
020500     05  PRT-TAX-NET             PIC ZZZ,ZZ9.99.                  DU032
020600     05  FILLER                  PIC XXX   VALUE SPACES.          DU032
020700     05  PRT-TAX-RATE            PIC XX.                          DU032
020800     05  FILLER                  PIC XXX   VALUE SPACES.          DU032
020900     05  PRT-TAX-EXEMPT          PIC X.                           DU032
021000     05  FILLER                  PIC X(3)  VALUE SPACES.          DU032
021100     05  PRT-TAX-FEDWITH         PIC ZZZ,ZZ9.99.                  DU032
021200     05  FILLER                  PIC XXX   VALUE SPACES.          DU032
021300     05  PRT-TAX-COUNTY          PIC XX.                          DU032
021400     05  FILLER                  PIC X(50) VALUE SPACES.          DU032
021500                                                                  DU032
021600 01  PRT-TAX-FORM2.                                               DU032
021700     05  FILLER                  PIC X(19) VALUE SPACES.          DU032
021800     05  PRT-TAX-TOT-GROSS       PIC ZZZ,ZZ9.99.                  DU032
021900     05  FILLER                  PIC XX    VALUE SPACES.          DU032
022000     05  PRT-TAX-TOT-ALLOW       PIC ZZZ,ZZ9.99.                  DU032
022100     05  PRT-TAX-TOT-ALLOWED REDEFINES PRT-TAX-TOT-ALLOW          DU032
022200                                 PIC X(10).                       DU032
022300     05  FILLER                  PIC X(4)  VALUE SPACES.          DU032
022400     05  PRT-TAX-TOT-NET         PIC ZZZ,ZZ9.99.                  DU032
022500     05  PRT-TAX-TOT-NETTED REDEFINES PRT-TAX-TOT-NET             DU032
022600                                 PIC X(10).                       DU032
022700     05  FILLER                  PIC X(12) VALUE SPACES.          DU032
022800     05  PRT-TAX-TOT-WITHHELD    PIC ZZZ,ZZ9.99.                  DU032
022900     05  FILLER                  PIC X(55) VALUE SPACES.          DU032
023000                                                                  DU032
023100 01  PRT-TAX-FORM3.                                               DU032
023200     05  FILLER                  PIC X(30) VALUE SPACES.          DU032
023300     05  PRT-TAX-RECIPCD         PIC XX.                          DU032
023400     05  FILLER                  PIC X(100) VALUE SPACES.         DU032
023500                                                                  DU032
023600 01  PRT-TAX-FORM4.                                               DU032
023700     05  FILLER                  PIC X(30) VALUE SPACES.          DU032
023800     05  PRT-TAX-SOCSECNO        PIC X(11).                       DU032
023900     05  FILLER                  PIC X(91) VALUE SPACES.          DU032
024000                                                                  DU032
024100 01  PRT-TAX-FORM5.                                               DU032
024200     05  FILLER                  PIC X(30) VALUE SPACES.          DU032
024300     05  PRT-TAX-EMPLOYNO        PIC X(6).                        DU032
024400     05  FILLER                  PIC X(96) VALUE SPACES.          DU032
024500                                                                  DU032
024600 01  PRT-TAX-FORM6.                                               DU032
024700     05  FILLER                  PIC X(11) VALUE SPACES.          DU032
024800     05  PRT-TAX-EMPLOY-NAME     PIC X(34).                       DU032
024900     05  FILLER                  PIC X(87) VALUE SPACES.          DU032
025000                                                                  DU032
025100 01  PRT-TAX-FORM7.                                               DU032
025200     05  FILLER                  PIC X(11) VALUE SPACES.          DU032
025300     05  PRT-TAX-ADDRESS         PIC X(34).                       DU032
025400     05  FILLER                  PIC X(87) VALUE SPACES.          DU032
025500                                                                  DU032
025600 01  PRT-TAX-FORM8.                                               DU032
025700     05  FILLER                  PIC X(46) VALUE SPACES.          DU032
025800     05  PRT-TAX-INFO            PIC X(19).                       DU032
025900     05  PRT-TAX-COMMENTS        PIC X(20).                       DU032
026000     05  FILLER                  PIC X(47) VALUE SPACES.          DU032
026100                                                                  DU032
026200 01  PRT-TAX-FORM9.                                               DU032
026300     05  FILLER                  PIC X(11) VALUE SPACES.          DU032
026400     05  PRT-TAX-COUNTRY         PIC X(20).                       DU032
026500     05  FILLER                  PIC X(101) VALUE SPACES.         DU032
026600     EJECT                                                        DU032
026700 01  PRT-XXX-FORM1.                                               DU032
026800     05  FILLER                  PIC X(14) VALUE SPACES.          DU032
026900     05  FILLER                  PIC XX    VALUE 'XX'.            DU032
027000     05  FILLER                  PIC XXX   VALUE SPACES.          DU032
027100     05  FILLER                  PIC X(10) VALUE 'XXX,XXX.XX'.    DU032
027200     05  FILLER                  PIC XX    VALUE SPACES.          DU032
027300     05  FILLER                  PIC X(10) VALUE 'XXX,XXX.XX'.    DU032
027400     05  FILLER                  PIC X(4)  VALUE SPACES.          DU032
027500     05  FILLER                  PIC X(10) VALUE 'XXX,XXX.XX'.    DU032
027600     05  FILLER                  PIC XXX   VALUE SPACES.          DU032
027700     05  FILLER                  PIC XX    VALUE 'XX'.            DU032
027800     05  FILLER                  PIC XXX   VALUE SPACES.          DU032
027900     05  FILLER                  PIC X     VALUE 'X'.             DU032
028000     05  FILLER                  PIC X(3)  VALUE SPACES.          DU032
028100     05  FILLER                  PIC X(10) VALUE 'XXX,XXX.XX'.    DU032
028200     05  FILLER                  PIC XXX   VALUE SPACES.          DU032
028300     05  FILLER                  PIC XX    VALUE 'XX'.            DU032
028400     05  FILLER                  PIC X(50) VALUE SPACES.          DU032
028500                                                                  DU032
028600 01  PRT-XXX-FORM2.                                               DU032
028700     05  FILLER                  PIC X(19) VALUE SPACES.          DU032
028800     05  FILLER                  PIC X(10) VALUE 'XXX,XXX.XX'.    DU032
028900     05  FILLER                  PIC XX    VALUE SPACES.          DU032
029000     05  FILLER                  PIC X(10) VALUE 'XXX,XXX.XX'.    DU032
029100     05  FILLER                  PIC X(4)  VALUE SPACES.          DU032
029200     05  FILLER                  PIC X(10) VALUE 'XXX,XXX.XX'.    DU032
029300     05  FILLER                  PIC X(12) VALUE SPACES.          DU032
029400     05  FILLER                  PIC X(10) VALUE 'XXX,XXX.XX'.    DU032
029500     05  FILLER                  PIC X(55) VALUE SPACES.          DU032
029600                                                                  DU032
029700 01  PRT-XXX-FORM3.                                               DU032
029800     05  FILLER                  PIC X(30) VALUE SPACES.          DU032
029900     05  FILLER                  PIC XX    VALUE 'XX'.            DU032
030000     05  FILLER                  PIC X(100) VALUE SPACES.         DU032
030100                                                                  DU032
030200 01  PRT-XXX-FORM4.                                               DU032
030300     05  FILLER                  PIC X(30) VALUE SPACES.          DU032
030400     05  FILLER                  PIC XXX   VALUE 'XXX'.           DU032
030500     05  FILLER                  PIC X     VALUE '-'.             DU032
030600     05  FILLER                  PIC XX    VALUE 'XX'.            DU032
030700     05  FILLER                  PIC X     VALUE '-'.             DU032
030800     05  FILLER                  PIC X(4)  VALUE 'XXXX'.          DU032
030900     05  FILLER                  PIC X(91) VALUE SPACES.          DU032
031000                                                                  DU032
031100 01  PRT-XXX-FORM5.                                               DU032
031200     05  FILLER                  PIC X(30) VALUE SPACES.          DU032
031300     05  FILLER                  PIC X(6)  VALUE 'XXXXXX'.        DU032
031400     05  FILLER                  PIC X(96) VALUE SPACES.          DU032
031500                                                                  DU032
031600 01  PRT-XXX-FORM6.                                               DU032
031700     05  FILLER                  PIC X(11) VALUE SPACES.          DU032
031800     05  FILLER                  PIC X(34) VALUE ALL 'X'.         DU032
031900     05  FILLER                  PIC X(87) VALUE SPACES.          DU032
032000                                                                  DU032
032100 01  PRT-XXX-FORM7.                                               DU032
032200     05  FILLER                  PIC X(11) VALUE SPACES.          DU032
032300     05  FILLER                  PIC X(34) VALUE ALL 'X'.         DU032
032400     05  FILLER                  PIC X(87) VALUE SPACES.          DU032
032500                                                                  DU032
032600 01  PRT-XXX-FORM8.                                               DU032
032700     05  FILLER                  PIC X(46) VALUE SPACES.          DU032
032800     05  FILLER                  PIC X(19) VALUE ALL 'X'.         DU032
032900     05  FILLER                  PIC X(20) VALUE ALL 'X'.         DU032
033000     05  FILLER                  PIC X(47) VALUE SPACES.          DU032
033100                                                                  DU032
033200 01  PRT-XXX-FORM9.                                               DU032
033300     05  FILLER                  PIC X(11) VALUE SPACES.          DU032
033400     05  FILLER                  PIC X(20) VALUE ALL 'X'.         DU032
033500     05  FILLER                  PIC X(101) VALUE SPACES.         DU032
033600     EJECT                                                        PPL616
033700 01  WS-BLANK-LINE               PIC X(132) VALUE SPACES.         PPL616
033800                                                                  PPL616
033900 01  WS-DASHES-LINE              PIC X(132) VALUE ALL '-'.        PPL616
034000                                                                  PPL616
034100 01  WS-STATUS-LINE.                                              PPL616
034200     05  FILLER                  PIC X(16) VALUE                  PPL616
034300         'RECORD NUMBER   '.                                      PPL616
034400     05  WS-REC-NUMBER           PIC ZZ9.                         PPL616
034500     05  FILLER                  PIC X(19) VALUE                  PPL616
034600         '  DELETE STATUS -- '.                                   PPL616
034700     05  WS-DEL-STATUS           PIC X(15) VALUE ALL 'X'.         PPL616
034800     05  FILLER                  PIC X(45) VALUE SPACES.          PPL616
034900                                                                  PPL616
035000 01  DATE-EDITS.                 COPY CPWSDATE.                   PPL616
035100     EJECT                                                        PPL616
035200     COPY CLWSCRPT.                                               PPL616
035300     03  CR-DET-LINE10.                                           PPL616
035400         05  FILLER              PIC X(017) VALUE SPACES.         PPL616
035500         05  CR-DL10-ACTION      PIC X(017) VALUE SPACES.         PPL616
035600         05  FILLER              PIC X(002) VALUE '= '.           PPL616
035700         05  CR-DL10-VALUE       PIC $$$,$$$,$$9.99-.             PPL616
035800         05  FILLER              PIC X(081) VALUE SPACES.         PPL616
035900     EJECT                                                        PPL616
036000 PROCEDURE DIVISION.                                              PPL616
036100                                                                  PPL616
036200 BEGIN-START SECTION.                                             DU032
036300                                                                  PPL616
036400     COPY CLPDCRPT.                                               PPL616
036500                                                                  PPL616
036600     OPEN OUTPUT PRINT-FILE                                       PPL616
036700                 CONTROLREPORT.                                   PPL616
036800                                                                  PPL616
036900     PERFORM INITIAL-HSKP.                                        PPL616
037000                                                                  PPL616
037100     SORT SORT-FILE                                               PPL616
037200        ASCENDING KEY SORT-DEL-FLAG, SORT-LAST-NAME,              PPL616
037300                      SORT-FIRST-NAME, SORT-REC-NUMBER            PPL616
037400        USING PAYROLL-TAX-FILE                                    PPL616
037500        OUTPUT PROCEDURE PROCESS-TAX.                             PPL616
037600                                                                  PPL616
037700     PERFORM PRINT-CONTROL-REPORT.                                PPL616
037800                                                                  PPL616
037900     CLOSE CONTROLREPORT                                          PPL616
038000           PRINT-FILE.                                            PPL616
038100                                                                  PPL616
038200     STOP RUN.                                                    PPL616
038300     EJECT                                                        PPL616
038400 INITIAL-HSKP SECTION.                                            PPL616
038500                                                                  PPL616
038600     MOVE WS-BLANK-LINE TO PRT-TAX-REC.                           PPL616
038700     WRITE PRT-TAX-FM1042S                                        PPL616
038800         AFTER ADVANCING TOP-OF-PAGE.                             PPL616
038900                                                                  PPL616
039000     PERFORM SET-UP-FORMS 3 TIMES.                                PPL616
039100                                                                  PPL616
039200     MOVE ZEROS TO WS-HOLD-GROSS.                                 DU032
039300     MOVE ZEROS TO WS-HOLD-ALLOW.                                 DU032
039400     MOVE ZEROS TO WS-HOLD-NET.                                   DU032
039500     MOVE ZEROS TO WS-TOT-GROSS.                                  PPL616
039600     MOVE ZEROS TO WS-TOT-WITHHELD.                               PPL616
039700     MOVE ZEROS TO WS-TOT-NET.                                    DU032
039800     MOVE ZEROS TO WS-TOT-ALLOW.                                  DU032
039900     MOVE ZEROS TO WS-CNT-LASTNAME.                               PPL616
040000     MOVE ZEROS TO WS-CNT-FIRSTNAME.                              PPL616
040100     MOVE ZEROS TO WS-CNT-CITY.                                   PPL616
040200     MOVE ZEROS TO WS-CNT-PROVINCE.                               PPL616
040300     MOVE WS-LIT-NO TO WS-TAX-END.                                PPL616
040400     MOVE SPACES    TO WS-NAME.                                   PPL616
040500     MOVE SPACES    TO WS-CITY-ZONE.                              PPL616
040600                                                                  PPL616
040700 INITIAL-HSKP-EXIT.                                               PPL616
040800     EXIT.                                                        PPL616
040900                                                                  PPL616
041000                                                                  PPL616
041100 PROCESS-TAX SECTION.                                             PPL616
041200                                                                  PPL616
041300 PROCESS-TAX-CONTROL.                                             PPL616
041400                                                                  PPL616
041500     RETURN SORT-FILE INTO RECIP-INPUT-WS                         PPL616
041600         AT END                                                   PPL616
041700             GO TO PROCESS-TAX-EXIT.                              PPL616
041800                                                                  PPL616
041900     ADD WS-LIT-ONE TO WS-CNT-READ.                               PPL616
042000     PERFORM FORMAT-TAX-PRINT.                                    PPL616
042100     GO TO PROCESS-TAX-CONTROL.                                   PPL616
042200                                                                  PPL616
042300 PROCESS-TAX-EXIT.                                                PPL616
042400     EXIT.                                                        PPL616
042500     EJECT                                                        PPL616
042600 FORMAT-TAX-PRINT SECTION.                                        PPL616
042700                                                                  PPL616
042800     MOVE RECIP-REC-NUMBER TO WS-REC-NUMBER.                      PPL616
042900     IF RECIP-DEL-FLAG = WS-LIT-X                                 PPL616
043000         MOVE '*** DELETED ***' TO WS-DEL-STATUS                  PPL616
043100         ADD WS-LIT-ONE TO WS-CNT-DELETE                          PPL616
043200     ELSE                                                         PPL616
043300         MOVE 'NOT DELETED    ' TO WS-DEL-STATUS                  PPL616
043400         ADD WS-LIT-ONE TO WS-CNT-WRITE                           PPL616
043500         ADD RECIP-GROSS TO WS-SUM-GROSS                          PPL616
043600         ADD RECIP-TAX-WITHHELD TO WS-SUM-WITHHELD                DU032
043700         IF RECIP-INCOME-CODE = WS-LIT-FIFTEEN                    DU032
043800            ADD RECIP-GROSS TO WS-SUM-STUDENT-GROSS               DU032
043900            ADD RECIP-STUDENT-WITHHOLD-ALLOW TO WS-SUM-ALLOW      DU032
044000            COMPUTE WS-SUM-NET = WS-SUM-NET +                     DU032
044100               (RECIP-GROSS - RECIP-STUDENT-WITHHOLD-ALLOW).      DU032
044200     DIVIDE WS-CNT-READ BY 3                                      PPL616
044300        GIVING    WS-QUOTIENT                                     PPL616
044400        REMAINDER WS-REMAINDER.                                   PPL616
044500     MOVE WS-STATUS-LINE TO PRT-TAX-REC.                          PPL616
044600     IF WS-REMAINDER = 1                                          PPL616
044700        WRITE PRT-TAX-FM1042S                                     PPL616
044800            AFTER ADVANCING TOP-OF-PAGE                           PPL616
044900     ELSE                                                         PPL616
045000        WRITE PRT-TAX-FM1042S                                     PPL616
045100            AFTER ADVANCING 2 LINES.                              PPL616
045200                                                                  PPL616
045300     MOVE RECIP-INCOME-CODE  TO PRT-TAX-IN-CODE.                  PPL616
045400     MOVE RECIP-GROSS        TO WS-HOLD-GROSS.                    DU032
045500     MOVE RECIP-GROSS        TO WS-RATE-HOLD.                     PPL616
045600     MOVE WS-TAX-LAST8       TO PRT-TAX-FEDGROSS.                 PPL616
045700     ADD  RECIP-GROSS        TO WS-TOT-GROSS.                     PPL616
045800     MOVE RECIP-TAX-RATE     TO PRT-TAX-RATE.                     PPL616
045900     MOVE RECIP-EXEMPT-CODE  TO PRT-TAX-EXEMPT.                   PPL616
046000     MOVE RECIP-TAX-WITHHELD TO WS-RATE-HOLD.                     PPL616
046100     MOVE WS-TAX-LAST8       TO PRT-TAX-FEDWITH.                  PPL616
046200     ADD  RECIP-TAX-WITHHELD TO WS-TOT-WITHHELD.                  PPL616
046300     MOVE RECIP-COUNTRY-CODE TO PRT-TAX-COUNTY.                   PPL616
046400                                                                  PPL616
046500     IF RECIP-INCOME-CODE = WS-LIT-FIFTEEN                        DU032
046600         PERFORM CALC-WITHHOLD-ALLOW                              DU032
046700     ELSE                                                         PPL616
046800         MOVE SPACES TO PRT-TAX-ALLOWED.                          DU032
046900     MOVE PRT-TAX-FORM1 TO PRT-TAX-REC.                           DU032
047000     WRITE PRT-TAX-FM1042S                                        PPL616
047100         AFTER ADVANCING 1 LINES.                                 PPL616
047200                                                                  PPL616
047300     MOVE WS-TOT-GROSS    TO WS-RATETOT-HOLD.                     PPL616
047400     MOVE WS-TAXTOT-LAST8 TO PRT-TAX-TOT-GROSS.                   PPL616
047500     MOVE WS-TOT-WITHHELD TO WS-RATETOT-HOLD.                     PPL616
047600     MOVE WS-TAXTOT-LAST8 TO PRT-TAX-TOT-WITHHELD.                PPL616
047700
047800     IF WS-TOT-NET > ZEROS
047900         MOVE WS-TOT-NET TO PRT-TAX-TOT-NET
048000     ELSE
048100         MOVE SPACES TO PRT-TAX-TOT-NETTED.
048200
048300     IF WS-TOT-ALLOW > ZEROS
048400         MOVE WS-TOT-ALLOW TO PRT-TAX-TOT-ALLOW
048500     ELSE
048600         MOVE SPACES TO PRT-TAX-TOT-ALLOWED.
048700     MOVE PRT-TAX-FORM2 TO PRT-TAX-REC.
048800     WRITE PRT-TAX-FM1042S
048900        AFTER ADVANCING 2 LINES.
049000
049100     MOVE RECIP-TYPE-CODE TO PRT-TAX-RECIPCD.
049200     MOVE PRT-TAX-FORM3 TO PRT-TAX-REC.
049300     WRITE PRT-TAX-FM1042S
049400        AFTER ADVANCING 1 LINES.
049500
049600     IF RECIP-TIN = SPACES
049700         MOVE SPACES TO PRT-TAX-SOCSECNO
049800     ELSE
049900         MOVE RECIP-TIN TO WS-SOC-SEC-NO
050000         MOVE WS-SOC-SEC-FIRST3 TO WS-SSNO-FIRST3
050100         MOVE WS-SOC-SEC-NEXT2  TO WS-SSNO-NEXT2
050200         MOVE WS-SOC-SEC-LAST4  TO WS-SSNO-LAST4
050300         MOVE WS-SOCSEC-FORM    TO PRT-TAX-SOCSECNO.
050400     MOVE PRT-TAX-FORM4 TO PRT-TAX-REC.
050500     WRITE PRT-TAX-FM1042S
050600        AFTER ADVANCING 1 LINES.
050700
050800     MOVE RECIP-EMPNO TO PRT-TAX-EMPLOYNO.
050900     MOVE PRT-TAX-FORM5 TO PRT-TAX-REC.
051000     WRITE PRT-TAX-FM1042S
051100        AFTER ADVANCING 1 LINES.
051200                                                                  PPL616
051300     PERFORM FORMAT-EMPLOY-NAME.                                  PPL616
051400                                                                  PPL616
051500     IF RECIP-2ND-NAME-LINE = SPACES                              PPL616
051600         NEXT SENTENCE                                            PPL616
051700     ELSE                                                         PPL616
051800         MOVE RECIP-2ND-NAME-LINE TO PRT-TAX-ADDRESS              PPL616
051900         MOVE PRT-TAX-FORM7 TO PRT-TAX-REC                        DU032
052000         WRITE PRT-TAX-FM1042S                                    PPL616
052100             AFTER ADVANCING 1 LINES                              PPL616
052200         ADD WS-LIT-ONE TO WS-CNT-LINE                            PPL616
052300         MOVE SPACES TO PRT-TAX-FORM7.                            DU032
052400                                                                  PPL616
052500     IF RECIP-3RD-NAME-LINE = SPACES                              PPL616
052600         NEXT SENTENCE                                            PPL616
052700     ELSE                                                         PPL616
052800         MOVE RECIP-3RD-NAME-LINE TO PRT-TAX-ADDRESS              PPL616
052900         MOVE PRT-TAX-FORM7 TO PRT-TAX-REC                        DU032
053000         WRITE PRT-TAX-FM1042S                                    PPL616
053100             AFTER ADVANCING 1 LINES                              PPL616
053200         ADD WS-LIT-ONE TO WS-CNT-LINE                            PPL616
053300         MOVE SPACES TO PRT-TAX-FORM7.                            DU032
053400                                                                  PPL616
053500     MOVE RECIP-ADDRESS TO PRT-TAX-ADDRESS.                       PPL616
053600     MOVE PRT-TAX-FORM7 TO PRT-TAX-REC.                           DU032
053700     WRITE PRT-TAX-FM1042S                                        PPL616
053800         AFTER ADVANCING 1 LINES.                                 PPL616
053900     ADD WS-LIT-ONE TO WS-CNT-LINE.                               PPL616
054000     MOVE SPACES TO PRT-TAX-FORM7.                                DU032
054100                                                                  PPL616
054200     MOVE RECIP-CITY        TO WS-CITY-FORM.                      PPL616
054300     MOVE RECIP-STATE       TO WS-STATE-FORM.                     PPL616
054400     MOVE RECIP-PROVINCE    TO WS-PROVINCE-FORM.                  PPL616
054500                                                                  PPL616
054600     IF RECIP-STATE = SPACES                                      PPL616
054700         MOVE RECIP-POSTAL-CODE TO WS-POSTAL-FORM                 PPL616
054800         PERFORM FORMAT-FOREIGN                                   PPL616
054900     ELSE                                                         PPL616
055000         MOVE RECIP-POSTAL-CODE TO WS-ZIP-HOLD                    PPL616
055100         PERFORM FORMAT-USA.                                      PPL616
055200                                                                  PPL616
055300     IF WS-CNT-LINE < WS-LIT-SIX                                  PPL616
055400         PERFORM WRITE-BLANK-LINE UNTIL                           PPL616
055500             WS-CNT-LINE > WS-LIT-FIVE.                           PPL616
055600                                                                  PPL616
055700     IF RECIP-COMMENTS = SPACES                                   DU032
055800         PERFORM WRITE-BLANK-LINE 1 TIMES                         DU032
055900     ELSE                                                         DU032
056000         MOVE WS-LIT-STATE-TAX TO PRT-TAX-INFO                    DU032
056100         MOVE RECIP-COMMENTS   TO PRT-TAX-COMMENTS                DU032
056200         MOVE PRT-TAX-FORM8    TO PRT-TAX-REC                     DU032
056300         WRITE PRT-TAX-FM1042S                                    DU032
056400            AFTER ADVANCING 1 LINES.                              DU032
056500                                                                  DU032
056600     MOVE RECIP-COUNTRY TO PRT-TAX-COUNTRY.                       PPL616
056700     MOVE PRT-TAX-FORM9 TO PRT-TAX-REC.                           DU032
056800     WRITE PRT-TAX-FM1042S                                        PPL616
056900         AFTER ADVANCING 2 LINES.                                 PPL616
057000                                                                  PPL616
057100     MOVE WS-DASHES-LINE TO PRT-TAX-REC.                          PPL616
057200     WRITE PRT-TAX-FM1042S                                        PPL616
057300         AFTER ADVANCING 1 LINES.                                 PPL616
057400                                                                  PPL616
057500     MOVE SPACES TO PRT-TAX-FORM1.                                PPL616
057600     MOVE SPACES TO PRT-TAX-FORM2.                                PPL616
057700     MOVE SPACES TO PRT-TAX-FORM3.                                PPL616
057800     MOVE SPACES TO PRT-TAX-FORM4.                                PPL616
057900     MOVE SPACES TO PRT-TAX-FORM5.                                PPL616
058000     MOVE SPACES TO PRT-TAX-FORM6.                                PPL616
058100     MOVE SPACES TO PRT-TAX-FORM7.                                PPL616
058200     MOVE SPACES TO PRT-TAX-FORM8.                                PPL616
058300     MOVE SPACES TO PRT-TAX-FORM9.                                PPL616
058400     MOVE SPACES TO WS-NAME.                                      PPL616
058500     MOVE SPACES TO WS-CITY-ZONE.                                 PPL616
058600     MOVE SPACES TO WS-ZIP-HOLD.                                  PPL616
058700     MOVE SPACES TO WS-ZIP-FORM5.                                 PPL616
058800     MOVE SPACES TO WS-ZIP-FORM4.                                 PPL616
058900     MOVE ZEROS TO WS-TOT-GROSS.                                  PPL616
059000     MOVE ZEROS TO WS-TOT-WITHHELD.                               PPL616
059100     MOVE ZEROS TO WS-TOT-NET.                                    DU032
059200     MOVE ZEROS TO WS-TOT-ALLOW.                                  DU032
059300     MOVE ZERO  TO WS-CNT-LINE.                                   PPL616
059400     MOVE ZEROS TO WS-CNT-LASTNAME.                               PPL616
059500     MOVE ZEROS TO WS-CNT-FIRSTNAME.                              PPL616
059600     MOVE ZEROS TO WS-CNT-CITY.                                   PPL616
059700     MOVE ZEROS TO WS-CNT-PROVINCE.                               PPL616
059800     MOVE ZEROS TO WS-NEXT-INX.                                   PPL616
059900     MOVE ZEROS TO WS-CHAR-INX.                                   PPL616
060000     MOVE ZEROS TO WS-DATA-INX.                                   PPL616
060100                                                                  PPL616
060200 FORMAT-TAX-PRINT-EXIT.                                           PPL616
060300     EXIT.                                                        PPL616
060400     EJECT                                                        PPL616
060500 CALC-WITHHOLD-ALLOW SECTION.                                     DU032
060600                                                                  DU032
060700     IF RECIP-STUDENT-WITHHOLD-ALLOW NUMERIC                      DU032
060800         IF RECIP-STUDENT-WITHHOLD-ALLOW > ZEROS                  DU032
060900             MOVE RECIP-STUDENT-WITHHOLD-ALLOW TO WS-HOLD-ALLOW   DU032
061000         ELSE                                                     DU032
061100             MOVE SPACES TO PRT-TAX-ALLOWED                       DU032
061200             GO TO CALC-WITHHOLD-ALLOW-EXIT                       DU032
061300     ELSE                                                         DU032
061400         MOVE SPACES TO PRT-TAX-ALLOWED                           DU032
061500         GO TO CALC-WITHHOLD-ALLOW-EXIT.                          DU032
061600                                                                  DU032
061700     MOVE RECIP-STUDENT-WITHHOLD-ALLOW TO PRT-TAX-ALLOW           DU032
061800     ADD RECIP-STUDENT-WITHHOLD-ALLOW TO WS-TOT-ALLOW.            DU032
061900                                                                  DU032
062000     COMPUTE WS-HOLD-NET = WS-HOLD-GROSS - WS-HOLD-ALLOW.         DU032
062100     ADD WS-HOLD-NET  TO WS-TOT-NET.                              DU032
062200     MOVE WS-HOLD-NET TO PRT-TAX-NET.                             DU032
062300                                                                  DU032
062400 CALC-WITHHOLD-ALLOW-EXIT.                                        DU032
062500     EXIT.                                                        DU032
062600     EJECT                                                        DU032
062700 FORMAT-EMPLOY-NAME SECTION.                                      DU032
062800                                                                  DU032
062900     MOVE ZEROS           TO WS-CNT-LINE.                         DU032
063000     MOVE RECIP-FIRST-NAME TO WS-NAME-FIRST.                      DU032
063100     MOVE RECIP-LAST-NAME TO WS-NAME-LAST.                        DU032
063200     MOVE WS-LIT-ONE TO WS-CHAR-INX.                              DU032
063300     MOVE WS-LIT-ONE TO WS-DATA-INX.                              DU032
063400     PERFORM FORM-FIRSTNAME UNTIL WS-CHAR-INX > WS-LIT-FIFTEEN.   DU032
063500                                                                  DU032
063600     IF WS-CHAR-INX > WS-LIT-SEVENTEEN                            DU032
063700         COMPUTE WS-CHAR-INX = WS-CHAR-INX - WS-LIT-ONE.          DU032
063800     MOVE SPACE TO WS-LASTFIRST-NAME (WS-DATA-INX).               DU032
063900                                                                  DU032
064000     ADD WS-LIT-ONE  TO WS-DATA-INX.                              DU032
064100     MOVE WS-LIT-ONE TO WS-CHAR-INX.                              DU032
064200     PERFORM FORM-LASTNAME UNTIL WS-CHAR-INX > WS-LIT-SEVENTEEN.  DU032
064300                                                                  DU032
064400     MOVE WS-NAME-LASTFIRST TO PRT-TAX-EMPLOY-NAME.               DU032
064500     MOVE PRT-TAX-FORM6 TO PRT-TAX-REC.                           DU032
064600     WRITE PRT-TAX-FM1042S                                        DU032
064700        AFTER ADVANCING 1 LINES.
064800     ADD WS-LIT-ONE TO WS-CNT-LINE.
064900                                                                  PPL616
065000 FORMAT-EMPLOY-NAME-EXIT.                                         PPL616
065100     EXIT.                                                        PPL616
065200     EJECT                                                        PPL616
065300 FORM-LASTNAME SECTION.                                           PPL616
065400                                                                  PPL616
065500     COMPUTE WS-NEXT-INX = WS-CHAR-INX + WS-LIT-ONE.              PPL616
065600     COMPUTE WS-LAST-INX = WS-CHAR-INX - WS-LIT-ONE.              PPL616
065700     IF WS-LAST-NAME (WS-CHAR-INX) = SPACE AND                    PPL616
065800       WS-LAST-NAME (WS-NEXT-INX) = SPACE                         PPL616
065900         ADD WS-LIT-ONE TO WS-CHAR-INX                            PPL616
066000     ELSE                                                         PPL616
066100         IF WS-LAST-NAME (WS-CHAR-INX) = SPACE AND                PPL616
066200           WS-LAST-NAME (WS-LAST-INX) = SPACE                     PPL616
066300             ADD WS-LIT-ONE TO WS-CHAR-INX                        PPL616
066400         ELSE                                                     PPL616
066500             MOVE WS-LAST-NAME (WS-CHAR-INX) TO                   PPL616
066600                 WS-LASTFIRST-NAME (WS-DATA-INX)                  PPL616
066700             ADD WS-LIT-ONE TO WS-CHAR-INX                        PPL616
066800             ADD WS-LIT-ONE TO WS-DATA-INX.                       PPL616
066900                                                                  PPL616
067000 FORM-LASTNAME-EXIT.                                              PPL616
067100     EXIT.                                                        PPL616
067200                                                                  PPL616
067300                                                                  PPL616
067400 FORM-FIRSTNAME SECTION.                                          PPL616
067500                                                                  PPL616
067600     COMPUTE WS-NEXT-INX = WS-CHAR-INX + WS-LIT-ONE.              PPL616
067700     COMPUTE WS-LAST-INX = WS-CHAR-INX - WS-LIT-ONE.              PPL616
067800     IF WS-FIRST-NAME (WS-CHAR-INX) = SPACE AND                   PPL616
067900       WS-FIRST-NAME (WS-NEXT-INX) = SPACE                        PPL616
068000          ADD WS-LIT-ONE TO WS-CHAR-INX                           PPL616
068100     ELSE                                                         PPL616
068200         IF WS-FIRST-NAME (WS-CHAR-INX) = SPACE AND               PPL616
068300           WS-FIRST-NAME (WS-LAST-INX) = SPACE                    PPL616
068400             ADD WS-LIT-ONE TO WS-CHAR-INX                        PPL616
068500         ELSE                                                     PPL616
068600             MOVE WS-FIRST-NAME (WS-CHAR-INX) TO                  PPL616
068700                 WS-LASTFIRST-NAME (WS-DATA-INX)                  PPL616
068800             ADD WS-LIT-ONE TO WS-CHAR-INX                        PPL616
068900             ADD WS-LIT-ONE TO WS-DATA-INX.                       PPL616
069000                                                                  PPL616
069100 FORM-FIRSTNAME-EXIT.                                             PPL616
069200     EXIT.                                                        PPL616
069300     EJECT                                                        PPL616
069400 FORMAT-FOREIGN SECTION.                                          PPL616
069500                                                                  PPL616
069600     MOVE WS-LIT-ONE     TO WS-CHAR-INX.                          PPL616
069700     MOVE WS-LIT-ONE     TO WS-DATA-INX.                          PPL616
069800     PERFORM FORMAT-CITY UNTIL WS-CHAR-INX > WS-LIT-TWENTY-FIVE.  PPL616
069900                                                                  PPL616
070000     ADD WS-LIT-ONE TO WS-DATA-INX.                               PPL616
070100     MOVE SPACE      TO WS-CITYZONE-LINE (WS-DATA-INX).           PPL616
070200     MOVE WS-LIT-ONE TO WS-CHAR-INX.                              PPL616
070300     PERFORM FORMAT-PROVINCE UNTIL WS-CHAR-INX > WS-LIT-FIFTEEN.  PPL616
070400     MOVE SPACE     TO WS-CITYZONE-LINE (WS-DATA-INX).            PPL616
070500     ADD WS-LIT-ONE TO WS-DATA-INX.                               PPL616
070600     MOVE SPACE     TO WS-CITYZONE-LINE (WS-DATA-INX).            PPL616
070700     MOVE WS-LIT-ONE TO WS-CHAR-INX.                              PPL616
070800     PERFORM FORMAT-POSTAL UNTIL WS-CHAR-INX > WS-LIT-NINE.       PPL616
070900                                                                  PPL616
071000     MOVE WS-LINE-CITYZONE TO PRT-TAX-ADDRESS.                    PPL616
071100     MOVE PRT-TAX-FORM7 TO PRT-TAX-REC.                           DU032
071200     WRITE PRT-TAX-FM1042S                                        DU032
071300         AFTER ADVANCING 1 LINES.                                 DU032
071400     ADD WS-LIT-ONE  TO WS-CNT-LINE.                              DU032
071500                                                                  DU032
071600     MOVE RECIP-COUNTRY TO PRT-TAX-COUNTRY.                       DU032
071700     MOVE PRT-TAX-FORM9 TO PRT-TAX-REC.                           PPL616
071800     WRITE PRT-TAX-FM1042S                                        PPL616
071900         AFTER ADVANCING 1 LINES.                                 PPL616
072000     ADD WS-LIT-ONE TO WS-CNT-LINE.                               PPL616
072100                                                                  PPL616
072200 FORMAT-FOREIGN-EXIT.                                             PPL616
072300     EXIT.                                                        PPL616
072400     EJECT                                                        PPL616
072500 FORMAT-USA SECTION.                                              PPL616
072600                                                                  PPL616
072700     MOVE RECIP-STATE TO WS-STATE-FORM.                           PPL616
072800     MOVE WS-ZIP-FIRST5 TO WS-ZIP-FORM5.                          PPL616
072900     MOVE WS-ZIP-LAST4  TO WS-ZIP-FORM4.                          PPL616
073000     MOVE WS-LIT-ONE  TO WS-CHAR-INX.                             PPL616
073100     MOVE WS-LIT-ONE  TO WS-DATA-INX.                             PPL616
073200                                                                  PPL616
073300     PERFORM FORMAT-CITY UNTIL WS-CHAR-INX > WS-LIT-TWENTY-FIVE.  PPL616
073400     MOVE WS-LIT-COM-MA TO WS-CITYZONE-LINE (WS-DATA-INX).        PPL616
073500     ADD WS-LIT-ONE     TO WS-DATA-INX.                           PPL616
073600     MOVE SPACE         TO WS-CITYZONE-LINE (WS-DATA-INX).        PPL616
073700     ADD WS-LIT-ONE TO WS-DATA-INX.                               PPL616
073800     MOVE WS-FORM-STATE (1) TO WS-CITYZONE-LINE (WS-DATA-INX).    PPL616
073900     ADD WS-LIT-ONE TO WS-DATA-INX.                               PPL616
074000     MOVE WS-FORM-STATE (2) TO WS-CITYZONE-LINE (WS-DATA-INX).    PPL616
074100     ADD WS-LIT-ONE TO WS-DATA-INX.                               PPL616
074200                                                                  PPL616
074300     IF WS-DATA-INX > WS-LIT-THIRTY                               PPL616
074400         MOVE WS-LINE-CITYZONE TO PRT-TAX-ADDRESS                 PPL616
074500         MOVE PRT-TAX-FORM7 TO PRT-TAX-REC                        DU032
074600         WRITE PRT-TAX-FM1042S                                    PPL616
074700             AFTER ADVANCING 1 LINES                              PPL616
074800         ADD WS-LIT-ONE  TO WS-CNT-LINE                           PPL616
074900         MOVE WS-LIT-ONE TO WS-DATA-INX                           PPL616
075000         MOVE SPACES     TO WS-LINE-CITYZONE                      PPL616
075100         MOVE SPACES     TO PRT-TAX-FORM7.                        DU032
075200                                                                  PPL616
075300     IF WS-ZIP-LAST4 = SPACES                                     PPL616
075400         MOVE WS-ZIP-HOLD TO WS-POSTAL-FORM                       PPL616
075500     ELSE                                                         PPL616
075600         MOVE WS-ZIP-FORM TO WS-POSTAL-FORM.                      PPL616
075700                                                                  PPL616
075800     ADD WS-LIT-ONE     TO WS-DATA-INX.                           PPL616
075900     MOVE SPACE         TO WS-CITYZONE-LINE (WS-DATA-INX).        PPL616
076000     ADD WS-LIT-ONE     TO WS-DATA-INX.                           PPL616
076100     MOVE SPACE         TO WS-CITYZONE-LINE (WS-DATA-INX).        PPL616
076200     MOVE WS-LIT-ONE TO WS-CHAR-INX.                              PPL616
076300     PERFORM FORMAT-POSTAL UNTIL WS-CHAR-INX > WS-LIT-NINE.       PPL616
076400                                                                  PPL616
076500     MOVE WS-LINE-CITYZONE TO PRT-TAX-ADDRESS.                    PPL616
076600     MOVE PRT-TAX-FORM7 TO PRT-TAX-REC.                           DU032
076700     WRITE PRT-TAX-FM1042S                                        PPL616
076800         AFTER ADVANCING 1 LINES.                                 PPL616
076900     ADD WS-LIT-ONE  TO WS-CNT-LINE.                              PPL616
077000                                                                  PPL616
077100 FORMAT-USA-EXIT.                                                 PPL616
077200     EXIT.                                                        PPL616
077300     EJECT                                                        PPL616
077400 FORMAT-CITY SECTION.                                             PPL616
077500                                                                  PPL616
077600     COMPUTE WS-NEXT-INX = WS-CHAR-INX + WS-LIT-ONE.              PPL616
077700     COMPUTE WS-LAST-INX = WS-CHAR-INX - WS-LIT-ONE.              PPL616
077800     IF WS-FORM-CITY (WS-CHAR-INX) = SPACE AND                    PPL616
077900       WS-FORM-CITY (WS-NEXT-INX) = SPACE                         PPL616
078000         ADD WS-LIT-ONE TO WS-CHAR-INX                            PPL616
078100     ELSE                                                         PPL616
078200         IF WS-FORM-CITY (WS-CHAR-INX) = SPACE AND                PPL616
078300           WS-FORM-CITY (WS-LAST-INX) = SPACE                     PPL616
078400             ADD WS-LIT-ONE TO WS-CHAR-INX                        PPL616
078500         ELSE                                                     PPL616
078600             MOVE WS-FORM-CITY (WS-CHAR-INX) TO                   PPL616
078700                 WS-CITYZONE-LINE (WS-DATA-INX)                   PPL616
078800             ADD WS-LIT-ONE TO WS-CHAR-INX                        PPL616
078900             ADD WS-LIT-ONE TO WS-DATA-INX.                       PPL616
079000                                                                  PPL616
079100 FORMAT-CITY-EXIT.                                                PPL616
079200     EXIT.                                                        PPL616
079300                                                                  PPL616
079400                                                                  PPL616
079500                                                                  PPL616
079600 FORMAT-PROVINCE SECTION.                                         PPL616
079700                                                                  PPL616
079800     COMPUTE WS-NEXT-INX = WS-CHAR-INX + WS-LIT-ONE.              PPL616
079900     COMPUTE WS-LAST-INX = WS-CHAR-INX - WS-LIT-ONE.              PPL616
080000     IF WS-FORM-PROVINCE (WS-CHAR-INX) = SPACE AND                PPL616
080100       WS-FORM-PROVINCE (WS-NEXT-INX) = SPACE                     PPL616
080200         ADD WS-LIT-ONE TO WS-CHAR-INX                            PPL616
080300     ELSE                                                         PPL616
080400         IF WS-FORM-PROVINCE (WS-CHAR-INX) = SPACE AND            PPL616
080500           WS-FORM-PROVINCE (WS-LAST-INX) = SPACE                 PPL616
080600             ADD WS-LIT-ONE TO WS-CHAR-INX                        PPL616
080700         ELSE                                                     PPL616
080800             MOVE WS-FORM-PROVINCE (WS-CHAR-INX) TO               PPL616
080900                 WS-CITYZONE-LINE (WS-DATA-INX)                   PPL616
081000             ADD WS-LIT-ONE TO WS-CHAR-INX                        PPL616
081100             ADD WS-LIT-ONE TO WS-DATA-INX.                       PPL616
081200                                                                  PPL616
081300 FORMAT-PROVINCE-EXIT.                                            PPL616
081400     EXIT.                                                        PPL616
081500     EJECT                                                        PPL616
081600 FORMAT-POSTAL SECTION.                                           PPL616
081700                                                                  PPL616
081800     COMPUTE WS-NEXT-INX = WS-CHAR-INX + WS-LIT-ONE.              PPL616
081900     COMPUTE WS-NEXT-INX = WS-CHAR-INX - WS-LIT-ONE.              PPL616
082000     IF WS-FORM-POSTAL (WS-CHAR-INX) = SPACE AND                  PPL616
082100       WS-FORM-POSTAL (WS-NEXT-INX) = SPACE                       PPL616
082200         ADD WS-LIT-ONE TO WS-CHAR-INX                            PPL616
082300     ELSE                                                         PPL616
082400         IF WS-FORM-POSTAL (WS-CHAR-INX) = SPACE AND              PPL616
082500           WS-FORM-POSTAL (WS-LAST-INX) = SPACE                   PPL616
082600             ADD WS-LIT-ONE TO WS-CHAR-INX                        PPL616
082700     ELSE                                                         PPL616
082800         MOVE WS-FORM-POSTAL (WS-CHAR-INX) TO                     PPL616
082900             WS-CITYZONE-LINE (WS-DATA-INX)                       PPL616
083000         ADD WS-LIT-ONE TO WS-CHAR-INX                            PPL616
083100         ADD WS-LIT-ONE TO WS-DATA-INX.                           PPL616
083200                                                                  PPL616
083300 FORMAT-POSTAL-EXIT.                                              PPL616
083400     EXIT.                                                        PPL616
083500     EJECT                                                        PPL616
083600 SET-UP-FORMS SECTION.                                            PPL616
083700                                                                  PPL616
083800     MOVE WS-STATUS-LINE TO PRT-TAX-REC.                          PPL616
083900     WRITE PRT-TAX-FM1042S                                        PPL616
084000         AFTER ADVANCING 0 LINES.                                 PPL616
084100     MOVE PRT-XXX-FORM1 TO PRT-TAX-REC.                           PPL616
084200     WRITE PRT-TAX-FM1042S                                        PPL616
084300         AFTER ADVANCING 1 LINES.                                 PPL616
084400     MOVE PRT-XXX-FORM2 TO PRT-TAX-REC.                           PPL616
084500     WRITE PRT-TAX-FM1042S                                        PPL616
084600         AFTER ADVANCING 2 LINES.                                 DU032
084700     MOVE PRT-XXX-FORM3 TO PRT-TAX-REC.                           PPL616
084800     WRITE PRT-TAX-FM1042S                                        PPL616
084900         AFTER ADVANCING 1 LINES.                                 PPL616
085000     MOVE PRT-XXX-FORM4 TO PRT-TAX-REC.                           PPL616
085100     WRITE PRT-TAX-FM1042S                                        PPL616
085200         AFTER ADVANCING 1 LINES.                                 PPL616
085300     MOVE PRT-XXX-FORM5 TO PRT-TAX-REC.                           PPL616
085400     WRITE PRT-TAX-FM1042S                                        PPL616
085500         AFTER ADVANCING 1 LINES.                                 PPL616
085700     MOVE PRT-XXX-FORM6 TO PRT-TAX-REC.                           PPL616
085800     WRITE PRT-TAX-FM1042S                                        PPL616
085900         AFTER ADVANCING 1 LINES.                                 PPL616
086000     MOVE PRT-XXX-FORM7 TO PRT-TAX-REC.                           PPL616
086100     WRITE PRT-TAX-FM1042S                                        PPL616
086100         AFTER ADVANCING 1 LINES.                                 PPL616
086300     MOVE PRT-XXX-FORM7 TO PRT-TAX-REC.                           DU032
086400     WRITE PRT-TAX-FM1042S                                        DU032
086500         AFTER ADVANCING 1 LINES.                                 DU032
086600     MOVE PRT-XXX-FORM7 TO PRT-TAX-REC.                           DU032
086700     WRITE PRT-TAX-FM1042S                                        DU032
086800         AFTER ADVANCING 1 LINES.                                 DU032
086900     MOVE PRT-XXX-FORM7 TO PRT-TAX-REC.                           DU032
087000     WRITE PRT-TAX-FM1042S                                        DU032
087100         AFTER ADVANCING 1 LINES.                                 DU032
087200     MOVE PRT-XXX-FORM9 TO PRT-TAX-REC.                           DU032
087300     WRITE PRT-TAX-FM1042S                                        DU032
087400         AFTER ADVANCING 1 LINES.                                 DU032
087500     MOVE PRT-XXX-FORM8 TO PRT-TAX-REC.                           PPL616
087600     WRITE PRT-TAX-FM1042S                                        PPL616
087700         AFTER ADVANCING 1 LINES.                                 PPL616
087800     MOVE PRT-XXX-FORM9 TO PRT-TAX-REC.                           PPL616
087900     WRITE PRT-TAX-FM1042S                                        PPL616
087900         AFTER ADVANCING 2 LINES.                                 DU032
088200     MOVE WS-DASHES-LINE TO PRT-TAX-REC.                          PPL616
088300     WRITE PRT-TAX-FM1042S                                        PPL616
088400         AFTER ADVANCING 1 LINES.                                 PPL616
088300     PERFORM WRITE-BLANK-LINE 2 TIMES.                            DU032
088800                                                                  PPL616
088900 SET-UP-FORMS-EXIT.                                               PPL616
089000     EXIT.                                                        PPL616
089100                                                                  PPL616
089200 WRITE-BLANK-LINE SECTION.                                        PPL616
089300                                                                  PPL616
089400     MOVE WS-BLANK-LINE TO PRT-TAX-REC.                           PPL616
089500     WRITE PRT-TAX-FM1042S                                        PPL616
089600        AFTER ADVANCING 1 LINES.                                  PPL616
089700     ADD WS-LIT-ONE TO WS-CNT-LINE.                               PPL616
089800                                                                  PPL616
089900 WRITE-BLANK-LINE-EXIT.                                           PPL616
090000     EXIT.                                                        PPL616
090100     EJECT                                                        PPL616
090200 PRINT-CONTROL-REPORT SECTION.                                    PPL616
090300*                                                                 PPL616
090400*      CONTROL REPORT PPL616CR                                    PPL616
090500*                                                                 PPL616
090600*                                                                 PPL616
090700     MOVE 'PPL616CR'             TO CR-HL1-RPT.                   PPL616
090800     MOVE CR-HDG-LINE1           TO CONTROL-DATA.                 PPL616
090900     WRITE CONTROLRECORD AFTER ADVANCING PAGE.                    PPL616
091000                                                                  PPL616
091100     MOVE CR-HDG-LINE2           TO CONTROL-DATA.                 PPL616
091200     WRITE CONTROLRECORD AFTER ADVANCING 1 LINES.                 PPL616
091300                                                                  PPL616
091400     MOVE WHEN-COMPILED          TO COMPILE-TIME-AND-DATE.        PPL616
091500     MOVE COMPILE-TIME           TO CR-HL3-CMP-TIME.              PPL616
091600     MOVE COMPILE-DATE           TO CR-HL3-CMP-DATE.              PPL616
091700     MOVE CR-HDG-LINE3           TO CONTROL-DATA.                 PPL616
091800     WRITE CONTROLRECORD AFTER ADVANCING 2 LINES.                 PPL616
091900                                                                  PPL616
092000     MOVE CR-HDG-LINE4           TO CONTROL-DATA.                 PPL616
092100     WRITE CONTROLRECORD AFTER ADVANCING 3 LINES.                 PPL616
092200                                                                  PPL616
092300     MOVE NO-CONTROL-CARD        TO CR-DL5-CTL-CARD.              PPL616
092400     MOVE CR-DET-LINE5           TO CONTROL-DATA.                 PPL616
092500     WRITE CONTROLRECORD AFTER ADVANCING 1 LINES.                 PPL616
092600                                                                  PPL616
092700     MOVE CR-HDG-LINE6           TO CONTROL-DATA.                 PPL616
092800     WRITE CONTROLRECORD AFTER ADVANCING 3 LINES.                 PPL616
092900                                                                  PPL616
093000     ACCEPT TIME-WORK-AREA FROM TIME.                             DS413
093100     MOVE CORR TIME-WORK-AREA    TO TIME-WORK-AREA-SPLIT.         PPL616
093200     MOVE TIME-WORK-AREA-SPLIT   TO CR-DL7-CTL-TIME.              PPL616
093300     MOVE CR-DET-LINE7           TO CONTROL-DATA.                 PPL616
093400     WRITE CONTROLRECORD AFTER ADVANCING 2 LINES.                 PPL616
093500                                                                  PPL616
093600     MOVE CR-HDG-LINE8           TO CONTROL-DATA.                 PPL616
093700     WRITE CONTROLRECORD AFTER ADVANCING 3 LINES.                 PPL616
093800*                                                                 PPL616
093900*  FOLLOWING CODE MUST BE DUPLICATED FOR EVERY FILE               PPL616
094000*                                                                 PPL616
094100*  FILE NAME, ACTION (SO-CREATED OR SO-READ), AND                 PPL616
094200*  THE ACTUAL RECORD COUNTER MUST BE FILLED IN                    PPL616
094300*                                                                 PPL616
094400     MOVE 'IRS 1042S        '    TO CR-DL9-FILE.                  PPL616
094500     MOVE SO-READ                TO CR-DL9-ACTION.                PPL616
094600     MOVE WS-CNT-READ            TO CR-DL9-VALUE.                 PPL616
094700     MOVE CR-DET-LINE9           TO CONTROL-DATA.                 PPL616
094800     WRITE CONTROLRECORD AFTER ADVANCING 2 LINES.                 PPL616
094900*                                                                 PPL616
095000     MOVE 'DELETED  '            TO CR-DL9-ACTION.                PPL616
095100     MOVE WS-CNT-DELETE          TO CR-DL9-VALUE.                 PPL616
095200     MOVE CR-DET-LINE9           TO CONTROL-DATA.                 PPL616
095300     WRITE CONTROLRECORD AFTER ADVANCING 2 LINES.                 PPL616
095400*                                                                 PPL616
095500     MOVE 'ACTIVE   '            TO CR-DL9-ACTION.                PPL616
095600     MOVE WS-CNT-WRITE           TO CR-DL9-VALUE.                 PPL616
095700     MOVE CR-DET-LINE9           TO CONTROL-DATA.                 PPL616
095800     WRITE CONTROLRECORD AFTER ADVANCING 2 LINES.                 PPL616
095900*                                                                 PPL616
096000     MOVE 'TOTAL GROSS      '    TO CR-DL10-ACTION.               PPL616
096100     MOVE WS-SUM-GROSS           TO CR-DL10-VALUE.                PPL616
096200     MOVE CR-DET-LINE10          TO CONTROL-DATA.                 PPL616
096300     WRITE CONTROLRECORD AFTER ADVANCING 2 LINES.                 PPL616
096400*                                                                 PPL616
096500     MOVE 'FED TAX WITHHELD '    TO CR-DL10-ACTION.               PPL616
096600     MOVE WS-SUM-WITHHELD        TO CR-DL10-VALUE.                PPL616
096700     MOVE CR-DET-LINE10          TO CONTROL-DATA.                 PPL616
096800     WRITE CONTROLRECORD AFTER ADVANCING 2 LINES.                 PPL616
096900*                                                                 PPL616
097000     MOVE 'TOT STUDENT GROSS'    TO CR-DL10-ACTION.               DU032
097100     MOVE WS-SUM-STUDENT-GROSS   TO CR-DL10-VALUE.                DU032
097200     MOVE CR-DET-LINE10          TO CONTROL-DATA.                 DU032
097300     WRITE CONTROLRECORD AFTER ADVANCING 2 LINES.                 DU032
097400*                                                                 DU032
097500     MOVE 'TOT STUDENT ALLOW'    TO CR-DL10-ACTION.               DU032
097600     MOVE WS-SUM-ALLOW           TO CR-DL10-VALUE.                DU032
097700     MOVE CR-DET-LINE10          TO CONTROL-DATA.                 DU032
097800     WRITE CONTROLRECORD AFTER ADVANCING 2 LINES.                 DU032
097900*                                                                 DU032
098000     MOVE 'TOT STUDENT NET'      TO CR-DL10-ACTION.               DU032
098100     MOVE WS-SUM-NET             TO CR-DL10-VALUE.                DU032
098200     MOVE CR-DET-LINE10          TO CONTROL-DATA.                 DU032
098300     WRITE CONTROLRECORD AFTER ADVANCING 2 LINES.                 DU032
098400*                                                                 PPL616
098500     MOVE END-OF-REPORT-MSG      TO CONTROL-DATA.                 PPL616
098600     WRITE CONTROLRECORD AFTER ADVANCING 4 LINES.                 PPL616
098700                                                                  PPL616
098800 PRINT-CONTROL-REPORT-EXIT.                                       PPL616
098900     EXIT.                                                        PPL616
