000100 IDENTIFICATION DIVISION.
000200 PROGRAM-ID.      PPL625.
000300 AUTHOR.          R SWIDERSKI.
000400 INSTALLATION.    UCSD ADCOM SYSTEMS.
000500 DATE-WRITTEN.    MARCH, 1989.
000600 DATE-COMPILED.   YOU KNOW.
000700     SKIP1
000800****************************************************************
000900*MODIFIED BY J.E. MCCLANE TO WRITE A VSAM KEYED SOCIAL SECURITY
001000*FILE WHERE DUPLICATE SOCIAL SECURITY NUMBERS ARE NOT ALLOWED.
001100****************************************************************
001200     SKIP1
001300 ENVIRONMENT DIVISION.
001400 CONFIGURATION SECTION.
001500 SOURCE-COMPUTER.  IBM-4341.
001600 OBJECT-COMPUTER.  IBM-4341.
001700     SKIP1
001800 INPUT-OUTPUT SECTION.
001900     SKIP1
002000 FILE-CONTROL.
002100     SKIP1
002200     SELECT SOCSEC-FILE
002300         ASSIGN TO SOCSEC
002400         ORGANIZATION IS INDEXED
002500         ACCESS MODE IS SEQUENTIAL
002600         RECORD KEY IS SOCSEC-NUMKEY
002700         FILE STATUS IS SOCSEC-FILE-STATUS.
002800     SKIP1
002900     SELECT INPUT-FILE
003000         ASSIGN TO UT-S-INPUT.
003100     SKIP1
003200     SELECT OUTPUT-REPORT
003300         ASSIGN TO UT-S-REPORT.
003400     SKIP1
003500     COPY CLSLCRPT.
003600     EJECT
003700 DATA DIVISION.
003800     SKIP1
003900 FILE  SECTION.
004000     SKIP1
004100 FD  SOCSEC-FILE
004200     BLOCK CONTAINS 0 RECORDS
004300     LABEL RECORDS ARE STANDARD.
004400 01  SOCSEC-RECORD.
004500     05  SOCSEC-NUMKEY           PIC X(9).
004600     05  SOCSEC-NAME             PIC X(26).
004700     05  SOCSEC-EMPLOY-ID        PIC X(9).
004800     05  SOCSEC-EMP-STATUS       PIC X.
004900     05  SOCSEC-HIRE-DATE        PIC X(6).
005000     05  SOCSEC-HOME-DEPT        PIC X(6).
005100     05  FILLER                  PIC XXX.
005200     SKIP1
005300 FD  INPUT-FILE
005400     RECORDING MODE IS V
005500     BLOCK CONTAINS 0 RECORDS
005600     LABEL RECORDS ARE STANDARD.
005700 01  INPUT-FILE-RECORD.
005800     05  INPUT-RECORD            OCCURS 1 TO 500 TIMES
005900                                 DEPENDING ON INPUT-RECORD-SIZE
006000                                 PIC X(1).
006100     SKIP1
006200 FD  OUTPUT-REPORT
006300     RECORDING MODE IS F
006400     BLOCK CONTAINS 0 RECORDS
006500     LABEL RECORDS ARE STANDARD.
006600 01  REPORT-RECORD.
006700     05  CARRIAGE-CONTROL-CHARACTER
006800                                 PIC X(1).
006900     05  REPORT-LINE             PIC X(132).
007000     SKIP1
007100 COPY CLFDCRPT.
007200     EJECT
007300 WORKING-STORAGE  SECTION.
007400     SKIP1
007500 COPY CLWSCRPT.
007600     SKIP1
007700 77  INPUT-RECORD-SIZE           PIC S9(4)       COMP.
007800     SKIP1
007900 77  SOCSEC-FILE-STATUS          PIC XX.
008000     SKIP1
008100 77  INPUT-FILE-EOF-SW           PIC X(3)        VALUE 'NO '.
008200     88  NOT-AT-END-OF-INPUT-FILE                VALUE 'NO '.
008300     88  AT-END-OF-INPUT-FILE                    VALUE 'YES'.
008400     SKIP1
008500 77  INPUT-RECORD-COUNTER        PIC 9(6)        VALUE ZERO.
008600     SKIP1
008700 77  RECORDS-WITH-ZERO-SSN-COUNTER
008800                                 PIC 9(6)        VALUE ZERO.
008900     SKIP1
009000 77  OTHER-BYPASSED-RECORDS-COUNTER
009100                                 PIC 9(6)        VALUE ZERO.
009200     SKIP1
009300 77  OUTPUT-RECORD-COUNTER       PIC 9(6)        VALUE ZERO.
009400     SKIP1
009500 77  VSAM-WRITE-COUNT            PIC 9(6)        VALUE ZERO.
009600     SKIP1
009700 77  PAGE-NUMBER-COUNTER         PIC 9(3)        VALUE ZERO.
009800     SKIP1
009900 77  FIRST-DUPLICATE-FOUND-SW    PIC X(3).
010000     88  FIRST-DUPLICATE-FOUND                   VALUE 'YES'.
010100     SKIP1
010200 01  INPUT-RECORD-WS.
010300     05  SSN.
010400         10  SSN-FIRST-3-CHARS   PIC X(3).
010500         10  SSN-MIDDLE-2-CHARS  PIC X(2).
010600         10  SSN-LAST-4-CHARS    PIC X(4).
010700     05  NAME                    PIC X(26).
010800     05  EMPLOYEE-ID.
010900         10  FILLER              PIC X(3).
011000         10  EMPLOYEE-ID-LAST-6-CHARS
011100                                 PIC X(6).
011200     05  EMPLOYMENT-STATUS       PIC X(1).
011300     05  HIRE-DATE.
011400         10  HIRE-DATE-YY        PIC X(2).
011500         10  HIRE-DATE-MM        PIC X(2).
011600         10  HIRE-DATE-DD        PIC X(2).
011700     05  HOME-DEPT.
011800         10  FILLER              PIC X(2).
011900         10  HOME-DEPT-LAST-4-CHARS
012000                                 PIC X(4).
012100     05  FILLER                  PIC X(443).
012200     SKIP1
012300 01  CURRENT-RECORD.
012400     05  CURR-EMPLOY-REC.
012500         10  SSN                 PIC X(9)     VALUE SPACES.
012600         10  FILLER              PIC X(51)    VALUE SPACES.
012700     05  CURR-EMPLOY-FILL.
012800         10  FILLER              PIC X(440)   VALUE SPACES.
012900     SKIP1
013000 01  LAST-RECORD-READ.
013100     05  LAST-EMPLOY-REC.
013200         10  SSN                 PIC X(9)     VALUE SPACES.
013300         10  FILLER              PIC X(51)    VALUE SPACES.
013400     05  LAST-EMPLOY-FILL.
013500         10  FILLER              PIC X(440)   VALUE SPACES.
013600     SKIP1
013700 01  WS-VSAM-ERROR.
013800     05  ERROR-VSAM              PIC X(30)       VALUE
013900         'UNSUCCESSFUL VSAM ERROR =     '.
014000     05  ERROR-VSAM-CODE         PIC XX.
014100     SKIP1
014200 01  HEADING-LINE-1.
014300     05  FILLER                  PIC X(36)       VALUE SPACES.
014400     05  FILLER                  PIC X(20)       VALUE
014500         'DUPLICATE S-S-N LIST'.
014600     05  FILLER                  PIC X(25)       VALUE SPACES.
014700     05  FILLER                  PIC X(8)        VALUE 'PAGE NO.'.
014800     05  PAGE-NUMBER-COUNTER-EDITED
014900                                 PIC Z(2)9(1).
015000     05  FILLER                  PIC X(40)       VALUE SPACES.
015100     SKIP1
015200 01  HEADING-LINE-2.
015300     05  FILLER                  PIC X(4)        VALUE SPACES.
015400     05  FILLER                  PIC X(5)        VALUE 'S-S-N'.
015500     05  FILLER                  PIC X(3)        VALUE SPACES.
015600     05  FILLER                  PIC X(5)        VALUE SPACES.
015700     05  FILLER                  PIC X(4)        VALUE 'NAME'.
015800     05  FILLER                  PIC X(22)       VALUE SPACES.
015900     05  FILLER                  PIC X(5)        VALUE SPACES.
016000     05  FILLER                  PIC X(6)        VALUE 'EMPL #'.
016100     05  FILLER                  PIC X(5)        VALUE SPACES.
016200     05  FILLER                  PIC X(6)        VALUE 'STATUS'.
016300     05  FILLER                  PIC X(5)        VALUE SPACES.
016400     05  FILLER                  PIC X(9)        VALUE
016500         'HIRE DATE'.
016600     05  FILLER                  PIC X(5)        VALUE SPACES.
016700     05  FILLER                  PIC X(9)        VALUE
016800         'HOME DEPT'.
016900     05  FILLER                  PIC X(39)       VALUE SPACES.
017000     SKIP1
017100 01  DETAIL-LINE.
017200     05  FILLER                  PIC X           VALUE SPACES.
017300     05  SSN                     PIC X(11).
017400     05  FILLER                  PIC X(5)        VALUE SPACES.
017500     05  NAME                    PIC X(26).
017600     05  FILLER                  PIC X(5)        VALUE SPACES.
017700     05  EMPLOYEE-ID             PIC X(6).
017800     05  FILLER                  PIC X(5)        VALUE SPACES.
017900     05  FILLER                  PIC X(2)        VALUE SPACES.
018000     05  EMPLOYMENT-STATUS       PIC X(1).
018100     05  FILLER                  PIC X(3)        VALUE SPACES.
018200     05  FILLER                  PIC X(5)        VALUE SPACES.
018300     05  HIRE-DATE-MM-EDITED     PIC X(2).
018400     05  FILLER                  PIC X(1)        VALUE '/'.
018500     05  HIRE-DATE-DD-EDITED     PIC X(2).
018600     05  FILLER                  PIC X(1)        VALUE '/'.
018700     05  HIRE-DATE-YY-EDITED     PIC X(2).
018800     05  FILLER                  PIC X(5)        VALUE SPACES.
018900     05  FILLER                  PIC X(4)        VALUE SPACES.
019000     05  HOME-DEPT               PIC X(4).
019100     05  FILLER                  PIC X(44)       VALUE SPACES.
019200     SKIP1
019300 01  SSN-EDITED.
019400     05  SSN-FIRST-3-CHARS-EDITED
019500                                 PIC X(3).
019600     05  FILLER                  PIC X(1)        VALUE '-'.
019700     05  SSN-MIDDLE-2-CHARS-EDITED
019800                                 PIC X(2).
019900     05  FILLER                  PIC X(1)        VALUE '-'.
020000     05  SSN-LAST-4-CHARS-EDITED PIC X(4).
020100     SKIP1
020200 77  LINES-PRINTED-ON-PAGE       PIC 9(2).
020300     SKIP1
020400 77  MAXIMUM-LINES-PRINTED-PER-PAGE
020500                                 PIC 9(2)        VALUE 52.
020600     SKIP1
020700 01  FILLER.
020800     COPY CPWSDATE.
020900     EJECT
021000 PROCEDURE DIVISION.
021100     SKIP1
021200 MAIN-PARAGRAPH.
021300     COPY CLPDCRPT.
021400     SKIP1
021500     OPEN OUTPUT SOCSEC-FILE.
021600     IF SOCSEC-FILE-STATUS NOT = ZEROS
021700         MOVE SOCSEC-FILE-STATUS TO ERROR-VSAM-CODE
021800         PERFORM PRINT-CONTROL-REPORT
021900         STOP RUN.
022000     OPEN  INPUT INPUT-FILE
022100          OUTPUT OUTPUT-REPORT.
022200     PERFORM WRITE-HEADING.
022300     PERFORM READ-INPUT-FILE.
022400     ADD 1 TO INPUT-RECORD-COUNTER
022500              OTHER-BYPASSED-RECORDS-COUNTER.
022600     MOVE CURRENT-RECORD TO LAST-RECORD-READ.
022700     PERFORM READ-INPUT-FILE.
022800     PERFORM PROCESSING-ROUTINE
022900         UNTIL AT-END-OF-INPUT-FILE.
023000     PERFORM WRITE-VSAM-SOCSEC THRU WRITE-VSAM-SOCSEC-EXIT.
023100     ADD 1 TO VSAM-WRITE-COUNT.
023200     CLOSE INPUT-FILE
023300           OUTPUT-REPORT
023400           SOCSEC-FILE.
023500     IF SOCSEC-FILE-STATUS NOT = ZEROS
023600         MOVE SOCSEC-FILE-STATUS TO ERROR-VSAM-CODE.
023700     PERFORM PRINT-CONTROL-REPORT.
023800     STOP RUN.
023900     SKIP1
024000 PROCESSING-ROUTINE.
024100     ADD 1 TO INPUT-RECORD-COUNTER.
024200     IF SSN OF CURRENT-RECORD = ZEROS
024300         ADD 1 TO RECORDS-WITH-ZERO-SSN-COUNTER
024400     ELSE
024500     IF SSN OF CURRENT-RECORD = SSN OF LAST-RECORD-READ
024600         MOVE 'YES' TO FIRST-DUPLICATE-FOUND-SW
024700         PERFORM LIST-DUPLICATE-RECORDS-ROUTINE
024800             UNTIL SSN OF CURRENT-RECORD NOT =
024900                 SSN OF LAST-RECORD-READ
025000     ELSE
025100         ADD 1 TO OTHER-BYPASSED-RECORDS-COUNTER
025200         PERFORM WRITE-VSAM-SOCSEC THRU WRITE-VSAM-SOCSEC-EXIT.
025300     MOVE CURRENT-RECORD TO LAST-RECORD-READ.
025400     PERFORM READ-INPUT-FILE.
025500     SKIP1
025600 LIST-DUPLICATE-RECORDS-ROUTINE.
025700     ADD 1 TO INPUT-RECORD-COUNTER.
025800     IF LINES-PRINTED-ON-PAGE NOT <
025900        MAXIMUM-LINES-PRINTED-PER-PAGE
026000            PERFORM WRITE-HEADING.
026100     IF FIRST-DUPLICATE-FOUND
026200         MOVE SPACES TO FIRST-DUPLICATE-FOUND-SW
026300         MOVE SPACES TO REPORT-RECORD
026400         PERFORM WRITE-REPORT-RECORD 2 TIMES
026500         ADD 2 TO LINES-PRINTED-ON-PAGE
026600         MOVE LAST-RECORD-READ TO INPUT-RECORD-WS
026700         MOVE SSN-FIRST-3-CHARS TO SSN-FIRST-3-CHARS-EDITED
026800         MOVE SSN-MIDDLE-2-CHARS TO SSN-MIDDLE-2-CHARS-EDITED
026900         MOVE SSN-LAST-4-CHARS TO SSN-LAST-4-CHARS-EDITED
027000         MOVE SSN-EDITED TO SSN OF DETAIL-LINE
027100         PERFORM CONTINUE-REST-OF-PROCESSING.
027200     MOVE CURRENT-RECORD TO INPUT-RECORD-WS.
027300     MOVE SPACES TO SSN OF DETAIL-LINE.
027400     PERFORM CONTINUE-REST-OF-PROCESSING.
027500     PERFORM READ-INPUT-FILE.
027600     SKIP1
027700 CONTINUE-REST-OF-PROCESSING.
027800     MOVE NAME OF INPUT-RECORD-WS TO NAME OF DETAIL-LINE.
027900     MOVE EMPLOYEE-ID-LAST-6-CHARS TO EMPLOYEE-ID OF DETAIL-LINE.
028000     MOVE EMPLOYMENT-STATUS OF INPUT-RECORD-WS TO
028100         EMPLOYMENT-STATUS OF DETAIL-LINE.
028200     MOVE HIRE-DATE-YY TO HIRE-DATE-YY-EDITED.
028300     MOVE HIRE-DATE-MM TO HIRE-DATE-MM-EDITED.
028400     MOVE HIRE-DATE-DD TO HIRE-DATE-DD-EDITED.
028500     MOVE HOME-DEPT-LAST-4-CHARS TO HOME-DEPT OF DETAIL-LINE.
028600     MOVE SPACES TO REPORT-RECORD.
028700     PERFORM WRITE-REPORT-RECORD.
028800     MOVE DETAIL-LINE TO REPORT-RECORD.
028900     PERFORM WRITE-REPORT-RECORD.
029000     ADD 1 TO OUTPUT-RECORD-COUNTER.
029100     ADD 2 TO LINES-PRINTED-ON-PAGE.
029200     SKIP1
029300 WRITE-HEADING.
029400     ADD 1 TO PAGE-NUMBER-COUNTER.
029500     MOVE PAGE-NUMBER-COUNTER TO PAGE-NUMBER-COUNTER-EDITED.
029600     MOVE HEADING-LINE-1 TO REPORT-RECORD.
029700     PERFORM WRITE-REPORT-RECORD-AFTER-PAGE.
029800     MOVE SPACES TO REPORT-RECORD.
029900     PERFORM WRITE-REPORT-RECORD 2 TIMES.
030000     MOVE HEADING-LINE-2 TO REPORT-RECORD.
030100     PERFORM WRITE-REPORT-RECORD.
030200     MOVE 4 TO LINES-PRINTED-ON-PAGE.
030300     SKIP1
030400 READ-INPUT-FILE.
030500     READ INPUT-FILE INTO CURRENT-RECORD
030600         AT END
030700             MOVE 'YES' TO INPUT-FILE-EOF-SW.
030800     SKIP1
030900 WRITE-REPORT-RECORD-AFTER-PAGE.
031000     WRITE REPORT-RECORD
031100         AFTER ADVANCING PAGE.
031200     SKIP1
031300 WRITE-REPORT-RECORD.
031400     WRITE REPORT-RECORD.
031500     SKIP1
031600 WRITE-VSAM-SOCSEC.
031700     IF SSN OF LAST-RECORD-READ = ZEROS OR SPACES
031800         GO TO WRITE-VSAM-SOCSEC-EXIT.
031900     MOVE SPACES TO SOCSEC-RECORD.
032000     MOVE LAST-EMPLOY-REC TO SOCSEC-RECORD.
032100     WRITE SOCSEC-RECORD.
032200     IF SOCSEC-FILE-STATUS = ZEROS
032300         ADD 1 TO VSAM-WRITE-COUNT
032400     ELSE
032500         MOVE SOCSEC-FILE-STATUS TO ERROR-VSAM-CODE
032600         MOVE 'YES' TO INPUT-FILE-EOF-SW.
032700 WRITE-VSAM-SOCSEC-EXIT.
032800     EXIT.
032900     EJECT
033000 PRINT-CONTROL-REPORT SECTION.
033100
033200     OPEN OUTPUT CONTROLREPORT.
033300
033400     MOVE 'SSNDUPCR'             TO CR-HL1-RPT.
033500     MOVE CR-HDG-LINE1           TO CONTROL-DATA.
033600     WRITE CONTROLRECORD AFTER ADVANCING PAGE.
033700
033800     MOVE CR-HDG-LINE2           TO CONTROL-DATA.
033900     WRITE CONTROLRECORD AFTER ADVANCING 1 LINES.
034000
034100     MOVE WHEN-COMPILED          TO COMPILE-TIME-AND-DATE.
034200     MOVE COMPILE-TIME           TO CR-HL3-CMP-TIME.
034300     MOVE COMPILE-DATE           TO CR-HL3-CMP-DATE.
034400     MOVE CR-HDG-LINE3           TO CONTROL-DATA.
034500     WRITE CONTROLRECORD AFTER ADVANCING 2 LINES.
034600
034700     MOVE CR-HDG-LINE4           TO CONTROL-DATA.
034800     WRITE CONTROLRECORD AFTER ADVANCING 3 LINES.
034900
035000     MOVE NO-CONTROL-CARD        TO CR-DET-LINE5
035100     MOVE CR-DET-LINE5           TO CONTROL-DATA.
035200     WRITE CONTROLRECORD AFTER ADVANCING 1 LINES.
035300
035400     MOVE CR-HDG-LINE6           TO CONTROL-DATA.
035500     WRITE CONTROLRECORD AFTER ADVANCING 3 LINES.
035600
035700     ACCEPT TIME-WORK-AREA FROM TIME.
035800     MOVE CORR TIME-WORK-AREA    TO TIME-WORK-AREA-SPLIT.
035900     MOVE TIME-WORK-AREA-SPLIT   TO CR-DL7-CTL-TIME.
036000     IF SOCSEC-FILE-STATUS NOT = ZEROS
036100         MOVE WS-VSAM-ERROR TO CR-DL7-CTL-STAT.
036200     MOVE CR-DET-LINE7           TO CONTROL-DATA.
036300     WRITE CONTROLRECORD AFTER ADVANCING 2 LINES.
036400
036500     MOVE CR-HDG-LINE8           TO CONTROL-DATA.
036600     WRITE CONTROLRECORD AFTER ADVANCING 3 LINES.
036700*
036800*  FOLLOWING CODE MUST BE DUPLICATED FOR EVERY FILE
036900*
037000*  FILE NAME, ACTION (SO-CREATED OR SO-READ), AND
037100*  THE ACTUAL RECORD COUNTER MUST BE FILLED IN
037200*
037300     MOVE 'INPUT FILE'           TO CR-DL9-FILE.
037400     MOVE SO-READ                TO CR-DL9-ACTION.
037500     MOVE INPUT-RECORD-COUNTER   TO CR-DL9-VALUE.
037600     MOVE CR-DET-LINE9           TO CONTROL-DATA.
037700     WRITE CONTROLRECORD AFTER ADVANCING 2 LINES.
037800*
037900     MOVE 'BYPASSED'                 TO CR-DL9-FILE.
038000     MOVE SO-READ                TO CR-DL9-ACTION.
038100     MOVE OTHER-BYPASSED-RECORDS-COUNTER TO CR-DL9-VALUE.
038200     MOVE CR-DET-LINE9           TO CONTROL-DATA.
038300     WRITE CONTROLRECORD AFTER ADVANCING 2 LINES.
038400*
038500     MOVE 'ZERO SSN'             TO CR-DL9-FILE.
038600     MOVE SO-READ                TO CR-DL9-ACTION.
038700     MOVE RECORDS-WITH-ZERO-SSN-COUNTER TO CR-DL9-VALUE.
038800     MOVE CR-DET-LINE9           TO CONTROL-DATA.
038900     WRITE CONTROLRECORD AFTER ADVANCING 2 LINES.
039000*
039100     MOVE 'DUPLICATE SSN' TO CR-DL9-FILE.
039200     MOVE SO-READ                TO CR-DL9-ACTION.
039300     MOVE OUTPUT-RECORD-COUNTER  TO CR-DL9-VALUE.
039400     MOVE CR-DET-LINE9           TO CONTROL-DATA.
039500     WRITE CONTROLRECORD AFTER ADVANCING 2 LINES.
039600*
039700     MOVE 'SOC SEC NUM  ' TO CR-DL9-FILE.
039800     MOVE 'CREATED '             TO CR-DL9-ACTION.
039900     MOVE VSAM-WRITE-COUNT       TO CR-DL9-VALUE.
040000     MOVE CR-DET-LINE9           TO CONTROL-DATA.
040100     WRITE CONTROLRECORD AFTER ADVANCING 2 LINES.
040200*
040300     MOVE END-OF-REPORT-MSG      TO CONTROL-DATA.
040400     WRITE CONTROLRECORD AFTER ADVANCING 4 LINES.
040500
040600     CLOSE CONTROLREPORT.
