000100*==========================================================%      UCSD9999
000200*= UCSD LOCAL CHANGES HAVE BEEN IMPLEMENTED.              =%      UCSD9999
000300*= COLUMN 73 THRU 80 DENOTES CHANGE NUMBER - UCSD9999     =%      UCSD9999
000400*=                                                        =%      UCSD9999
000500*==========================================================%      UCSD9999
000600*==========================================================%      DU044
000700*=    PROGRAM: PPL610                                     =%      DU044
000800*=    CHANGE # DU044        PROJ. REQUEST: DU044          =%      DU044
000900*=    NAME:JIM PIERCE       MODIFICATION DATE: 3/13/91    =%      DU044
001000*=                                                        =%      DU044
001100*=    DESCRIPTION:                                        =%      DU044
001200*=     ADDED FIELDS FOR                                   =%      DU044
001300*=       STATE TAX WITHHELD;                              =%      DU044
001400*=     REPLACED HEALTH CARE INDICATOR FIELD WITH          =%      DU044
001500*=       AWAITING W-8 FORM INDICATOR;                     =%      DU044
001600*=     EXPANDED ALL RECORD TYPES FROM 450 TO 500 BYTES    =%      DU044
001700*==========================================================%      DU044
001400*==========================================================%      DU032
001500*=    PROGRAM: PPL610                                     =%      DU032
001600*=    CHANGE # DU032        PROJ. REQUEST: DU032          =%      DU032
001700*=    NAME:JIM PIERCE       MODIFICATION DATE: 2/28/90    =%      DU032
001800*=                                                        =%      DU032
001900*=    DESCRIPTION: ADDED FIELDS FOR --                    =%      DU032
002000*=       STUDENT WITHHOLDING ALLOWANCE                    =%      DU032
002100*=       STUDENT NET INCOME                               =%      DU032
002200*=       HEALTH CARE INDICATOR                            =%      DU032
002300*=       TRANSMITTER CONTROL CODE;                        =%      DU032
002800*=     CHANGED DEFAULT VALUE FOR RECIPIENT ACCOUNT TYPE;  =%      DU032
002900*=     EXPANDED ZIP CODE DEFINITION                       =%      DU032
002500*==========================================================%      DU032
003100*==========================================================%      DS413
003200*=    PROGRAM: PPP120                                     =%      DS413
003300*=    CHANGE # DS413        PROJ. REQUEST: COBOL II       =%      DS413
003400*=    NAME:JIM PIERCE       MODIFICATION DATE: 7/31/89    =%      DS413
003500*=                                                        =%      DS413
003600*=    DESCRIPTION: PROGRAM WAS MODIFIED FOR CONVERSION    =%      DS413
003700*=    TO COBOL II                                         =%      DS413
003800*==========================================================%      DS413
002600 IDENTIFICATION DIVISION.                                         PPL610
002700 PROGRAM-ID. PPL610.                                              PPL610
002800 INSTALLATION.  UCSD ADCOM SYSTEMS.                               PPL610
002900 AUTHOR.        JIM PIERCE.                                       PPL610
003000 DATE-WRITTEN.  FEBRUARY 9, 1988.                                 PPL610
003100 DATE-COMPILED.                                                   PPL610
003200     EJECT                                                        PPL610
003300*REMARKS.                                                         PPL610
003400*                                                                 PPL610
003500*    PPL610 CREATES THE MAGNETIC TAPE FILE VERSION OF IRS         PPL610
003600*    FORM 1042S, "FOREIGN PERSON'S U.S. SOURCE INCOME SUBJECT     PPL610
003700*    TO WITHHOLDING".                                             PPL610
003800*                                                                 PPL610
003900*    RECORD TYPES GENERATED ARE (ASSUMING SINGLE-REEL             PPL610
004000*    TRANSMISSION):                                               PPL610
004100*                                                                 PPL610
004200*    1)  A TRANSMITTER RECORD ('T' TYPE) IS CREATED               PPL610
004300*        AT THE BEGINNING OF THE FILE, CONTAINING THE             PPL610
004400*        TRANSMITTER'S NAME, ADDRESS AND EMPLOYER IDENTIFICATION  PPL610
004500*        NUMBER.  THIS INFORMATION IS DERIVED FROM COPY MEMBER    PPL610
004600*        CPWSXTRC, TAX REPORTING CONSTANTS.                       PPL610
004700*                                                                 PPL610
004800*    2)  ONE OR MORE RECIPIENT RECORDS ('Q' TYPE) ARE CREATED     PPL610
004900*        FOR EACH DISTINCT TYPE OF INCOME FOR EACH INDIVIDUAL     PPL610
005000*        RECEIVING A 1042S FORM. MOST INDIVIDUALS HAVE BUT ONE    PPL610
005100*        TYPE OF INCOME AND THUS ONLY ONE RECIPIENT RECORD        PPL610
005200*        GENERATED.  THE MAXIMUM NUMBER OF RECIPIENT RECORDS      PPL610
005300*        GENERATED HERE AT UCSD IS THREE PER PERSON.              PPL610
005400*        EACH RECIPIENT RECORD CONTAINS:                          PPL610
005500*                                                                 PPL610
005600*        A)  WITHHOLDING AGENT'S IDENTIFICATION AND ADDRESS;      PPL610
005700*            HERE AT UCSD THE WITHHOLDING AGENT AND TRANSMITTER   PPL610
005800*            ARE ONE AND THE SAME.                                PPL610
005900*        B)  RECIPIENT'S IDENTIFICATION AND ADDRESS; THIS INFO    PPL610
006000*            IS CONSTANT FOR ALL RECIPIENT RECORDS FOR AN         PPL610
006100*            INDIVIDUAL.                                          PPL610
006200*        C)  RECIPIENT'S INCOME CODE AND INCOME INFORMATION;      PPL610
006300*            THIS INFO WILL BE UNIQUE FOR EACH RECIPIENT RECORD   PPL610
006400*            FOR AN INDIVIDUAL.                                   PPL610
006500*                                                                 PPL610
006600*                                                                 PPL610
006700*    3)  A WITHHOLDING AGENT ('W' TYPE) RECORD IS CREATED         PPL610
006800*        AFTER THE LAST RECIPIENT RECORD FOR A PARTICULAR         PPL610
006900*        WITHHOLDING AGENT.  THIS RECORD CONTAINS THE SAME        PPL610
007000*        AGENT'S INFORMATION AS INCLUDED IN ALL THE PRECEDING     PPL610
007100*        RECIPIENT RECORDS, AS WELL AS THE NUMBER OF RECIPIENT    PPL610
007200*        RECORDS FOR THE AGENT, TOTAL GROSS INCOME PAIDAND        PPL610
007300*        TOTAL TAX WITHHELD FOR ALL THE PRECEDING RECIPIENT       PPL610
007400*        RECORDS.                                                 PPL610
007500*                                                                 PPL610
007600*                                                                 PPL610
007700*    4)  AN END-OF-TRANSMISSION ('Y' TYPE) RECORD IS THE LAST     PPL610
007800*        RECORD CREATED.  IT CONTAINS THE TOTAL NUMBER OF         PPL610
007900*        WITHHOLDING AGENTS AND REEL COUNT INCLUDED               PPL610
008000*        IN THE TRANSMISSION. HERE AT UCSD THE VALUE OF BOTH      PPL610
008100*        TOTALS IS ONE.                                           PPL610
008200*                                                                 PPL610
008300*    INPUT                                                        PPL610
008400*    -----                                                        PPL610
008500*    1.  RAW 1042S WITHHOLDING FILE (IRS1042I)                    PPL610
008600*        --------------------------------                         PPL610
008700*        INDIVIDUALS' VARIABLE 1042S INCOME INFORMATION           PPL610
008800*        AS PROVIDED BY PAYROLL.                                  PPL610
008900*                                                                 PPL610
009000*    2.  SPEC CARD FILE (CARDI)                                   PPL610
009100*        ----------------------                                   PPL610
009200*        ESTABLISHES THE LAST TWO DIGITS OF THE TAX YEAR          PPL610
009300*        BEING REPORTED.                                          PPL610
009400*                                                                 PPL610
009500*    3.  CAMPUS TAX REPORTING CONSTANTS                           PPL610
009600*        ------------------------------                           PPL610
009700*                                                                 PPL610
009800*        CAMPUS TAX REPORTING CONSTANTS ARE OBTAINED FROM         PPL610
009900*        COPY MEMBER CPWSXTRC.                                    PPL610
010000*                                                                 PPL610
010100*                                                                 PPL610
010200*    OUTPUT                                                       PPL610
010300*    ------                                                       PPL610
010400*    1.  IRS 1042S FILE IN MAG TAPE FORMAT (IRS1042O)             PPL610
010500*        --------------------------------------------             PPL610
010600*        FILE OF FOREIGN PERSONS' U.S. SOURCE INCOME SUBJECT      PPL610
010700*        TO WITHHOLDING IN MAGNETIC TAPE FORMAT.                  PPL610
010800     EJECT                                                        PPL610
010900 ENVIRONMENT DIVISION.                                            PPL610
011000 CONFIGURATION SECTION.                                           PPL610
011100     SKIP1                                                        PPL610
011200 SOURCE-COMPUTER.                                                 PPL610
011300                                                 COPY CPOTXUCS.   PPL610
011400 OBJECT-COMPUTER.                                                 PPL610
011500                                                 COPY CPOTXOBJ.   PPL610
011600     SKIP1                                                        PPL610
011900 SPECIAL-NAMES.                                                   PPL610
012000     C01 IS NEW-PAGE.                                             PPL610
012100     SKIP2                                                        PPL610
012200 INPUT-OUTPUT SECTION.                                            PPL610
012300 FILE-CONTROL.                                                    PPL610
012400     SELECT CARD-IN                                               PPL610
012500         ASSIGN TO CARDI.                                         PPL610
012600     SKIP1                                                        PPL610
012700     SELECT RECIPIENT-INPUT-FILE                                  PPL610
012800         ASSIGN TO IRS1042I.                                      PPL610
012900     SKIP1                                                        PPL610
013000     SELECT TAPE-OUTPUT-FILE                                      PPL610
013100         ASSIGN TO IRS1042O.                                      PPL610
013200     SKIP2                                                        PPL610
013300     COPY CLSLCRPT.                                               PPL610
013400     EJECT                                                        PPL610
013500 DATA DIVISION.                                                   PPL610
013600 FILE SECTION.                                                    PPL610
013700     SKIP2                                                        PPL610
013600 FD  CARD-IN                                                      DS413
013700     BLOCK CONTAINS 0 RECORDS                                     DS413
013800     RECORD CONTAINS  80 CHARACTERS                               DS413
013900     RECORDING MODE IS F                                          DS413
014000     LABEL RECORDS ARE STANDARD.                                  DS413
014100     SKIP1                                                        PPL610
014200 01  CARD-REC               PIC X(80).                            DS413
014000     SKIP2                                                        PPL610
014100 FD  RECIPIENT-INPUT-FILE                                         PPL610
014200     BLOCK CONTAINS 0 RECORDS                                     PPL610
014600     RECORD CONTAINS 302 CHARACTERS                               PPL610
014700     RECORDING MODE IS F                                          PPL610
014400     LABEL RECORDS ARE STANDARD.                                  PPL610
014500     SKIP1                                                        PPL610
015000 01  RECIPIENT-INPUT-REC    PIC X(302).                           PPL610
014700     SKIP2                                                        PPL610
014800 FD  TAPE-OUTPUT-FILE                                             PPL610
014900     BLOCK CONTAINS 0 RECORDS                                     PPL610
016700     RECORD CONTAINS 500 CHARACTERS                               DU044
015500     RECORDING MODE IS F                                          PPL610
015100     LABEL RECORDS ARE STANDARD.                                  PPL610
015200     SKIP1                                                        PPL610
017100 01  TAPE-OUTPUT-REC        PIC X(500).                           DU044
015400     SKIP2                                                        PPL610
015500     COPY CLFDCRPT.                                               PPL610
015600     EJECT                                                        PPL610
015700 WORKING-STORAGE SECTION.                                         PPL610
015800******************************************************************PPL610
015900*                                                                *PPL610
016000*    WORKING-STORAGE                                             *PPL610
016100*                                                                *PPL610
016200******************************************************************PPL610
016300 77  WS-BEGIN                        PIC X(33) VALUE              PPL610
016400     '** WORKING-STORAGE STARTS HERE **'.                         PPL610
016500 77  HOLD-YR                         PIC 9(02).                   PPL610
016600 77  SP-PROG-ID                      PIC X(11) VALUE              PPL610
016700     'PPL610-SPEC'.                                               PPL610
016800     EJECT                                                        PPL610
016900******************************************************************PPL610
017000*                                                                *PPL610
017100*    FIELD EDITING AREA                                          *PPL610
017200*                                                                *PPL610
017300******************************************************************PPL610
017200 01  DATE-EDITS.              COPY CPWSDATE.                      DS413
017500 01  EDIT-FIELDS-AREA.                                            PPL610
017600     05  EDIT-CHAR1-INIT             PIC  9(02) COMP VALUE 1.     PPL610
017700     05  EDIT-CHAR2-INIT             PIC  9(02) COMP VALUE 2.     PPL610
017800     05  EDIT-CHAR-MAX               PIC  9(02) COMP VALUE 35.    PPL610
017900     05  EDIT-CHAR1-SUB              PIC  9(02) COMP.             PPL610
018000     05  EDIT-CHAR2-SUB              PIC  9(02) COMP.             PPL610
018100     05  EDIT-CHAR-OUTPUT-SUB        PIC  9(02) COMP.             PPL610
018200     05  EDIT-INPUT                  PIC  X(37).                  PPL610
018300     05  EDIT-INPUT-CHAR   REDEFINES   EDIT-INPUT                 PPL610
018400                                     PIC  X(01) OCCURS 37.        PPL610
018500         88  EDIT-VALID-INPUT-CHAR   VALUE '-', '/', '&', '*',    DU032
018600                                           ',', '.'.              DU032
018700     05  EDIT-OUTPUT                 PIC  X(37).                  PPL610
018800     05  EDIT-OUTPUT-CHAR  REDEFINES   EDIT-OUTPUT                PPL610
018900                                     PIC  X(01) OCCURS 37.        PPL610
020800     05  EDIT-ZIP-PLUS4.                                          DU032
018900         10  EDIT-ZIP-PLUS4-HYPHEN   PIC  X(01).                  DU032
019000         10  EDITED-ZIP-PLUS4        PIC  X(04).                  DU032
019000******************************************************************PPL610
019100*                                                                *PPL610
019200*    MISCELLANEOUS WORK AMOUNTS                                  *PPL610
019300*                                                                *PPL610
019400******************************************************************PPL610
019500 01  MISC-WORK-AMTS.                                              PPL610
019600     05  WS-ACCUM-GROSS              PIC S9(11)V99 COMP-3         PPL610
019700                                                VALUE +0.         PPL610
019800     05  WS-ACCUM-TAX-WITHHELD       PIC S9(11)V99 COMP-3         PPL610
019900                                                VALUE +0.         PPL610
020100     05  WS-ACCUM-STUDENT-WHLD-ALLOW PIC S9(10)V99 COMP-3         DU032
020200                                                VALUE +0.         DU032
020300     05  WS-ACCUM-STUDENT-NET-INCOME PIC S9(10)V99 COMP-3         DU032
020400                                                VALUE +0.         DU032
020500     05  WS-ACCUM-STUDENT-GROSS      PIC S9(10)V99 COMP-3         DU032
020600                                                VALUE +0.         DU032
020700     05  FORMAT-GROSS                PIC  $$$,$$$,$$9.99-.        PPL610
020800     05  FORMAT-TAX-WITHHELD         PIC  $$$,$$$,$$9.99-.        PPL610
020900     05  FORMAT-STUDENT-WHLD-ALLOW   PIC  $$$,$$$,$$9.99-.        DU032
021200     05  FORMAT-STUDENT-NET-INCOME   PIC  $$$,$$$,$$9.99-.        DU032
021300     05  FORMAT-STUDENT-GROSS        PIC  $$$,$$$,$$9.99-.        DU032
021400     EJECT                                                        DU032
021400******************************************************************PPL610
021500*                                                                *PPL610
021600*    MISCELLANEOUS DEFAULT VALUES                                *PPL610
021700*                                                                *PPL610
021800******************************************************************PPL610
021900 01  MISC-WORK-DEFAULTS.                                          PPL610
022000     05  WS-T-REC-TYPE-CODE          PIC  X(01) VALUE 'T'.        PPL610
022100     05  WS-T-REC-REEL-NO            PIC  9(02) VALUE 01.         PPL610
022100     05  WS-T-REC-XMTR-CONTROL-CODE  PIC  X(05) VALUE '22379'.    DU032
022300     05  WS-Q-REC-TYPE-CODE          PIC  X(01) VALUE 'Q'.        PPL610
022500     05  WS-Q-REC-RECIP-ACCT-TYPE    PIC  X(01) VALUE ' '.        DU032
022500     05  WS-Q-REC-RECIP-TYPE-CODE    PIC  9(02) VALUE 01.         PPL610
022600     05  WS-Q-REC-RECIP-CORRECT-IND  PIC  X(01) VALUE '0'.        PPL610
024600     05  WS-Q-REC-RECIP-AWAITING-W8-IND                           DU044
022900                                     PIC  X(01) VALUE 'N'.        DU032
022900     05  WS-W-REC-TYPE-CODE          PIC  X(01) VALUE 'W'.        PPL610
023000     05  WS-Y-REC-TYPE-CODE          PIC  X(01) VALUE 'Y'.        PPL610
023100     05  WS-Y-REC-AGENT-COUNT        PIC  9(03) VALUE 001.        PPL610
023200     05  WS-Y-REC-REEL-COUNT         PIC  9(03) VALUE 001.        PPL610
023400******************************************************************PPL610
023500*                                                                *PPL610
023600*    FLAGS                                                       *PPL610
023700*                                                                *PPL610
023800******************************************************************PPL610
023900 01  MISC-FLAGS.                                                  PPL610
024000     05  EOF-CARD-FLAG               PIC 9(01) VALUE ZERO.        PPL610
024100         88  CARD-AT-EOF             VALUE 1.                     PPL610
024200     05  EOF-INPUT-FLAG              PIC 9(01) VALUE ZERO.        PPL610
024300         88  INPUT-AT-EOF            VALUE 1.                     PPL610
024400     05  ABORT-PGM-FLAG              PIC 9(01) VALUE ZERO.        PPL610
024500         88  ABORTING-PGM            VALUE 1.                     PPL610
024600     05  FIRST-CHAR-FOUND-FLAG       PIC 9(01) VALUE ZERO.        PPL610
024700         88  FIRST-CHAR-FOUND        VALUE 1.                     PPL610
024800******************************************************************PPL610
024900*                                                                *PPL610
025000*    I/O COUNTERS                                                *PPL610
025100*                                                                *PPL610
025200******************************************************************PPL610
025300 01  IO-COUNTERS                     COMP-3.                      PPL610
025400     05  IO-INPUT-REC-COUNT          PIC  9(07) VALUE 0.          PPL610
025500     05  IO-DELETED-REC-COUNT        PIC  9(07) VALUE 0.          PPL610
025600     05  IO-STUDENT-REC-COUNT        PIC  9(07) VALUE 0.          DU032
025700     05  IO-TAPE-REC-COUNT           PIC  9(07) VALUE 0.          PPL610
025800     05  IO-TAPE-Q-REC-COUNT         PIC  9(07) VALUE 0.          PPL610
025900     EJECT                                                        PPL610
026000******************************************************************PPL610
026100*                                                                *PPL610
026200*    TAX REPORTING CONSTANTS                                     *PPL610
026300*                                                                *PPL610
026400******************************************************************PPL610
026500 01  XTRC-RECORD.                    COPY CPWSXTRC.               PPL610
026600     EJECT                                                        PPL610
026700******************************************************************PPL610
026800*                                                                *PPL610
026900*    SPEC CARD RECORD                                            *PPL610
027000*                                                                *PPL610
027100******************************************************************PPL610
027200 01  XSCP-SPEC-CARD-REC.             COPY CPWSXSCP.               PPL610
027300     EJECT                                                        PPL610
027400******************************************************************PPL610
027500*                                                                *PPL610
027600*    RECIPIENT INPUT                                             *PPL610
027700*                                                                *PPL610
027800******************************************************************PPL610
027900 01  RECIP-INPUT-WS.                 COPY   CLWSIRSI.             DS413
028000     EJECT                                                        PPL610
028100******************************************************************PPL610
028200*                                                                *PPL610
028300*    TAPE RECORD OUTPUT                                          *PPL610
028400*                                                                *PPL610
028500******************************************************************PPL610
028600 01  TAPE-T-REC-WS.                                               PPL610
028700     03  T-REC-TYPE-CODE                         PIC X(01).       PPL610
028800     03  T-REC-TAX-YR                            PIC X(02).       PPL610
028900     03  T-REC-REEL-NO                           PIC 9(02).       PPL610
029000     03  T-REC-XMTR-EIN                          PIC X(09).       PPL610
029100     03  T-REC-XMTR-NAME                         PIC X(40).       PPL610
029200     03  T-REC-XMTR-ADDRESS                      PIC X(40).       PPL610
029300     03  T-REC-XMTR-CITY                         PIC X(20).       PPL610
029400     03  T-REC-XMTR-STATE                        PIC X(02).       PPL610
029500     03  T-REC-XMTR-ZIP                          PIC X(05).       PPL610
029600     03  T-REC-XMTR-ZIP-PLUS4                    PIC X(04).       PPL610
029700     03  T-REC-XMTR-CONTROL-CODE                 PIC X(05).       D0032
031600     03  T-REC-FILLER                            PIC X(370).      DU044
029900 01  TAPE-Q-REC-WS.                                               PPL610
030000     03  Q-REC-TYPE-CODE                         PIC X(01).       PPL610
030100     03  Q-REC-AGENT-INFO.                                        PPL610
030200         05  Q-REC-AGENT-EIN                     PIC X(09).       PPL610
030300         05  Q-REC-AGENT-NAME                    PIC X(35).       PPL610
030400         05  Q-REC-AGENT-ADDRESS                 PIC X(35).       PPL610
030500         05  Q-REC-AGENT-CITY                    PIC X(20).       PPL610
030600         05  Q-REC-AGENT-STATE                   PIC X(02).       PPL610
030700         05  Q-REC-AGENT-ZIP                     PIC X(05).       PPL610
030800         05  Q-REC-AGENT-ZIP-PLUS4               PIC X(04).       PPL610
030900     03  Q-REC-RECIP-INFO.                                        PPL610
031000         05  Q-REC-RECIP-ACCT-TYPE               PIC X(01).       PPL610
031100         05  Q-REC-RECIP-TIN                     PIC X(09).       PPL610
031200         05  Q-REC-RECIP-EMP-NO                  PIC X(15).       PPL610
031300         05  Q-REC-RECIP-COUNTRY-CODE            PIC X(02).       PPL610
031400         05  Q-REC-RECIP-1ST-NAME                PIC X(35).       PPL610
031500         05  Q-REC-RECIP-2ND-NAME                PIC X(35).       PPL610
031600         05  Q-REC-RECIP-3RD-NAME                PIC X(35).       PPL610
033500         05  Q-REC-RECIP-ADDRESS                 PIC X(40).       DU044
031800         05  Q-REC-RECIP-CITY                    PIC X(25).       PPL610
031900         05  Q-REC-RECIP-PROVINCE                PIC X(15).       PPL610
032000         05  Q-REC-RECIP-POSTAL-CODE             PIC X(09).       PPL610
032100         05  Q-REC-RECIP-STATE                   PIC X(02).       PPL610
032200         05  Q-REC-RECIP-COUNTRY                 PIC X(20).       PPL610
032300         05  Q-REC-RECIP-INCOME-CODE             PIC 9(02).       PPL610
032400         05  Q-REC-RECIP-TYPE-CODE               PIC 9(02).       PPL610
032500         05  Q-REC-RECIP-GROSS                   PIC 9(09)V9(02). PPL610
032600         05  Q-REC-RECIP-EXEMPT-CODE             PIC 9(01).       PPL610
032700         05  Q-REC-RECIP-CORRECT-IND             PIC X(01).       PPL610
032800         05  Q-REC-RECIP-TAX-RATE                PIC 9(02).       PPL610
032900         05  Q-REC-RECIP-TAX-WITHHELD            PIC 9(09)V9(02). PPL610
033000         05  Q-REC-RECIP-PAYER-NAME              PIC X(35).       PPL610
033100         05  Q-REC-RECIP-PAYER-EIN               PIC X(09).       PPL610
035000         05  Q-REC-RECIP-AWAITING-W8-IND         PIC X(01).       DU044
033100         05  Q-REC-RECIP-STUDENT-WHLD-ALLOW      PIC 9(08)V9(02). DU032
033400         05  Q-REC-RECIP-STUDENT-NET-INCOME      PIC 9(08)V9(02). DU032
035300         05  Q-REC-RECIP-STATE-TAX-WITHHELD      PIC 9(08)V9(02). DU044
035400     03  Q-REC-FILLER                            PIC X(41).       DU044
033600     SKIP1                                                        PPL610
033700 01  TAPE-W-REC-WS.                                               PPL610
033800     03  W-REC-TYPE-CODE                         PIC X(01).       PPL610
033900     03  W-REC-PAYMENT-YR                        PIC 9(02).       PPL610
034000     03  W-REC-AGENT-EIN                         PIC X(09).       PPL610
034100     03  W-REC-AGENT-NAME                        PIC X(35).       PPL610
034200     03  W-REC-AGENT-ADDRESS                     PIC X(35).       PPL610
034300     03  W-REC-AGENT-CITY                        PIC X(20).       PPL610
034400     03  W-REC-AGENT-STATE                       PIC X(02).       PPL610
034500     03  W-REC-AGENT-ZIP                         PIC X(05).       PPL610
034600     03  W-REC-AGENT-ZIP-PLUS4                   PIC X(04).       PPL610
034700     03  W-REC-Q-REC-COUNT                       PIC 9(08).       PPL610
034800     03  W-REC-TOTAL-GROSS                       PIC 9(11)V9(02). PPL610
034900     03  W-REC-TOTAL-TAX-WITHHELD                PIC 9(11)V9(02). PPL610
036900     03  W-REC-FILLER                            PIC X(353).      DU044
035100     SKIP1                                                        PPL610
035200 01  TAPE-Y-REC-WS.                                               PPL610
035300     03  Y-REC-TYPE-CODE                         PIC X(01).       PPL610
035400     03  Y-REC-AGENT-COUNT                       PIC 9(03).       PPL610
035500     03  Y-REC-REEL-COUNT                        PIC 9(03).       PPL610
037500     03  Y-REC-FILLER                            PIC X(493).      DU044
035700     EJECT                                                        PPL610
036000     COPY CLWSCRPT.                                               PPL610
036100     EJECT                                                        PPL610
036200 PROCEDURE DIVISION.                                              PPL610
036300 MAINLINE SECTION.                                                PPL610
036400******************************************************************PPL610
036500*                                                                *PPL610
036600*    THIS IS THE MAIN ROUTINE OF THE PROGRAM WHERE CONTROL       *PPL610
036700*    RESIDES.  PROCESSING TAKES PLACE AS FOLLOWS:                *PPL610
036800*                                                                *PPL610
036900*    1)  OPEN FILES AND INITIALIZE WORKING-STORAGE (B0000).      *PPL610
037000*    2)  READ AND VALIDATE SPEC-CARD (C0000).                    *PPL610
037100*    3)  SET TAPE OUTPUT FILE TAX REPORTING CONSTANTS AND        *PPL610
037200*        FIXED CONSTANTS. (D0000).                               *PPL610
037300*    4)  PROCESS EACH INPUT TRANSACTION AND CREATE TAPE OUTPUT   *PPL610
037400*        FILE (F0000).                                           *PPL610
037500*    5)  CLOSE FILES (Z0000).                                    *PPL610
037600*                                                                *PPL610
037700******************************************************************PPL610
037800 A0000-MAIN.                                                      PPL610
037900     COPY CLPDCRPT.                                               PPL610
038000     PERFORM B0000-INITIALIZE THRU                                PPL610
038100             B0000-INITIALIZE-X.                                  PPL610
038200     PERFORM C0000-SPEC-CARD THRU                                 PPL610
038300             C0000-SPEC-CARD-X.                                   PPL610
038400     IF NOT ABORTING-PGM                                          PPL610
038500        PERFORM D0000-SET-DEFAULTS THRU                           PPL610
038600                D0000-SET-DEFAULTS-X .                            PPL610
038700        PERFORM F0000-GENERATE-TAPE-FILE THRU                     PPL610
038800                F0000-GENERATE-TAPE-FILE-X.                       PPL610
038900     PERFORM Z0000-END-OF-JOB THRU                                PPL610
039000             Z0000-END-OF-JOB-X.                                  PPL610
039100     STOP RUN.                                                    PPL610
039200     EJECT                                                        PPL610
039300******************************************************************PPL610
039400*                                                                *PPL610
039500*    OPEN ALL FILES AND INITIALIZE WORKING-STORAGE.              *PPL610
039600*                                                                *PPL610
039700******************************************************************PPL610
039800 B0000-INITIALIZE.                                                PPL610
039900     OPEN INPUT  RECIPIENT-INPUT-FILE                             PPL610
040000                 CARD-IN                                          PPL610
040100          OUTPUT TAPE-OUTPUT-FILE.                                PPL610
040200     SKIP2                                                        PPL610
040300 B0000-INITIALIZE-X.                                              PPL610
040400     EXIT.                                                        PPL610
040500     SKIP2                                                        PPL610
040600******************************************************************PPL610
040700*                                                                *PPL610
040800*    READ THE SPEC-CARD AND VALIDATE EFFECTIVE DATE AND          *PPL610
040900*    PROGRAM ID.  IF SPEC-CARD CONTAINS ANY ERRORS, ERROR        *PPL610
041000*    MESSAGE WILL BE DISPLAYED AND PROGRAM WILL ABORT.           *PPL610
041100*                                                                *PPL610
041200******************************************************************PPL610
041300 C0000-SPEC-CARD.                                                 PPL610
041400     PERFORM R3000-READ-SPEC-CARD THRU                            PPL610
041500             R3000-READ-SPEC-CARD-X.                              PPL610
041600     IF CARD-AT-EOF                                               PPL610
041700         DISPLAY 'NO CONTROL CARD FOUND -- PPL610 ABORTED'        PPL610
041800         MOVE 1 TO ABORT-PGM-FLAG                                 PPL610
041900         GO TO C0000-SPEC-CARD-X.                                 PPL610
042000     IF XSCP-PROG-ID NOT = SP-PROG-ID                             PPL610
042100         DISPLAY 'BAD CONTROL CARD PROGRAM ID -- PPL610 ABORTED'  PPL610
042200         MOVE 1 TO ABORT-PGM-FLAG                                 PPL610
042300         GO TO C0000-SPEC-CARD-X.                                 PPL610
042400     IF XSCP-EFF-YEAR NOT NUMERIC                                 PPL610
042500         DISPLAY 'BAD CONTROL CARD YEAR -- PPL610 ABORTED'        PPL610
042600         MOVE 1 TO ABORT-PGM-FLAG                                 PPL610
042700         GO TO C0000-SPEC-CARD-X.                                 PPL610
042800     MOVE XSCP-EFF-YEAR  TO HOLD-YR.                              PPL610
042900     SKIP2                                                        PPL610
043000 C0000-SPEC-CARD-X.                                               PPL610
043100     EXIT.                                                        PPL610
043200     EJECT                                                        PPL610
043300******************************************************************PPL610
043400*                                                                *PPL610
043500*    1) SET TAX YEAR INFO FROM CONTROL CARD INPUT.               *PPL610
043600*    2) SET TRANSMITTER AND AGENT INFO FROM TAX REPORTING        *PPL610
043700*       CONSTANTS.                                               *PPL610
043800*    3) SET OUTPUT RECORD DEFAULTS FROM HARD-CODED               *PPL610
043900*       WORKING STORAGE VALUES.                                  *PPL610
044000*    4) SET OUTPUT RECORD FILLERS TO SPACES.                     *PPL610
044100*                                                                *PPL610
044200******************************************************************PPL610
044300 D0000-SET-DEFAULTS.                                              PPL610
044400     MOVE HOLD-YR                    TO T-REC-TAX-YR,             PPL610
044500                                        W-REC-PAYMENT-YR.         PPL610
044600     MOVE XTRC-EMPLOYER-FED-ID       TO T-REC-XMTR-EIN,           PPL610
044700                                        Q-REC-AGENT-EIN,          PPL610
044800                                        W-REC-AGENT-EIN.          PPL610
044700     MOVE XTRC-RETURN-NAME           TO T-REC-XMTR-NAME.          DU032
045000     MOVE XTRC-EMPLOYER-NAME         TO Q-REC-AGENT-NAME,         PPL610
045100                                        W-REC-AGENT-NAME.         PPL610
045000     MOVE XTRC-RETURN-ADDR           TO T-REC-XMTR-ADDRESS.       DU032
045300     MOVE XTRC-EMPLOYER-ADDRESS      TO Q-REC-AGENT-ADDRESS,      PPL610
045400                                        W-REC-AGENT-ADDRESS.      PPL610
045300     MOVE XTRC-RETURN-CITY           TO T-REC-XMTR-CITY.          DU032
045400     MOVE XTRC-EMPLOYER-CITY         TO Q-REC-AGENT-CITY,         DU032
045700                                        W-REC-AGENT-CITY.         PPL610
045600     MOVE XTRC-RETURN-STATE          TO T-REC-XMTR-STATE.         DU032
045700     MOVE XTRC-EMPLOYER-STATE        TO Q-REC-AGENT-STATE,        DU032
046000                                        W-REC-AGENT-STATE.        PPL610
045900     MOVE XTRC-RETURN-ZIP            TO T-REC-XMTR-ZIP.           DU032
046000     MOVE XTRC-EMPLOYER-ZIP          TO Q-REC-AGENT-ZIP,          DU032
046300                                        W-REC-AGENT-ZIP.          PPL610
046200     MOVE XTRC-RETURN-ZIP-PLUS4      TO EDIT-ZIP-PLUS4.           DU032
046800     IF EDITED-ZIP-PLUS4 = SPACES                                 DU032
046900        MOVE '0000'                  TO EDITED-ZIP-PLUS4.         DU032
046300     MOVE EDITED-ZIP-PLUS4           TO T-REC-XMTR-ZIP-PLUS4.     DU032
046400     MOVE XTRC-EMPLOYER-ZIP-PLUS4    TO EDIT-ZIP-PLUS4.           DU032
047200     IF EDITED-ZIP-PLUS4 = SPACES                                 DU032
047300        MOVE '0000'                  TO EDITED-ZIP-PLUS4.         DU032
046500     MOVE EDITED-ZIP-PLUS4           TO Q-REC-AGENT-ZIP-PLUS4,    DU032
046600                                        W-REC-AGENT-ZIP-PLUS4.    PPL610
046700     MOVE WS-T-REC-TYPE-CODE         TO T-REC-TYPE-CODE.          PPL610
046800     MOVE WS-Q-REC-TYPE-CODE         TO Q-REC-TYPE-CODE.          PPL610
046900     MOVE WS-W-REC-TYPE-CODE         TO W-REC-TYPE-CODE.          PPL610
047000     MOVE WS-Y-REC-TYPE-CODE         TO Y-REC-TYPE-CODE.          PPL610
047100     MOVE WS-T-REC-REEL-NO           TO T-REC-REEL-NO.            PPL610
047200     MOVE WS-T-REC-XMTR-CONTROL-CODE TO T-REC-XMTR-CONTROL-CODE.  DU032
047300     MOVE WS-Q-REC-RECIP-ACCT-TYPE   TO Q-REC-RECIP-ACCT-TYPE.    PPL610
047400     MOVE WS-Q-REC-RECIP-TYPE-CODE   TO Q-REC-RECIP-TYPE-CODE.    PPL610
047500     MOVE WS-Q-REC-RECIP-CORRECT-IND TO Q-REC-RECIP-CORRECT-IND.  PPL610
049900     MOVE WS-Q-REC-RECIP-AWAITING-W8-IND TO                       DU044
050000                                     Q-REC-RECIP-AWAITING-W8-IND. DU044
047800     MOVE WS-Y-REC-AGENT-COUNT       TO Y-REC-AGENT-COUNT.        PPL610
047900     MOVE WS-Y-REC-REEL-COUNT        TO Y-REC-REEL-COUNT.         PPL610
050300     MOVE 0.00                       TO                           DU044
050400                                  Q-REC-RECIP-STATE-TAX-WITHHELD. DU044
048000     MOVE SPACES                     TO T-REC-FILLER,             PPL610
048100                                        Q-REC-RECIP-PAYER-NAME,   PPL610
048200                                        Q-REC-RECIP-PAYER-EIN,    PPL610
048300                                        Q-REC-FILLER,             PPL610
048400                                        W-REC-FILLER,             PPL610
048500                                        Y-REC-FILLER.             PPL610
048600     SKIP2                                                        PPL610
048700 D0000-SET-DEFAULTS-X.                                            PPL610
048800     EXIT.                                                        PPL610
048900     EJECT                                                        PPL610
049000******************************************************************PPL610
049100*                                                                *PPL610
049200*       GENERATE TAPE FORMAT FILE.                               *PPL610
049300*                                                                *PPL610
049400******************************************************************PPL610
049500 F0000-GENERATE-TAPE-FILE.                                        PPL610
049600     MOVE TAPE-T-REC-WS        TO TAPE-OUTPUT-REC.                PPL610
049700     PERFORM W3000-WRITE-TAPE-OUTPUT THRU                         PPL610
049800             W3000-WRITE-TAPE-OUTPUT-X.                           PPL610
049900     PERFORM F1000-GENERATE-Q-TYPE-RECS THRU                      PPL610
050000             F1000-GENERATE-Q-TYPE-RECS-X                         PPL610
050100             UNTIL INPUT-AT-EOF.                                  PPL610
050200     MOVE IO-TAPE-Q-REC-COUNT  TO W-REC-Q-REC-COUNT.              PPL610
050300     MOVE WS-ACCUM-GROSS       TO W-REC-TOTAL-GROSS.              PPL610
050400     MOVE WS-ACCUM-TAX-WITHHELD                                   PPL610
050500                               TO W-REC-TOTAL-TAX-WITHHELD.       PPL610
050600     MOVE TAPE-W-REC-WS        TO TAPE-OUTPUT-REC.                PPL610
050700     PERFORM W3000-WRITE-TAPE-OUTPUT THRU                         PPL610
050800             W3000-WRITE-TAPE-OUTPUT-X.                           PPL610
050900     MOVE TAPE-Y-REC-WS        TO TAPE-OUTPUT-REC.                PPL610
051000     PERFORM W3000-WRITE-TAPE-OUTPUT THRU                         PPL610
051100             W3000-WRITE-TAPE-OUTPUT-X.                           PPL610
051200     SKIP2                                                        PPL610
051300 F0000-GENERATE-TAPE-FILE-X.                                      PPL610
051400     EXIT.                                                        PPL610
051500     EJECT                                                        PPL610
051600******************************************************************PPL610
051700*                                                                *PPL610
051800*       GENERATE OUTPUT Q-TYPE RECORDS FROM RECIPIENT            *PPL610
051900*       TRANSACTIONS.                                            *PPL610
052000*                                                                *PPL610
052100******************************************************************PPL610
052200 F1000-GENERATE-Q-TYPE-RECS.                                      PPL610
052300     PERFORM R0000-READ-RECIPIENT-INPUT THRU                      PPL610
052400             R0000-READ-RECIPIENT-INPUT-X.                        PPL610
052500     IF INPUT-AT-EOF                                              PPL610
052600        GO TO F1000-GENERATE-Q-TYPE-RECS-X.                       PPL610
052700     IF RECIP-DEL-FLAG = 'X'                                      PPL610
052800        ADD 1 TO IO-DELETED-REC-COUNT                             PPL610
052900        GO TO F1000-GENERATE-Q-TYPE-RECS-X.                       PPL610
053000     IF RECIP-TIN = SPACES                                        PPL610
053100        MOVE XTRC-EMPLOYER-FED-ID                                 PPL610
053200                               TO Q-REC-RECIP-TIN                 PPL610
053300     ELSE                                                         PPL610
053400        MOVE RECIP-TIN         TO Q-REC-RECIP-TIN.                PPL610
053500     MOVE RECIP-EMPNO          TO Q-REC-RECIP-EMP-NO.             PPL610
053600     MOVE RECIP-COUNTRY-CODE   TO Q-REC-RECIP-COUNTRY-CODE.       PPL610
053700     MOVE SPACES               TO EDIT-INPUT, EDIT-OUTPUT.        PPL610
053800     STRING RECIP-FIRST-NAME DELIMITED BY SIZE,                   PPL610
053900       ' *' RECIP-LAST-NAME  DELIMITED BY SIZE                    PPL610
054000                             INTO EDIT-INPUT.                     PPL610
054100     PERFORM G0000-EDIT-FIELD.                                    PPL610
054200     MOVE EDIT-OUTPUT          TO Q-REC-RECIP-1ST-NAME.           PPL610
054300     MOVE RECIP-2ND-NAME-LINE  TO Q-REC-RECIP-2ND-NAME.           PPL610
054400     MOVE RECIP-3RD-NAME-LINE  TO Q-REC-RECIP-3RD-NAME.           PPL610
054500     MOVE RECIP-ADDRESS        TO Q-REC-RECIP-ADDRESS.            PPL610
054600     MOVE RECIP-CITY           TO Q-REC-RECIP-CITY.               PPL610
054700     MOVE RECIP-PROVINCE       TO Q-REC-RECIP-PROVINCE.           PPL610
054800     MOVE RECIP-POSTAL-CODE    TO Q-REC-RECIP-POSTAL-CODE.        PPL610
054900     MOVE RECIP-STATE          TO Q-REC-RECIP-STATE.              PPL610
055000     MOVE RECIP-COUNTRY        TO Q-REC-RECIP-COUNTRY.            PPL610
055100     MOVE RECIP-INCOME-CODE    TO Q-REC-RECIP-INCOME-CODE.        PPL610
055200     MOVE RECIP-TYPE-CODE      TO Q-REC-RECIP-TYPE-CODE.          PPL610
055300     MOVE RECIP-GROSS          TO Q-REC-RECIP-GROSS.              PPL610
055400     MOVE RECIP-EXEMPT-CODE    TO Q-REC-RECIP-EXEMPT-CODE.        PPL610
055500     MOVE RECIP-TAX-RATE       TO Q-REC-RECIP-TAX-RATE.           PPL610
055600     MOVE RECIP-TAX-WITHHELD   TO Q-REC-RECIP-TAX-WITHHELD.       PPL610
055500     MOVE RECIP-STUDENT-WITHHOLD-ALLOW TO                         DU032
055600                              Q-REC-RECIP-STUDENT-WHLD-ALLOW.     DU032
055900     IF RECIP-INCOME-CODE = 15                                    DU032
056000        COMPUTE Q-REC-RECIP-STUDENT-NET-INCOME =                  DU032
055900           RECIP-GROSS - RECIP-STUDENT-WITHHOLD-ALLOW             DU032
056200        ADD Q-REC-RECIP-STUDENT-NET-INCOME TO                     DU032
056300           WS-ACCUM-STUDENT-NET-INCOME                            DU032
056200        ADD Q-REC-RECIP-STUDENT-WHLD-ALLOW TO                     DU032
056300           WS-ACCUM-STUDENT-WHLD-ALLOW                            DU032
056600        ADD RECIP-GROSS TO WS-ACCUM-STUDENT-GROSS                 DU032
056700        ADD 1 TO IO-STUDENT-REC-COUNT                             DU032
056800     ELSE                                                         DU032
056900        MOVE 0.00 TO Q-REC-RECIP-STUDENT-NET-INCOME.              DU032
057000     MOVE TAPE-Q-REC-WS        TO TAPE-OUTPUT-REC.                PPL610
057100     PERFORM W3000-WRITE-TAPE-OUTPUT THRU                         PPL610
057200             W3000-WRITE-TAPE-OUTPUT-X.                           PPL610
057300     ADD  1                    TO IO-TAPE-Q-REC-COUNT.            PPL610
057400     ADD  RECIP-GROSS          TO WS-ACCUM-GROSS.                 PPL610
057500     ADD  RECIP-TAX-WITHHELD   TO WS-ACCUM-TAX-WITHHELD.          PPL610
057600     SKIP2                                                        PPL610
057700 F1000-GENERATE-Q-TYPE-RECS-X.                                    PPL610
057800     EXIT.                                                        PPL610
057900     EJECT                                                        PPL610
058000******************************************************************PPL610
058100*                                                                *PPL610
058200*       EMBEDDED NON-VALID CHARACTERS ARE CONVERTED TO           *PPL610
058300*       BLANKS.  EMBEDDED EXTRANEOUS BLANKS ARE THEN ELIMINATED. *PPL610
058400*                                                                *PPL610
058500******************************************************************PPL610
059500******************************************************************DS413
059600*                                                                *DS413
059700*       EMBEDDED EXTRANEOUS BLANKS ARE NOT BEING EDITED PROPERLY *DS413
059800*       AT THIS TIME (3-12-90) AND THERE IS NOT ENOUGH TIME TO   *DS413
059900*       TROUBLESHOOT AND STILL MAKE TAPE PRODUCTION DEADLINE OF  *DS413
060000*       3-15-90.                                                 *DS413
060100*                                                                *DS413
060200******************************************************************DS413
058600 G0000-EDIT-FIELD.                                                PPL610
058700     MOVE EDIT-CHAR1-INIT TO EDIT-CHAR1-SUB.                      PPL610
058800     PERFORM G1000-REPLACE-INVALID-CHAR                           PPL610
058900        UNTIL EDIT-CHAR1-SUB > EDIT-CHAR-MAX.                     PPL610
059000     MOVE EDIT-CHAR1-INIT TO EDIT-CHAR1-SUB,                      PPL610
059100                             EDIT-CHAR-OUTPUT-SUB.                PPL610
059200     MOVE EDIT-CHAR2-INIT TO EDIT-CHAR2-SUB.                      PPL610
059300     MOVE SPACES TO EDIT-OUTPUT.                                  PPL610
059400     MOVE 0 TO FIRST-CHAR-FOUND-FLAG.                             PPL610
059500     PERFORM G2000-EDIT-CHARACTERS                                PPL610
059600        UNTIL EDIT-CHAR1-SUB > EDIT-CHAR-MAX.                     PPL610
059700     SKIP2                                                        PPL610
059800 G1000-REPLACE-INVALID-CHAR.                                      PPL610
059900     IF EDIT-INPUT-CHAR (EDIT-CHAR1-SUB) NOT ALPHABETIC AND       PPL610
060000        EDIT-INPUT-CHAR (EDIT-CHAR1-SUB) NOT NUMERIC    AND       PPL610
060100        NOT EDIT-VALID-INPUT-CHAR     (EDIT-CHAR1-SUB)            PPL610
060200        MOVE SPACE TO EDIT-INPUT-CHAR (EDIT-CHAR1-SUB).           PPL610
060300     ADD 1 TO EDIT-CHAR1-SUB.                                     PPL610
060400     SKIP2                                                        PPL610
060500 G2000-EDIT-CHARACTERS.                                           PPL610
060600     IF EDIT-INPUT-CHAR (EDIT-CHAR1-SUB) NOT = SPACE              PPL610
060700        MOVE 1 TO FIRST-CHAR-FOUND-FLAG.                          PPL610
060800     IF NOT FIRST-CHAR-FOUND                                      PPL610
060900        NEXT SENTENCE                                             PPL610
061000     ELSE                                                         PPL610
061100        IF EDIT-INPUT-CHAR (EDIT-CHAR1-SUB) NOT = SPACE OR        PPL610
061200           EDIT-INPUT-CHAR (EDIT-CHAR2-SUB) NOT = SPACE           PPL610
061300           MOVE EDIT-INPUT-CHAR  (EDIT-CHAR1-SUB) TO              PPL610
061400                EDIT-OUTPUT-CHAR (EDIT-CHAR-OUTPUT-SUB)           PPL610
061500           ADD 1 TO EDIT-CHAR-OUTPUT-SUB.                         PPL610
061600     ADD 1 TO EDIT-CHAR1-SUB,                                     PPL610
061700              EDIT-CHAR2-SUB.                                     PPL610
061800     EJECT                                                        PPL610
061900******************************************************************PPL610
062000*                                                                *PPL610
062100*    READ ROUTINES                                               *PPL610
062200*                                                                *PPL610
062300******************************************************************PPL610
062400 R0000-READ-RECIPIENT-INPUT.                                      PPL610
062500     READ RECIPIENT-INPUT-FILE INTO RECIP-INPUT-WS                PPL610
062600         AT END                                                   PPL610
062700             MOVE 1 TO EOF-INPUT-FLAG                             PPL610
062800             GO TO R0000-READ-RECIPIENT-INPUT-X.                  PPL610
062900     ADD 1 TO IO-INPUT-REC-COUNT.                                 PPL610
063000     SKIP2                                                        PPL610
063100 R0000-READ-RECIPIENT-INPUT-X.                                    PPL610
063200     EXIT.                                                        PPL610
063300     SKIP2                                                        PPL610
063400 R3000-READ-SPEC-CARD.                                            PPL610
063500     READ CARD-IN INTO XSCP-SPEC-CARD-REC                         PPL610
063600         AT END                                                   PPL610
063700             MOVE 1 TO EOF-CARD-FLAG.                             PPL610
063800     SKIP2                                                        PPL610
063900 R3000-READ-SPEC-CARD-X.                                          PPL610
064000     EXIT.                                                        PPL610
064100     SKIP2                                                        PPL610
064200******************************************************************PPL610
064300*                                                                *PPL610
064400*    WRITE TAPE FORMAT FILE RECORD.                              *PPL610
064500*                                                                *PPL610
064600******************************************************************PPL610
064700 W3000-WRITE-TAPE-OUTPUT.                                         PPL610
064800     WRITE TAPE-OUTPUT-REC.                                       PPL610
064900     ADD 1 TO IO-TAPE-REC-COUNT.                                  PPL610
065000     SKIP2                                                        PPL610
065100 W3000-WRITE-TAPE-OUTPUT-X.                                       PPL610
065200     EXIT.                                                        PPL610
065300     SKIP2                                                        PPL610
065400******************************************************************PPL610
065500*                                                                *PPL610
065600*    CLOSE FILES AND STOP RUN.                                   *PPL610
065700*                                                                *PPL610
065800******************************************************************PPL610
065900     EJECT                                                        PPL610
066000 Z0000-END-OF-JOB.                                                PPL610
066100     CLOSE RECIPIENT-INPUT-FILE                                   PPL610
066200           CARD-IN                                                PPL610
066300           TAPE-OUTPUT-FILE.                                      PPL610
066400     IF NOT ABORTING-PGM                                          PPL610
066500        DISPLAY 'PPL610 TOTAL AMOUNTS :'                          PPL610
066600        MOVE WS-ACCUM-GROSS         TO FORMAT-GROSS               PPL610
066700        MOVE WS-ACCUM-TAX-WITHHELD  TO FORMAT-TAX-WITHHELD        PPL610
066800        MOVE WS-ACCUM-STUDENT-GROSS TO FORMAT-STUDENT-GROSS       DU032
066700        MOVE WS-ACCUM-STUDENT-WHLD-ALLOW TO                       DU032
066800           FORMAT-STUDENT-WHLD-ALLOW                              DU032
067100        MOVE WS-ACCUM-STUDENT-NET-INCOME TO                       DU032
067200           FORMAT-STUDENT-NET-INCOME                              DU032
067300        DISPLAY 'TOTAL GROSS ------------------- ',               PPL610
067400           FORMAT-GROSS                                           PPL610
067500        DISPLAY 'TOTAL TAX WITHHELD ------------ ',               PPL610
067600           FORMAT-TAX-WITHHELD                                    PPL610
067700        DISPLAY 'TOTAL STUDENT GROSS------------ ',               DU032
067800           FORMAT-STUDENT-GROSS                                   DU032
067900        DISPLAY 'TOTAL STUDENT WITHHOLD ALLOW -- ',               DU032
067800           FORMAT-STUDENT-WHLD-ALLOW                              DU032
068100        DISPLAY 'TOTAL STUDENT NET INCOME ------ ',               DU032
068200           FORMAT-STUDENT-NET-INCOME                              DU032
068300        PERFORM PRINT-CONTROL-REPORT.                             PPL610
068400     SKIP2                                                        PPL610
068500 Z0000-END-OF-JOB-X.                                              PPL610
068600     EXIT.                                                        PPL610
068700     EJECT                                                        PPL610
068800*                                                                 PPL610
068900*      CONTROL REPORT 'PPL610CR'                                  PPL610
069000*                                                                 PPL610
069100*                                                                 PPL610
069200 PRINT-CONTROL-REPORT.                                            PPL610
069300     SKIP2                                                        PPL610
069400     OPEN OUTPUT CONTROLREPORT.                                   PPL610
069500     MOVE 'PPL610CR'             TO CR-HL1-RPT.                   PPL610
069600     MOVE CR-HDG-LINE1           TO CONTROL-DATA.                 PPL610
069700     WRITE CONTROLRECORD AFTER ADVANCING PAGE.                    PPL610
069800     MOVE CR-HDG-LINE2           TO CONTROL-DATA.                 PPL610
069900     WRITE CONTROLRECORD AFTER ADVANCING 1 LINES.                 PPL610
070000     MOVE WHEN-COMPILED          TO COMPILE-TIME-AND-DATE.        PPL610
070100     MOVE COMPILE-TIME           TO CR-HL3-CMP-TIME.              PPL610
070200     MOVE COMPILE-DATE           TO CR-HL3-CMP-DATE.              PPL610
070300     MOVE CR-HDG-LINE3           TO CONTROL-DATA.                 PPL610
070400     WRITE CONTROLRECORD AFTER ADVANCING 2 LINES.                 PPL610
070500     MOVE CR-HDG-LINE4           TO CONTROL-DATA.                 PPL610
070600     WRITE CONTROLRECORD AFTER ADVANCING 3 LINES.                 PPL610
070700     MOVE XSCP-SPEC-CARD-REC     TO CR-DL5-CTL-CARD.              PPL610
070800     MOVE CR-DET-LINE5           TO CONTROL-DATA.                 PPL610
070900     WRITE CONTROLRECORD AFTER ADVANCING 2 LINES.                 PPL610
071000     MOVE CR-HDG-LINE6           TO CONTROL-DATA.                 PPL610
071100     WRITE CONTROLRECORD AFTER ADVANCING 3 LINES.                 PPL610
071200     ACCEPT TIME-WORK-AREA FROM TIME.                             DS413
071300     MOVE CORR TIME-WORK-AREA    TO TIME-WORK-AREA-SPLIT.         PPL610
071400     MOVE TIME-WORK-AREA-SPLIT   TO CR-DL7-CTL-TIME.              PPL610
071500     MOVE CR-DET-LINE7           TO CONTROL-DATA.                 PPL610
071600     WRITE CONTROLRECORD AFTER ADVANCING 2 LINES.                 PPL610
071700     MOVE CR-HDG-LINE8           TO CONTROL-DATA.                 PPL610
071800     WRITE CONTROLRECORD AFTER ADVANCING 3 LINES.                 PPL610
071900*                                                                 PPL610
072000*  FOLLOWING CODE MUST BE DUPLICATED FOR EVERY FILE               PPL610
072100*                                                                 PPL610
072200*  FILE NAME, ACTION (SO-CREATED OR SO-READ), AND                 PPL610
072300*  THE ACTUAL RECORD COUNTER MUST BE FILLED IN                    PPL610
072400*                                                                 PPL610
072500     MOVE 'RECIPIENT INPUT'      TO CR-DL9-FILE.                  PPL610
072600     MOVE SO-READ                TO CR-DL9-ACTION.                PPL610
072700     MOVE IO-INPUT-REC-COUNT     TO CR-DL9-VALUE.                 PPL610
072800     MOVE CR-DET-LINE9           TO CONTROL-DATA.                 PPL610
072900     WRITE CONTROLRECORD AFTER ADVANCING 2 LINES.                 PPL610
073000     MOVE SPACES                 TO CR-DL9-FILE.                  PPL610
073100     MOVE 'DELETED'              TO CR-DL9-ACTION.                PPL610
073200     MOVE IO-DELETED-REC-COUNT   TO CR-DL9-VALUE.                 PPL610
073300     MOVE CR-DET-LINE9           TO CONTROL-DATA.                 PPL610
073400     WRITE CONTROLRECORD AFTER ADVANCING 2 LINES.                 PPL610
073500     MOVE 'TAPE FORMAT FILE'     TO CR-DL9-FILE.                  PPL610
073600     MOVE SO-CREATED             TO CR-DL9-ACTION.                PPL610
073700     MOVE IO-TAPE-REC-COUNT      TO CR-DL9-VALUE.                 PPL610
073800     MOVE CR-DET-LINE9           TO CONTROL-DATA.                 PPL610
073900     WRITE CONTROLRECORD AFTER ADVANCING 2 LINES.                 PPL610
074000     MOVE '   RECIPIENT OUT'     TO CR-DL9-FILE.                  PPL610
074100     MOVE SO-CREATED             TO CR-DL9-ACTION.                PPL610
074200     MOVE IO-TAPE-Q-REC-COUNT    TO CR-DL9-VALUE.                 PPL610
074300     MOVE CR-DET-LINE9           TO CONTROL-DATA.                 PPL610
074400     WRITE CONTROLRECORD AFTER ADVANCING 2 LINES.                 PPL610
074500     MOVE END-OF-REPORT-MSG      TO CONTROL-DATA.                 PPL610
074600     WRITE CONTROLRECORD AFTER ADVANCING 4 LINES.                 PPL610
074700     CLOSE CONTROLREPORT.                                         PPL610
