000100*==========================================================%      UCSD9999
000200*= UCSD LOCAL CHANGES HAVE BEEN IMPLEMENTED.              =%      UCSD9999
000300*= COLUMN 73 THRU 80 DENOTES CHANGE NUMBER - UCSD9999     =%      UCSD9999
000400*=                                                        =%      UCSD9999
000500*==========================================================%      UCSD9999
000600*==========================================================%      DS413
000700*=    PROGRAM: PPLELMEX                                   =%      DS413
000800*=    CHANGE # DS413        PROJ. REQUEST: COBOL II       =%      DS413
000900*=    NAME:JIM PIERCE       MODIFICATION DATE: 7/31/89    =%      DS413
001000*=                                                        =%      DS413
001100*=    DESCRIPTION: PROGRAM WAS MODIFIED FOR CONVERSION    =%      DS413
001200*=    TO COBOL II                                         =%      DS413
001300*==========================================================%      DS413
001400 IDENTIFICATION DIVISION.                                         PPLELMEX
001500 PROGRAM-ID.    PPLELMEX.                                         PPLELMEX
001600 AUTHOR.        JIM PIERCE.                                       PPLELMEX
001700 DATE-WRITTEN.  JUNE 7, 1987.                                     PPLELMEX
001800 DATE-COMPILED.                                                   PPLELMEX
001900 SKIP2                                                            PPLELMEX
002000 ENVIRONMENT DIVISION.                                            PPLELMEX
002100 CONFIGURATION SECTION.                                           PPLELMEX
002200 SKIP2                                                            PPLELMEX
002300 SOURCE-COMPUTER. COPY CPOTXISI.                                  PPLELMEX
002400 OBJECT-COMPUTER. COPY CPOTXOBJ.                                  PPLELMEX
002500 EJECT                                                            PPLELMEX
002600 DATA DIVISION.                                                   PPLELMEX
002700 WORKING-STORAGE SECTION.                                         PPLELMEX
002800 SKIP2                                                            PPLELMEX
002900 77  ABC                         PIC  X(10).                      PPLELMEX
003000 77  DEF                         PIC  X(10).                      PPLELMEX
003100 77  GHI                         PIC  X(10).                      PPLELMEX
003200 77  XXX                         PIC  9(3).                       PPLELMEX
003300 77  X                           PIC S9(4)  COMP.                 PPLELMEX
003400 77  Y                           PIC S9(4)  COMP.                 PPLELMEX
003500 SKIP2                                                            PPLELMEX
003600 77  DEC-POS                     PIC S9(3)  COMP   VALUE ZERO.    PPLELMEX
003700 SKIP2                                                            PPLELMEX
003800 77  PPIOCTL-ERROR-FOUND-FLAG    PIC S9(1) COMP    VALUE ZERO.    PPLELMEX
003900     88  PPIOCTL-ERROR-FOUND                       VALUE +1.      PPLELMEX
004000 77  EDIT-ERROR-FLAG             PIC S9(1) COMP    VALUE ZERO.    PPLELMEX
004100     88  EDIT-ERROR-FOUND                          VALUE +1.      PPLELMEX
004200 77  LOC-FOUND-FLAG              PIC S9(1) COMP    VALUE ZERO.    PPLELMEX
004300     88  LOC-FOUND                                 VALUE +1.      PPLELMEX
004400 77  GTN-TABLE-BUILT-FLAG        PIC S9(1)  COMP   VALUE ZERO.    PPLELMEX
004500     88  GTN-TABLE-BUILT                           VALUE +1.      PPLELMEX
004600 77  GTN-TABLE-ERROR-FLAG        PIC S9(1) COMP    VALUE ZERO.    PPLELMEX
004700     88  GTN-TABLE-ERROR                           VALUE +1.      PPLELMEX
004800 77  APPT-TABLE-BUILT-FLAG       PIC S9(1) COMP    VALUE ZERO.    PPLELMEX
004900     88  APPT-TABLE-BUILT                          VALUE +1.      PPLELMEX
005000 77  SORT-ACTIVE-FLAG            PIC S9(1) COMP    VALUE ZERO.    PPLELMEX
005100     88  SORT-ACTIVE                               VALUE +1.      PPLELMEX
005200 SKIP2                                                            PPLELMEX
005300 77  INIT-ELEM-RETR-DET-OUTPUT   PIC  X(46)        VALUE          PPLELMEX
005400     '000000000000002C                             '.             PPLELMEX
005500 77  INIT-ELEM-RETR-GTN-OUTPUT   PIC  X(46)        VALUE          PPLELMEX
005600     '000000000407021P0000000                      '.             PPLELMEX
005700 EJECT                                                            PPLELMEX
005800*01  PAYROLL-PROCESS-INST-CONST-2     COPY CPWSXIC2.              PPLELMEX
005900*                                     COPY CPWSXIC2.              DS413
006000 01  PAYROLL-PROCESS-INST-CONST-2.    COPY CPWSXIC2.              DS413
006100 EJECT                                                            PPLELMEX
006200*01  IO-FUNCTIONS                     COPY CPWSXIOF.              PPLELMEX
006300*                                     COPY CPWSXIOF.              DS413
006400 01  IO-FUNCTIONS.                    COPY CPWSXIOF.              DS413
006500 EJECT                                                            PPLELMEX
006600*01  XCFK-CONTROL-FILE-KEYS           COPY CPWSXCFK.              PPLELMEX
006700*                                     COPY CPWSXCFK.              DS413
006800 01  XCFK-CONTROL-FILE-KEYS.          COPY CPWSXCFK.              DS413
006900 EJECT                                                            PPLELMEX
007000*01  CTL-INTERFACE                    COPY CPWSXCIF.              PPLELMEX
007100*                                     COPY CPWSXCIF.              DS413
007200 01  CTL-INTERFACE.                   COPY CPWSXCIF.              DS413
007300 SKIP3                                                            PPLELMEX
007400*01  CTL-SEGMENT-TABLE                COPY CPWSXCST.              PPLELMEX
007500*                                     COPY CPWSXCST.              DS413
007600 01  CTL-SEGMENT-TABLE.               COPY CPWSXCST.              DS413
007700 EJECT                                                            PPLELMEX
007800*01  PBP3N-DATA-ELEMENT-SEGMENT       COPY CPWSXDET.              PPLELMEX
007900*                                     COPY CPWSXDET.              DS413
008000 01  PBP3N-DATA-ELEMENT-SEGMENT.      COPY CPWSXDET.              DS413
008100 EJECT                                                            PPLELMEX
008200*01  FUNCTION-UTILITY                 COPY CPWSXFUT.              PPLELMEX
008300*                                     COPY CPWSXFUT.              DS413
008400 01  FUNCTION-UTILITY.                COPY CPWSXFUT.              DS413
008500 EJECT                                                            PPLELMEX
008600*01  XDBS-GROSS-TO-NET-DATA60         COPY CPWSDB60.              PPLELMEX
008700*                                     COPY CPWSDB60.              DS413
008800 01  XDBS-GROSS-TO-NET-DATA60.        COPY CPWSDB60.              DS413
008900 EJECT                                                            PPLELMEX
009000*01  DEDUCTION-SEGMENT-ARRAY          COPY CPWSXDSA.              PPLELMEX
009100*                                     COPY CPWSXDSA.              DS413
009200 01  DEDUCTION-SEGMENT-ARRAY.         COPY CPWSXDSA.              DS413
009300 EJECT                                                            PPLELMEX
009400 01  DISPLAY-WORK-AREA.                                           PPLELMEX
009500******************************************************************PPLELMEX
009600*    *   THIS AREA IS USED BY THE DISPLAY-CONVERSION-4000 ROUTINE PPLELMEX
009700*    *   THE ROUTINE RETURNS DISPLAY-CONTENT AND DISPLAY-NUMERIC  PPLELMEX
009800*    *   AS A RESULT OF A TABLE DRIVEN CONVERSION AND MOVE FROM   PPLELMEX
009900*    *   THE RECORD-ARRAY-AREA.  IF THE FIELD IS NUMERIC AND      PPLELMEX
010000*    *   CONTAINS NON-NUMERIC DATA DISPLAY-CONTENT WILL CONTAIN   PPLELMEX
010100*    *   '***  DATA EXCEPTION  ***' AND DISPLAY-NUMERIC = 9'S     PPLELMEX
010200******************************************************************PPLELMEX
010300     03  DISPLAY-CONTENT         PIC  X(30).                      PPLELMEX
010400     03  DISPLAY-CHAR       REDEFINES DISPLAY-CONTENT             PPLELMEX
010500                                 PIC  X      OCCURS 30 TIMES.     PPLELMEX
010600     03  FILLER                  PIC  X(30)         VALUE SPACES. PPLELMEX
010700     03  DISPLAY-NUMERIC         PIC S9(15)         VALUE ZERO.   PPLELMEX
010800     03  DISPLAY-DEF  REDEFINES  DISPLAY-NUMERIC.                 PPLELMEX
010900         05  DISPLAY-NUM-CHAR    PIC  X      OCCURS 15 TIMES.     PPLELMEX
011000     03  FILLER                  PIC  X(30).                      PPLELMEX
011100     03  DSPLY-CONVERT           PIC  9(15).                      PPLELMEX
011200     03  DSPLY-DEF  REDEFINES  DSPLY-CONVERT.                     PPLELMEX
011300         05  DSPLY-CHAR          PIC  X      OCCURS 15 TIMES.     PPLELMEX
011400     03  FILLER                  PIC  X(15).                      PPLELMEX
011500     03  SIGN-CHAR               PIC  X             VALUE SPACES. PPLELMEX
011600     03  EXTERNAL-LENGTH         PIC S9(3)   COMP   VALUE ZERO.   PPLELMEX
011700     03  START-POS               PIC S9(3)   COMP   VALUE ZERO.   PPLELMEX
011800     03  C-SUB                   PIC S9(3)   COMP   VALUE ZERO.   PPLELMEX
011900     03  D-SUB                   PIC S9(3)   COMP   VALUE ZERO.   PPLELMEX
012000     03  E-SUB                   PIC S9(3)   COMP   VALUE ZERO.   PPLELMEX
012100     03  F-SUB                   PIC S9(3)   COMP   VALUE ZERO.   PPLELMEX
012200 SKIP1                                                            PPLELMEX
012300 01  REDEFINING-WORK-AREA.                                        PPLELMEX
012400     03  WORK-FIELDS             PIC  X(30).                      PPLELMEX
012500     03  PACK-FIELD-WORK REDEFINES WORK-FIELDS.                   PPLELMEX
012600         05  FLD-TO-BE-PACKED-X.                                  PPLELMEX
012700             07  DIGIT-TO-BE-PACKED                               PPLELMEX
012800                                 PIC  X      OCCURS 15.           PPLELMEX
012900         05  FLD-TO-BE-PACKED-N REDEFINES                         PPLELMEX
013000             FLD-TO-BE-PACKED-X  PIC S9(15).                      PPLELMEX
013100         05  PACKED-FLD-N        PIC S9(15)  COMP-3.              PPLELMEX
013200         05  PACKED-FLD-S REDEFINES                               PPLELMEX
013300             PACKED-FLD-N        PIC  9(15)  COMP-3.              PPLELMEX
013400         05  PACKED-DIGIT REDEFINES                               PPLELMEX
013500             PACKED-FLD-S        PIC  X      OCCURS 8.            PPLELMEX
013600     03  SS-WORK REDEFINES WORK-FIELDS.                           PPLELMEX
013700         05  SSW.                                                 PPLELMEX
013800             07  SS1             PIC  9(3).                       PPLELMEX
013900             07  SS2             PIC  9(2).                       PPLELMEX
014000             07  SS3             PIC  9(4).                       PPLELMEX
014100         05  FILLER              PIC  X(21).                      PPLELMEX
014200 EJECT                                                            PPLELMEX
014300 01  GTN-WORK-AREA.                                               PPLELMEX
014400     03  DED-PACKED              PIC S9(7)V99 COMP-3.             PPLELMEX
014500     03  DED-PACKED-ALPHA  REDEFINES                              PPLELMEX
014600         DED-PACKED              PIC  X(5).                       PPLELMEX
014700     03  GTN-PACKED-REDEF  REDEFINES                              PPLELMEX
014800         DED-PACKED-ALPHA.                                        PPLELMEX
014900         05  FILLER              PIC  X.                          PPLELMEX
015000         05  GTN-PACKED          PIC S9(5)V99 COMP-3.             PPLELMEX
015100     03  GTN-UNPACKED-VALUE.                                      PPLELMEX
015200         05  GTN-UNPACKED        PIC S9(5)V99.                    PPLELMEX
015300         05  FILLER              PIC  X(23)         VALUE SPACES. PPLELMEX
015400     03  GTN-UNPACKED-EDITED-VALUE.                               PPLELMEX
015500         05  GTN-UNPACKED-EDITED PIC  Z(5).99-.                   PPLELMEX
015600         05  FILLER              PIC  X(21)         VALUE SPACES. PPLELMEX
015700     03  GTN-UNPACKED-LENGTH     PIC  99            VALUE 7.      PPLELMEX
015800     03  GTN-UNPACKED-EDITED-LENGTH                               PPLELMEX
015900                                 PIC  99            VALUE 9.      PPLELMEX
016000 SKIP2                                                            PPLELMEX
016100 01  FALSE-VAR-WORK-AREA.                                         PPLELMEX
016200     03  HIGHEST-FALSE-VAR       PIC  X(4)          VALUE '9001'. PPLELMEX
016300     03  CASE-NUMBER             PIC  9(4)   COMP.                PPLELMEX
016400 EJECT                                                            PPLELMEX
016500*01  DATE-EDIT                        COPY CPWSXMDY.              DS413
016600 01  DATE-EDIT.                       COPY CPWSXMDY.              DS413
016700 SKIP2                                                            PPLELMEX
016800 01  TODAYS-DATE.                                                 PPLELMEX
016900     03  TODAYS-YR               PIC  9(02).                      PPLELMEX
017000     03  TODAYS-MO               PIC  9(02).                      PPLELMEX
017100     03  TODAYS-DA               PIC  9(02).                      PPLELMEX
017200 SKIP2                                                            PPLELMEX
017300 01  RECORD-ARRAY-CONTROLS.                                       PPLELMEX
017400     03  RECORD-LIMIT            PIC S9(2)   COMP   VALUE +50.    PPLELMEX
017500     03  CHARS-LIMIT             PIC S9(3)   COMP   VALUE +276.   PPLELMEX
017600 EJECT                                                            PPLELMEX
017700 01  APPT-DIST-RANKING.                                           PPLELMEX
017800     03  HOLD-APPT-DIST-RANK     PIC  X(58).                      PPLELMEX
017900     03  HOLD-TITLE-CODE         PIC  9(4).                       PPLELMEX
018000         88  EXEC-TITLE              VALUE     1 THRU  799.       PPLELMEX
018100         88  ACAD-TITLE              VALUE   800 THRU 1599,       PPLELMEX
018200                                            1700 THRU 3569,       PPLELMEX
018300                                            3580 THRU 3999.       PPLELMEX
018400         88  STAFF-TITLE             VALUE  4000 THRU 9999.       PPLELMEX
018500     03  HOLD-APPT-NO            PIC S9(4)   COMP.                PPLELMEX
018600     03  APPT-SEG-SUB            PIC S9(4)   COMP.                PPLELMEX
018700         88  APPT-SEG                VALUE  +1,  +4,  +7, +10,    PPLELMEX
018800                                           +13, +16, +19, +22,    PPLELMEX
018900                                           +25.                   PPLELMEX
019000         88  DIST-SEG                VALUE  +2,  +3,  +5,  +6,    PPLELMEX
019100                                            +8,  +9, +11, +12,    PPLELMEX
019200                                           +14, +15, +17, +18,    PPLELMEX
019300                                           +20, +21, +23, +24,    PPLELMEX
019400                                           +26, +27.              PPLELMEX
019500     03  APPT-DIST-SUB           PIC S9(4)   COMP.                PPLELMEX
019600     03  APPT-RANK-MAX           PIC S9(4)   COMP.                PPLELMEX
019700     03  APPT-RANK-LIMIT         PIC S9(4)   COMP   VALUE +72.    PPLELMEX
019800     03  APPT-DIST-RANK-TABLE    OCCURS 72 TIMES                  PPLELMEX
019900                                 INDEXED BY APPT-RANK-INX.        PPLELMEX
020000         05  APPT-DIST-RANK.                                      PPLELMEX
020100             07  APPT-RANK.                                       PPLELMEX
020200                 09  APPT-RANK-DATE-LEVEL  PIC  9(1).             PPLELMEX
020300                 09  APPT-RANK-END-DATE    PIC  9(6).             PPLELMEX
020400                 09  APPT-RANK-BEGIN-DATE  PIC  9(6).             PPLELMEX
020500                 09  APPT-RANK-TITLE-LEVEL PIC  9(1).             PPLELMEX
020600                 09  APPT-RANK-FTE         PIC  9(1)V9(2).        PPLELMEX
020700                 09  APPT-RANK-TITLE-COMP  PIC  9(4).             PPLELMEX
020800                 09  APPT-RANK-NO-COMP     PIC  9(1).             PPLELMEX
020900             07  DIST-RANK.                                       PPLELMEX
021000                 09  DIST-RANK-DATE-LEVEL  PIC  9(1).             PPLELMEX
021100                 09  DIST-RANK-END-DATE    PIC  9(6).             PPLELMEX
021200                 09  DIST-RANK-BEGIN-DATE  PIC  9(6).             PPLELMEX
021300                 09  DIST-RANK-DOS-LEVEL   PIC  9(1).             PPLELMEX
021400                 09  DIST-RANK-FTE         PIC  9(1)V9(2).        PPLELMEX
021500                 09  DIST-RANK-RATE        PIC  9(5)V9(2).        PPLELMEX
021600                 09  DIST-RANK-NO-COMP     PIC  9(1).             PPLELMEX
021700         05  APPT-DIST-RANK-LOCATION.                             PPLELMEX
021800             07  APPT-RANK-LOCATION.                              PPLELMEX
021900                 09  APPT-RANK-SEG         PIC  9(2).             PPLELMEX
022000                 09  APPT-RANK-NO          PIC  9(2).             PPLELMEX
022100             07  DIST-RANK-LOCATION.                              PPLELMEX
022200                 09  DIST-RANK-SEG         PIC  9(2).             PPLELMEX
022300                 09  DIST-RANK-NO          PIC  9(2).             PPLELMEX
022400         05  DIST-RANK-DOS                 PIC  X(3).             PPLELMEX
022500 EJECT                                                            PPLELMEX
022600 LINKAGE SECTION.                                                 PPLELMEX
022700 SKIP2                                                            PPLELMEX
022800*01  EDB-SEGMENT-TABLE                     COPY CPWSXEST.         PPLELMEX
022900*                                          COPY CPWSXEST.         PPLELMEX
023000 01  RECORD-ARRAY-AREA.                                           PPLELMEX
023100******************************************************************PPLELMEX
023200*    *   THIS AREA IS USED TO STORE ALL SEGMENTS READ FOR ANY     PPLELMEX
023300*    *   EMPLOYEE IN ASCENDING ORDER.  CURRENTLY THERE MAY BE UP  PPLELMEX
023400*    *   TO 50 SEGMENTS AND THE RECORD IS ASSUMED TO BE A 290     PPLELMEX
023500*    *   BYTE RECORD WITH A KEY AREA AS PICTURED (SEE LIMIT VALUE)PPLELMEX
023600******************************************************************PPLELMEX
023700     03  RECORD-AREA            OCCURS 50 TIMES                   PPLELMEX
023800                                INDEXED BY RECORD-AREA-INX.       PPLELMEX
023900         05  RECORD-AREA-DATA.                                    PPLELMEX
024000             07  RECORD-KEYS.                                     PPLELMEX
024100                 09  RECORD-DELETE   PIC  X.                      PPLELMEX
024200                 09  RECORD-SS-NO    PIC  X(9).                   PPLELMEX
024300                 09  RECORD-SEG-NO.                               PPLELMEX
024400                     11  RECORD-SEG  PIC  X(2).                   PPLELMEX
024500                     11 RECORD-SER   PIC  X(2).                   PPLELMEX
024600                 09  RECORD-SEQ-NO-REDEFINED REDEFINES            PPLELMEX
024700                     RECORD-SEG-NO.                               PPLELMEX
024800                     11 RECORD-SEG-NUMERIC                        PPLELMEX
024900                                     PIC  9(2).                   PPLELMEX
025000                     11 FILLER       PIC  X(2).                   PPLELMEX
025100             07  RECORD-DATA.                                     PPLELMEX
025200                 09  RECORD-CHARS    PIC  X                       PPLELMEX
025300                                     OCCURS 276 TIMES             PPLELMEX
025400                                     INDEXED BY RECORD-CHARS-INX. PPLELMEX
025500*01  XEDB-SEGMENT-AREA   REDEFINES   RECORD-ARRAY-AREA            DS413
025600 01  XEDB-SEGMENT-AREA   REDEFINES   RECORD-ARRAY-AREA.           DS413
025700                                           COPY CPWSXEDB.         PPLELMEX
025800*01  ELEM-INTERFACE-AREA                   COPY CLWSELEM.         DS413
025900 01  ELEM-INTERFACE-AREA.                  COPY CLWSELEM.         DS413
026000 EJECT                                                            PPLELMEX
026100 PROCEDURE DIVISION USING  RECORD-ARRAY-AREA                      PPLELMEX
026200                           ELEM-INTERFACE-AREA.                   PPLELMEX
026300******************************************************************PPLELMEX
026400******************************************************************PPLELMEX
026500 A000-MAIN-ENTRY.                                                 PPLELMEX
026600     MOVE ZEROS TO ELEM-RETR-ERROR-CODE,                          PPLELMEX
026700                   ELEM-RETR-IO-ERROR-CODE.                       PPLELMEX
026800*    MOVE CURRENT-DATE TO XMDY-MM-DD-YY.                          PPLELMEX
026900*    MOVE CORRESPONDING   XMDY-MM-DD-YY TO XMDY-YYMMDD.           PPLELMEX
027000     ACCEPT XMDY-YYMMDD FROM DATE.                                DS413
027100     MOVE   XMDY-YYMMDD TO TODAYS-DATE.                           PPLELMEX
027200     IF NOT VALID-ACCESS                                          PPLELMEX
027300        DISPLAY 'INVALID ACCESS REQUEST -- ', ELEM-RETR-ACCESS,   PPLELMEX
027400           ' -- ABORTED'                                          PPLELMEX
027500        MOVE 10 TO ELEM-RETR-ERROR-CODE                           PPLELMEX
027600      ELSE                                                        PPLELMEX
027700     IF NOT ELEM-RETR-IN-BOUNDS                                   PPLELMEX
027800        DISPLAY 'TOO MANY ELEMENTS REQUESTED -- ABORTED'          PPLELMEX
027900        MOVE 11 TO ELEM-RETR-ERROR-CODE                           PPLELMEX
028000      ELSE                                                        PPLELMEX
028100     IF ELEM-RETR-INIT                                            PPLELMEX
028200        PERFORM B000-INITIALIZE                                   PPLELMEX
028300           THRU B000-INITIALIZE-EXIT                              PPLELMEX
028400      ELSE                                                        PPLELMEX
028500     IF ELEM-RETR-EXTRACT OR ELEM-RETR-SPECIAL-EXTRACT            PPLELMEX
028600*       SET RECORD-AREA-INX TO +9                                 PPLELMEX
028700*       SET X TO RECORD-AREA-INX                                  PPLELMEX
028800*       COMPUTE X = X - 8                                         PPLELMEX
028900*       MOVE XEDB-ID-NUMBER          (RECORD-AREA-INX)    TO ABC  PPLELMEX
029000*       MOVE XEDB-SEGMENT-2000-4600  (X)                  TO DEF  PPLELMEX
029100*       MOVE XEDB-SEGMENT            (RECORD-AREA-INX)    TO DEF  PPLELMEX
029200*       MOVE XEDB-2003-APPT-END-DATE (X, 1)               TO GHI  PPLELMEX
029300*       MOVE XEDB-0111-SOC-SEC-NR                         TO GHI  PPLELMEX
029400*       DISPLAY 'ID, SEG, DATE = ', ABC, ',  ', DEF, ',  ', GHI   PPLELMEX
029500        SET ELEM-RETR-ENTRY-INX TO 1                              PPLELMEX
029600        MOVE 0 TO GTN-TABLE-BUILT-FLAG, GTN-TABLE-ERROR-FLAG,     PPLELMEX
029700                 APPT-TABLE-BUILT-FLAG                            PPLELMEX
029800        PERFORM C000-EXTRACT-ELEMENTS                             PPLELMEX
029900           UNTIL ELEM-RETR-ENTRY-INX > ELEM-RETR-MAX              PPLELMEX
030000              OR ELEM-RETR-ERROR-CODE NOT = 0.                    PPLELMEX
030100 SKIP2                                                            PPLELMEX
030200 A000-MAIN-ENTRY-GOBACK.                                          PPLELMEX
030300     GOBACK.                                                      PPLELMEX
030400 EJECT                                                            PPLELMEX
030500******************************************************************PPLELMEX
030600*                                                                *PPLELMEX
030700*                   INITIALIZATION ROUTINE                       *PPLELMEX
030800*     OPEN CONTROL FILE, LOAD DATA ELEMENT TABLE,                *PPLELMEX
030900*     CLOSE CONTROL FILE.                                        *PPLELMEX
031000*                                                                *PPLELMEX
031100******************************************************************PPLELMEX
031200*                                                                 PPLELMEX
031300 B000-INITIALIZE.                                                 PPLELMEX
031400     MOVE RAND-OPEN-IN TO IO-CTL-ACTION.                          PPLELMEX
031500     PERFORM X000-CALL-PPIOCTL.                                   PPLELMEX
031600     IF PPIOCTL-ERROR-FOUND                                       PPLELMEX
031700         GO TO B000-INITIALIZE-EXIT.                              PPLELMEX
031800     MOVE XCFK-DET TO IO-CTL-NOM-KEY.                             PPLELMEX
031900     MOVE RAND-READ TO IO-CTL-ACTION.                             PPLELMEX
032000     SET ELEM-RETR-ENTRY-INX TO 1.                                PPLELMEX
032100     PERFORM B100-READ-LOAD-TABLE                                 PPLELMEX
032200        UNTIL ELEM-RETR-ENTRY-INX > ELEM-RETR-MAX.                PPLELMEX
032300     MOVE RAND-CLOSE TO IO-CTL-ACTION.                            PPLELMEX
032400     PERFORM X000-CALL-PPIOCTL.                                   PPLELMEX
032500 SKIP2                                                            PPLELMEX
032600 B000-INITIALIZE-EXIT.                                            PPLELMEX
032700     EXIT.                                                        PPLELMEX
032800 EJECT                                                            PPLELMEX
032900 B100-READ-LOAD-TABLE.                                            PPLELMEX
033000     IF NOT VALID-FORMAT           (ELEM-RETR-ENTRY-INX)          PPLELMEX
033100        MOVE  '***  INVALID FORMAT CODE  ***' TO                  PPLELMEX
033200           ELEM-RETR-VALUE         (ELEM-RETR-ENTRY-INX)          PPLELMEX
033300        MOVE 12 TO ELEM-RETR-ERROR-CODE                           PPLELMEX
033400      ELSE                                                        PPLELMEX
033500     IF VALID-GTN-NO               (ELEM-RETR-ENTRY-INX) AND      PPLELMEX
033600        VALID-GTN-IND              (ELEM-RETR-ENTRY-INX)          PPLELMEX
033700        PERFORM B110-READ-LOAD-GTN                                PPLELMEX
033800           THRU B110-READ-LOAD-GTN-EXIT                           PPLELMEX
033900      ELSE                                                        PPLELMEX
034000     IF ELEM-RETR-NO               (ELEM-RETR-ENTRY-INX)          PPLELMEX
034100        NOT NUMERIC                                               PPLELMEX
034200        MOVE  '***  INVALID ITEM FORMAT  ***' TO                  PPLELMEX
034300           ELEM-RETR-VALUE         (ELEM-RETR-ENTRY-INX)          PPLELMEX
034400        MOVE 13 TO ELEM-RETR-ERROR-CODE                           PPLELMEX
034500      ELSE                                                        PPLELMEX
034600     IF VALID-DET-NO               (ELEM-RETR-ENTRY-INX)          PPLELMEX
034700        PERFORM X100-READ-LOAD-DET                                PPLELMEX
034800           THRU X100-READ-LOAD-DET-EXIT                           PPLELMEX
034900      ELSE                                                        PPLELMEX
035000     IF VALID-FALSE-VAR-NO         (ELEM-RETR-ENTRY-INX)          PPLELMEX
035100        PERFORM B200-INIT-FALSE-VAR                               PPLELMEX
035200           THRU B299-INIT-FALSE-VAR-EXIT                          PPLELMEX
035300      ELSE                                                        PPLELMEX
035400        MOVE  '***  INVALID ITEM REQUEST  ***' TO                 PPLELMEX
035500           ELEM-RETR-VALUE         (ELEM-RETR-ENTRY-INX)          PPLELMEX
035600        MOVE 13 TO ELEM-RETR-ERROR-CODE.                          PPLELMEX
035700     SET ELEM-RETR-ENTRY-INX UP BY 1.                             PPLELMEX
035800 EJECT                                                            PPLELMEX
035900 B110-READ-LOAD-GTN.                                              PPLELMEX
036000     MOVE INIT-ELEM-RETR-GTN-OUTPUT TO                            PPLELMEX
036100        ELEM-RETR-OUTPUT           (ELEM-RETR-ENTRY-INX).         PPLELMEX
036200     MOVE ELEM-RETR-GTN-NO         (ELEM-RETR-ENTRY-INX) TO       PPLELMEX
036300        ELEM-RETR-START-POS        (ELEM-RETR-ENTRY-INX).         PPLELMEX
036400     MOVE 0 TO LOC-FOUND-FLAG.                                    PPLELMEX
036500     MOVE 1 TO X.                                                 PPLELMEX
036600     PERFORM B115-SET-GTN-LOC                                     PPLELMEX
036700        UNTIL X > XDSA-MAX-BAL-TYP                                PPLELMEX
036800           OR LOC-FOUND.                                          PPLELMEX
036900     IF LOC-FOUND                                                 PPLELMEX
037000        MOVE '1' TO                                               PPLELMEX
037100           ELEM-RETR-INIT-STATUS   (ELEM-RETR-ENTRY-INX).         PPLELMEX
037200 SKIP2                                                            PPLELMEX
037300 B110-READ-LOAD-GTN-EXIT.                                         PPLELMEX
037400     EXIT.                                                        PPLELMEX
037500 SKIP2                                                            PPLELMEX
037600 B115-SET-GTN-LOC.                                                PPLELMEX
037700     IF ELEM-RETR-GTN-IND          (ELEM-RETR-ENTRY-INX) =        PPLELMEX
037800        XDSA-SOURCE      (X)                                      PPLELMEX
037900        MOVE XDSA-OBJECT (X) TO                                   PPLELMEX
038000           ELEM-RETR-SEG-LOC       (ELEM-RETR-ENTRY-INX)          PPLELMEX
038100        MOVE 1 TO LOC-FOUND-FLAG                                  PPLELMEX
038200     ELSE                                                         PPLELMEX
038300        ADD 1 TO X.                                               PPLELMEX
038400 EJECT                                                            PPLELMEX
038500 B200-INIT-FALSE-VAR.                                             PPLELMEX
038600     MOVE INIT-ELEM-RETR-DET-OUTPUT TO                            PPLELMEX
038700        ELEM-RETR-OUTPUT           (ELEM-RETR-ENTRY-INX).         PPLELMEX
038800     IF ELEM-RETR-NO               (ELEM-RETR-ENTRY-INX) >        PPLELMEX
038900        HIGHEST-FALSE-VAR                                         PPLELMEX
039000        MOVE  '***  FALSE VAR NOT AVAIL  ***' TO                  PPLELMEX
039100           ELEM-RETR-VALUE         (ELEM-RETR-ENTRY-INX)          PPLELMEX
039200        MOVE 21 TO ELEM-RETR-ERROR-CODE                           PPLELMEX
039300        GO TO B299-INIT-FALSE-VAR-EXIT.                           PPLELMEX
039400     MOVE '1' TO                                                  PPLELMEX
039500        ELEM-RETR-INIT-STATUS      (ELEM-RETR-ENTRY-INX).         PPLELMEX
039600     MOVE ELEM-RETR-FALSE-VAR      (ELEM-RETR-ENTRY-INX) TO       PPLELMEX
039700        CASE-NUMBER.                                              PPLELMEX
039800     GO TO B201-INIT-FALSE-VAR-1                                  PPLELMEX
039900        DEPENDING ON CASE-NUMBER.                                 PPLELMEX
040000     GO TO B299-INIT-FALSE-VAR-EXIT.                              PPLELMEX
040100 SKIP2                                                            PPLELMEX
040200 B201-INIT-FALSE-VAR-1.                                           PPLELMEX
040300     MOVE 09 TO                                                   PPLELMEX
040400        ELEM-RETR-INT-LENGTH       (ELEM-RETR-ENTRY-INX),         PPLELMEX
040500        ELEM-RETR-EXT-LENGTH       (ELEM-RETR-ENTRY-INX).         PPLELMEX
040600     GO TO B299-INIT-FALSE-VAR-EXIT.                              PPLELMEX
040700 SKIP2                                                            PPLELMEX
040800 B299-INIT-FALSE-VAR-EXIT.                                        PPLELMEX
040900     EXIT.                                                        PPLELMEX
041000 EJECT                                                            PPLELMEX
041100 C000-EXTRACT-ELEMENTS.                                           PPLELMEX
041200     MOVE '0' TO                                                  PPLELMEX
041300        ELEM-RETR-EXTR-STATUS      (ELEM-RETR-ENTRY-INX).         PPLELMEX
041400     IF NOT ELEM-RETR-INITIALIZED  (ELEM-RETR-ENTRY-INX)          PPLELMEX
041500        DISPLAY 'INVALID ELEMENT FOUND DURING EXTRACT = ',        PPLELMEX
041600           ELEM-RETR-NO            (ELEM-RETR-ENTRY-INX),         PPLELMEX
041700           ', EXTRACT ABORTED'                                    PPLELMEX
041800        MOVE 22 TO ELEM-RETR-ERROR-CODE                           PPLELMEX
041900      ELSE                                                        PPLELMEX
042000     IF VALID-GTN-NO               (ELEM-RETR-ENTRY-INX) AND      PPLELMEX
042100        VALID-GTN-IND              (ELEM-RETR-ENTRY-INX)          PPLELMEX
042200        PERFORM C100-EXTRACT-GTN                                  PPLELMEX
042300           THRU C100-EXTRACT-GTN-EXIT                             PPLELMEX
042400      ELSE                                                        PPLELMEX
042500     IF VALID-DET-NO               (ELEM-RETR-ENTRY-INX)          PPLELMEX
042600        PERFORM C200-EXTRACT-ELEMENT                              PPLELMEX
042700           THRU C200-EXTRACT-ELEMENT-EXIT                         PPLELMEX
042800      ELSE                                                        PPLELMEX
042900        PERFORM C300-EXTRACT-FALSE-VAR                            PPLELMEX
043000           THRU C399-EXTRACT-FALSE-VAR-EXIT.                      PPLELMEX
043100     SET ELEM-RETR-ENTRY-INX UP BY 1.                             PPLELMEX
043200 EJECT                                                            PPLELMEX
043300 C100-EXTRACT-GTN.                                                PPLELMEX
043400     IF GTN-TABLE-ERROR                                           PPLELMEX
043500        MOVE '***  BAD GTN TABLE  ***' TO                         PPLELMEX
043600        ELEM-RETR-VALUE            (ELEM-RETR-ENTRY-INX)          PPLELMEX
043700        GO TO C100-EXTRACT-GTN-EXIT.                              PPLELMEX
043800     IF NOT GTN-TABLE-BUILT                                       PPLELMEX
043900        MOVE 'C' TO FUNCTION-UTILITY                              PPLELMEX
044000        SET RECORD-AREA-INX TO FIRST-DEDCTN-SGMT-INDX             PPLELMEX
044100        PERFORM C110-BUILD-GTN-TABLE                              PPLELMEX
044200           THRU C110-BUILD-GTN-TABLE-EXIT                         PPLELMEX
044300*       DISPLAY 'XDSA ARRAY --'                                   PPLELMEX
044400*       MOVE 0 TO XXX                                             PPLELMEX
044500*       PERFORM C120-DISPLAY-GTN-TABLE                            PPLELMEX
044600*          300 TIMES                                              PPLELMEX
044700        IF GTN-TABLE-ERROR                                        PPLELMEX
044800           MOVE '***  BAD GTN TABLE  ***' TO                      PPLELMEX
044900           ELEM-RETR-VALUE            (ELEM-RETR-ENTRY-INX)       PPLELMEX
045000           GO TO C100-EXTRACT-GTN-EXIT                            PPLELMEX
045100        ELSE                                                      PPLELMEX
045200           MOVE 1 TO GTN-TABLE-BUILT-FLAG.                        PPLELMEX
045300     MOVE ELEM-RETR-START-POS      (ELEM-RETR-ENTRY-INX) TO X.    PPLELMEX
045400     MOVE ELEM-RETR-SEG-LOC        (ELEM-RETR-ENTRY-INX) TO Y.    PPLELMEX
045500     MOVE XDSA-BALAMT (X, Y) TO DED-PACKED.                       PPLELMEX
045600     IF DED-PACKED NOT NUMERIC                                    PPLELMEX
045700        MOVE 0 TO DED-PACKED.                                     PPLELMEX
045800     IF ELEM-RETR-RAW              (ELEM-RETR-ENTRY-INX)          PPLELMEX
045900        MOVE GTN-PACKED TO GTN-UNPACKED                           PPLELMEX
046000        MOVE GTN-UNPACKED-VALUE TO                                PPLELMEX
046100           ELEM-RETR-VALUE         (ELEM-RETR-ENTRY-INX)          PPLELMEX
046200        MOVE GTN-UNPACKED-LENGTH TO                               PPLELMEX
046300           ELEM-RETR-EXT-LENGTH    (ELEM-RETR-ENTRY-INX)          PPLELMEX
046400     ELSE                                                         PPLELMEX
046500        MOVE GTN-PACKED TO GTN-UNPACKED-EDITED                    PPLELMEX
046600        MOVE GTN-UNPACKED-EDITED-VALUE  TO                        PPLELMEX
046700           ELEM-RETR-VALUE         (ELEM-RETR-ENTRY-INX)          PPLELMEX
046800        MOVE GTN-UNPACKED-EDITED-LENGTH TO                        PPLELMEX
046900           ELEM-RETR-EXT-LENGTH    (ELEM-RETR-ENTRY-INX).         PPLELMEX
047000     MOVE '1' TO ELEM-RETR-EXTR-STATUS                            PPLELMEX
047100                                   (ELEM-RETR-ENTRY-INX).         PPLELMEX
047200 SKIP2                                                            PPLELMEX
047300 C100-EXTRACT-GTN-EXIT.                                           PPLELMEX
047400     EXIT.                                                        PPLELMEX
047500 EJECT                                                            PPLELMEX
047600 C110-BUILD-GTN-TABLE.                                            PPLELMEX
047700     MOVE RECORD-AREA-DATA (RECORD-AREA-INX) TO                   PPLELMEX
047800        XDBS-GROSS-TO-NET-DATA60.                                 PPLELMEX
047900     CALL  'PPDEDUTL'                                             PPLELMEX
048000        USING FUNCTION-UTILITY,                                   PPLELMEX
048100              XDBS-GROSS-TO-NET-DATA60,                           PPLELMEX
048200              DEDUCTION-SEGMENT-ARRAY.                            PPLELMEX
048300     IF ERROR-INVALID-SEGMENT                                     PPLELMEX
048400        GO TO C110-BUILD-GTN-TABLE-EXIT                           PPLELMEX
048500     ELSE                                                         PPLELMEX
048600        IF NOT CORRECT-RETURN                                     PPLELMEX
048700           DISPLAY 'BAD PPDEDUTL, RETURN CODE = ', FUNCTION-RETURNPPLELMEX
048800           MOVE 1 TO GTN-TABLE-ERROR-FLAG                         PPLELMEX
048900           GO TO C110-BUILD-GTN-TABLE-EXIT.                       PPLELMEX
049000     MOVE 'L' TO FUNCTION-UTILITY.                                PPLELMEX
049100     SET RECORD-AREA-INX UP BY 1.                                 PPLELMEX
049200     GO TO C110-BUILD-GTN-TABLE.                                  PPLELMEX
049300 SKIP2                                                            PPLELMEX
049400 C110-BUILD-GTN-TABLE-EXIT.                                       PPLELMEX
049500     EXIT.                                                        PPLELMEX
049600*SKIP2                                                            PPLELMEX
049700*C120-DISPLAY-GTN-TABLE.                                          PPLELMEX
049800*    ADD 1 TO XXX.                                                PPLELMEX
049900*    DISPLAY '(', XXX, ') -- ', XDSA-DEDUCT-ARRAY (XXX).          PPLELMEX
050000 EJECT                                                            PPLELMEX
050100 C200-EXTRACT-ELEMENT.                                            PPLELMEX
050200     IF ELEM-RETR-SPECIAL-EXTRACT                                 PPLELMEX
050300*************************************************                 PPLELMEX
050400****    THIS BRANCH IS INTENDED FOR EXACT    ****                 PPLELMEX
050500****    APPT/DIST ELEMENT EXTRACT            ****                 PPLELMEX
050600*************************************************                 PPLELMEX
050700        NEXT SENTENCE                                             PPLELMEX
050800     ELSE                                                         PPLELMEX
050900        IF VALID-APPT-DIST-NO      (ELEM-RETR-ENTRY-INX)          PPLELMEX
051000           PERFORM C210-RESET-SEG-NO                              PPLELMEX
051100              THRU C210-RESET-SEG-NO-EXIT                         PPLELMEX
051200           IF NOT ELEM-RETR-INITIALIZED                           PPLELMEX
051300                                   (ELEM-RETR-ENTRY-INX)          PPLELMEX
051400              DISPLAY 'INVALID RESET OF APPT/DIST ELEMENT = ',    PPLELMEX
051500                 ELEM-RETR-NO      (ELEM-RETR-ENTRY-INX)          PPLELMEX
051600              MOVE 24 TO ELEM-RETR-ERROR-CODE                     PPLELMEX
051700              GO TO C200-EXTRACT-ELEMENT-EXIT.                    PPLELMEX
051800     SET RECORD-AREA-INX TO                                       PPLELMEX
051900        ELEM-RETR-SEG-LOC          (ELEM-RETR-ENTRY-INX).         PPLELMEX
052000     IF RECORD-SEG-NUMERIC (RECORD-AREA-INX) NOT NUMERIC OR       PPLELMEX
052100        RECORD-SEG-NUMERIC (RECORD-AREA-INX) NOT =                PPLELMEX
052200           ELEM-RETR-SEG           (ELEM-RETR-ENTRY-INX)          PPLELMEX
052300        PERFORM C240-SET-DEFAULT-VALUE                            PPLELMEX
052400        GO TO C200-EXTRACT-ELEMENT-EXIT.                          PPLELMEX
052500     MOVE '1' TO                                                  PPLELMEX
052600        ELEM-RETR-EXTR-STATUS      (ELEM-RETR-ENTRY-INX).         PPLELMEX
052700     SET RECORD-CHARS-INX TO                                      PPLELMEX
052800        ELEM-RETR-START-POS        (ELEM-RETR-ENTRY-INX).         PPLELMEX
052900     SET ELEM-RETR-VALUE-INX TO +1.                               PPLELMEX
053000     PERFORM C250-MOVE-ELEMENT                                    PPLELMEX
053100        THRU C250-MOVE-ELEMENT-EXIT.                              PPLELMEX
053200     MOVE '1' TO                                                  PPLELMEX
053300        ELEM-RETR-EXTR-STATUS      (ELEM-RETR-ENTRY-INX).         PPLELMEX
053400     MOVE DISPLAY-CONTENT TO                                      PPLELMEX
053500        ELEM-RETR-VALUE            (ELEM-RETR-ENTRY-INX).         PPLELMEX
053600     IF ELEM-RETR-EDITED           (ELEM-RETR-ENTRY-INX)          PPLELMEX
053700        MOVE EXTERNAL-LENGTH TO                                   PPLELMEX
053800           ELEM-RETR-EXT-LENGTH    (ELEM-RETR-ENTRY-INX).         PPLELMEX
053900 SKIP2                                                            PPLELMEX
054000 C200-EXTRACT-ELEMENT-EXIT.                                       PPLELMEX
054100     EXIT.                                                        PPLELMEX
054200 EJECT                                                            PPLELMEX
054300 C210-RESET-SEG-NO.                                               PPLELMEX
054400     IF NOT APPT-TABLE-BUILT                                      PPLELMEX
054500        SET RECORD-AREA-INX TO FIRST-APPT-SGMT-INDX               PPLELMEX
054600        SET APPT-RANK-INX TO +1                                   PPLELMEX
054700        MOVE LOW-VALUES TO APPT-DIST-RANKING                      PPLELMEX
054800        MOVE  +1 TO APPT-SEG-SUB                                  PPLELMEX
054900        MOVE  +2 TO APPT-DIST-SUB                                 PPLELMEX
055000        MOVE +72 TO APPT-RANK-LIMIT                               PPLELMEX
055100        PERFORM C220-BUILD-APPT-TABLE                             PPLELMEX
055200           THRU C220-BUILD-APPT-TABLE-EXIT                        PPLELMEX
055300        MOVE +1 TO APPT-TABLE-BUILT-FLAG                          PPLELMEX
055400        IF APPT-RANK-MAX = 0                                      PPLELMEX
055500*          DISPLAY 'ID = ', XEDB-ID-NUMBER (1),                   PPLELMEX
055600*             ' -- APPT RANK MAX = ', APPT-RANK-MAX,              PPLELMEX
055700*             ' -- NO APPTS'                                      PPLELMEX
055800           GO TO C210-RESET-SEG-NO-EXIT                           PPLELMEX
055900        ELSE                                                      PPLELMEX
056000           SET APPT-RANK-INX TO +1                                PPLELMEX
056100           PERFORM C230-SORT-APPT-TABLE.                          PPLELMEX
056200*          IF APPT-RANK-NO (APPT-RANK-INX) > 10 OR                PPLELMEX
056300*             DIST-RANK-NO (APPT-RANK-INX) > 11                   PPLELMEX
056400*             DISPLAY 'ID = ', XEDB-ID-NUMBER (1),                PPLELMEX
056500*                ' -- APPT RANK MAX = ', APPT-RANK-MAX            PPLELMEX
056600*             DISPLAY '                  ',                       PPLELMEX
056700*             'APPT RANK SEG = ',   APPT-RANK-SEG (APPT-RANK-INX) PPLELMEX
056800*             ', APPT RANK NO = ',  APPT-RANK-NO  (APPT-RANK-INX) PPLELMEX
056900*             ', DIST RANK SEG = ', DIST-RANK-SEG (APPT-RANK-INX) PPLELMEX
057000*             ', DIST RANK NO = ',  DIST-RANK-NO  (APPT-RANK-INX).PPLELMEX
057100     IF APPT-RANK-MAX = 0                                         PPLELMEX
057200        GO TO C210-RESET-SEG-NO-EXIT.                             PPLELMEX
057300*=========================================================        PPLELMEX
057400*======>    THE FOLLOWING STATEMENT MAY BE        <=======        PPLELMEX
057500*======>    REPLACED, THE CURRENT ASSUMPTION      <=======        PPLELMEX
057600*======>     BEING THAT 'MAIN' APPT/DIST ELEMENT  <=======        PPLELMEX
057700*======>    IS DESIRED.                           <=======        PPLELMEX
057800*=========================================================        PPLELMEX
057900     SET APPT-RANK-INX TO +1.                                     PPLELMEX
058000     MOVE APPT-RANK-SEG                 (APPT-RANK-INX) TO        PPLELMEX
058100        ELEM-RETR-SEG              (ELEM-RETR-ENTRY-INX).         PPLELMEX
058200 SKIP2                                                            PPLELMEX
058300 C210-RESET-SEG-NO-EXIT.                                          PPLELMEX
058400     EXIT.                                                        PPLELMEX
058500 SKIP2                                                            PPLELMEX
058600 C220-BUILD-APPT-TABLE.                                           PPLELMEX
058700     IF XEDB-SEG-20-46 (APPT-SEG-SUB) < '20' OR > '46'            PPLELMEX
058800        GO TO C220-BUILD-APPT-TABLE-EXIT.                         PPLELMEX
058900     IF APPT-SEG-SUB > 27                                         PPLELMEX
059000        SET Y TO APPT-RANK-INX                                    PPLELMEX
059100*       DISPLAY 'ID = ', XEDB-ID-NUMBER (1),                      PPLELMEX
059200*          ' -- APPT RANK INX = ', Y,                             PPLELMEX
059300*          ', APPT RANK MAX = ', APPT-RANK-MAX,                   PPLELMEX
059400*          ', APPT SEG SUB = ', APPT-SEG-SUB,                     PPLELMEX
059500*          ' -- APPT SEG SUB > 27'                                PPLELMEX
059600        GO TO C220-BUILD-APPT-TABLE-EXIT.                         PPLELMEX
059700     IF APPT-RANK-INX > APPT-RANK-LIMIT                           PPLELMEX
059800        SET Y TO APPT-RANK-INX                                    PPLELMEX
059900*       DISPLAY 'ID = ', XEDB-ID-NUMBER (1),                      PPLELMEX
060000*          ' -- APPT RANK INX = ', Y,                             PPLELMEX
060100*          ', APPT RANK MAX = ', APPT-RANK-MAX,                   PPLELMEX
060200*          ', APPT SEG SUB = ', APPT-SEG-SUB,                     PPLELMEX
060300*          ' -- APPT RANK INDEX > APPT RANK LIMIT'                PPLELMEX
060400        GO TO C220-BUILD-APPT-TABLE-EXIT.                         PPLELMEX
060500*    IF APPT-SEG AND                                              PPLELMEX
060600*       XEDB-2001-APPT-NO (APPT-SEG-SUB, 1) NOT  NUMERIC          PPLELMEX
060700*       SET Y TO APPT-RANK-INX                                    PPLELMEX
060800*       DISPLAY 'ID = ', XEDB-ID-NUMBER (1),                      PPLELMEX
060900*          ' -- APPT RANK INX = ', Y,                             PPLELMEX
061000*          ', APPT RANK MAX = ', APPT-RANK-MAX,                   PPLELMEX
061100*          ', APPT SEG SUB = ', APPT-SEG-SUB,                     PPLELMEX
061200*          ' -- APPT NUMBER NOT NUMERIC'                          PPLELMEX
061300*       GO TO C220-BUILD-APPT-TABLE-EXIT.                         PPLELMEX
061400     IF XEDB-2041-DIST-NO (APPT-SEG-SUB, APPT-DIST-SUB) = 0       PPLELMEX
061500        ADD  +1 TO APPT-SEG-SUB                                   PPLELMEX
061600        MOVE +2 TO APPT-DIST-SUB                                  PPLELMEX
061700        GO TO C220-BUILD-APPT-TABLE.                              PPLELMEX
061800     IF APPT-SEG AND APPT-DIST-SUB = +2                           PPLELMEX
061900        PERFORM C224-SET-APPT-RANK                                PPLELMEX
062000        PERFORM C225-SET-APPT-RANK-LOCATION                       PPLELMEX
062100        PERFORM C227-SET-DIST-RANK                                PPLELMEX
062200        PERFORM C228-SET-DIST-RANK-LOCATION                       PPLELMEX
062300     ELSE                                                         PPLELMEX
062400        PERFORM C226-CONTINUE-APPT-RANK                           PPLELMEX
062500        PERFORM C227-SET-DIST-RANK                                PPLELMEX
062600        PERFORM C228-SET-DIST-RANK-LOCATION.                      PPLELMEX
062700     ADD 1 TO APPT-DIST-SUB.                                      PPLELMEX
062800     IF APPT-DIST-SUB > 3                                         PPLELMEX
062900        ADD +1 TO APPT-SEG-SUB                                    PPLELMEX
063000        IF APPT-SEG                                               PPLELMEX
063100           MOVE +2 TO APPT-DIST-SUB                               PPLELMEX
063200        ELSE                                                      PPLELMEX
063300           MOVE +1 TO APPT-DIST-SUB.                              PPLELMEX
063400     SET APPT-RANK-MAX TO APPT-RANK-INX.                          PPLELMEX
063500     SET APPT-RANK-INX UP BY +1.                                  PPLELMEX
063600     GO TO C220-BUILD-APPT-TABLE.                                 PPLELMEX
063700 SKIP2                                                            PPLELMEX
063800 C220-BUILD-APPT-TABLE-EXIT.                                      PPLELMEX
063900     EXIT.                                                        PPLELMEX
064000 EJECT                                                            PPLELMEX
064100 C224-SET-APPT-RANK.                                              PPLELMEX
064200     IF TODAYS-DATE NOT <                                         PPLELMEX
064300        XEDB-2002-APPT-BEGN-DATE  (APPT-SEG-SUB, 1) AND           PPLELMEX
064400        TODAYS-DATE NOT >                                         PPLELMEX
064500        XEDB-2003-APPT-END-DATE   (APPT-SEG-SUB, 1)               PPLELMEX
064600        MOVE 3 TO APPT-RANK-DATE-LEVEL  (APPT-RANK-INX)           PPLELMEX
064700      ELSE                                                        PPLELMEX
064800     IF TODAYS-DATE <                                             PPLELMEX
064900        XEDB-2002-APPT-BEGN-DATE  (APPT-SEG-SUB, 1)               PPLELMEX
065000        MOVE 2 TO APPT-RANK-DATE-LEVEL  (APPT-RANK-INX)           PPLELMEX
065100      ELSE                                                        PPLELMEX
065200        MOVE 1 TO APPT-RANK-DATE-LEVEL (APPT-RANK-INX).           PPLELMEX
065300     MOVE XEDB-2003-APPT-END-DATE  (APPT-SEG-SUB, 1) TO           PPLELMEX
065400        APPT-RANK-END-DATE              (APPT-RANK-INX).          PPLELMEX
065500     MOVE XEDB-2002-APPT-BEGN-DATE (APPT-SEG-SUB, 1) TO           PPLELMEX
065600        APPT-RANK-BEGIN-DATE            (APPT-RANK-INX).          PPLELMEX
065700     MOVE XEDB-2006-TTL-CODE       (APPT-SEG-SUB, 1) TO           PPLELMEX
065800        HOLD-TITLE-CODE.                                          PPLELMEX
065900     IF EXEC-TITLE                                                PPLELMEX
066000        MOVE 4 TO APPT-RANK-TITLE-LEVEL (APPT-RANK-INX)           PPLELMEX
066100      ELSE                                                        PPLELMEX
066200     IF ACAD-TITLE                                                PPLELMEX
066300        MOVE 3 TO APPT-RANK-TITLE-LEVEL (APPT-RANK-INX)           PPLELMEX
066400      ELSE                                                        PPLELMEX
066500     IF STAFF-TITLE                                               PPLELMEX
066600        MOVE 2 TO APPT-RANK-TITLE-LEVEL (APPT-RANK-INX)           PPLELMEX
066700      ELSE                                                        PPLELMEX
066800        MOVE 1 TO APPT-RANK-TITLE-LEVEL (APPT-RANK-INX).          PPLELMEX
066900     COMPUTE APPT-RANK-TITLE-COMP       (APPT-RANK-INX) =         PPLELMEX
067000        10000 - HOLD-TITLE-CODE.                                  PPLELMEX
067100     MOVE XEDB-2012-PCT-FULL-TIME (APPT-SEG-SUB, 1) TO            PPLELMEX
067200        APPT-RANK-FTE                   (APPT-RANK-INX).          PPLELMEX
067300     COMPUTE APPT-RANK-NO-COMP          (APPT-RANK-INX) =         PPLELMEX
067400        10 - XEDB-2001-APPT-NO     (APPT-SEG-SUB, 1).             PPLELMEX
067500 SKIP2                                                            PPLELMEX
067600 C225-SET-APPT-RANK-LOCATION.                                     PPLELMEX
067700     MOVE XEDB-SEG-20-46           (APPT-SEG-SUB) TO              PPLELMEX
067800        APPT-RANK-SEG                   (APPT-RANK-INX).          PPLELMEX
067900     MOVE XEDB-2001-APPT-NO        (APPT-SEG-SUB, 1) TO           PPLELMEX
068000        APPT-RANK-NO                    (APPT-RANK-INX).          PPLELMEX
068100 SKIP2                                                            PPLELMEX
068200 C226-CONTINUE-APPT-RANK.                                         PPLELMEX
068300     MOVE APPT-RANK                     (APPT-RANK-INX - 1) TO    PPLELMEX
068400          APPT-RANK                     (APPT-RANK-INX).          PPLELMEX
068500     MOVE APPT-RANK-LOCATION            (APPT-RANK-INX - 1) TO    PPLELMEX
068600          APPT-RANK-LOCATION            (APPT-RANK-INX).          PPLELMEX
068700 EJECT                                                            PPLELMEX
068800 C227-SET-DIST-RANK.                                              PPLELMEX
068900     IF TODAYS-DATE NOT <                                         PPLELMEX
069000        XEDB-2053-PAY-BEGN-DATE    (APPT-SEG-SUB, APPT-DIST-SUB)  PPLELMEX
069100        AND TODAYS-DATE NOT >                                     PPLELMEX
069200        XEDB-2054-PAY-END-DATE     (APPT-SEG-SUB, APPT-DIST-SUB)  PPLELMEX
069300        MOVE 3 TO DIST-RANK-DATE-LEVEL  (APPT-RANK-INX)           PPLELMEX
069400      ELSE                                                        PPLELMEX
069500     IF TODAYS-DATE <                                             PPLELMEX
069600        XEDB-2054-PAY-END-DATE     (APPT-SEG-SUB, APPT-DIST-SUB)  PPLELMEX
069700        MOVE 2 TO DIST-RANK-DATE-LEVEL  (APPT-RANK-INX)           PPLELMEX
069800      ELSE                                                        PPLELMEX
069900        MOVE 1 TO DIST-RANK-DATE-LEVEL (APPT-RANK-INX).           PPLELMEX
070000     MOVE XEDB-2053-PAY-BEGN-DATE  (APPT-SEG-SUB, APPT-DIST-SUB)  PPLELMEX
070100        TO DIST-RANK-BEGIN-DATE         (APPT-RANK-INX).          PPLELMEX
070200     MOVE XEDB-2054-PAY-END-DATE   (APPT-SEG-SUB, APPT-DIST-SUB)  PPLELMEX
070300        TO DIST-RANK-END-DATE           (APPT-RANK-INX).          PPLELMEX
070400     PERFORM C229-SET-DIST-DOS-RANK.                              PPLELMEX
070500     MOVE XEDB-2051-FTE            (APPT-SEG-SUB, APPT-DIST-SUB)  PPLELMEX
070600        TO DIST-RANK-FTE                (APPT-RANK-INX).          PPLELMEX
070700     MOVE XEDB-2055-RATE           (APPT-SEG-SUB, APPT-DIST-SUB)  PPLELMEX
070800        TO DIST-RANK-RATE               (APPT-RANK-INX).          PPLELMEX
070900     COMPUTE DIST-RANK-NO-COMP          (APPT-RANK-INX) =         PPLELMEX
071000        10 - XEDB-2041-DIST-NO    (APPT-SEG-SUB, APPT-DIST-SUB).  PPLELMEX
071100 SKIP2                                                            PPLELMEX
071200 C228-SET-DIST-RANK-LOCATION.                                     PPLELMEX
071300     MOVE XEDB-SEG-20-46           (APPT-SEG-SUB)                 PPLELMEX
071400        TO DIST-RANK-SEG                (APPT-RANK-INX).          PPLELMEX
071500     MOVE XEDB-2041-DIST-NO        (APPT-SEG-SUB, APPT-DIST-SUB)  PPLELMEX
071600        TO DIST-RANK-NO                 (APPT-RANK-INX).          PPLELMEX
071700 SKIP2                                                            PPLELMEX
071800 C229-SET-DIST-DOS-RANK.                                          PPLELMEX
071900     IF XEDB-2056-DOS       (APPT-SEG-SUB, APPT-DIST-SUB) = 'REG' PPLELMEX
072000        MOVE 5 TO DIST-RANK-DOS-LEVEL   (APPT-RANK-INX)           PPLELMEX
072100      ELSE                                                        PPLELMEX
072200     IF XEDB-2056-DOS       (APPT-SEG-SUB, APPT-DIST-SUB) = 'RGA' PPLELMEX
072300        MOVE 4 TO DIST-RANK-DOS-LEVEL   (APPT-RANK-INX)           PPLELMEX
072400      ELSE                                                        PPLELMEX
072500     IF XEDB-2056-DOS       (APPT-SEG-SUB, APPT-DIST-SUB) = 'HSC' PPLELMEX
072600        MOVE 3 TO DIST-RANK-DOS-LEVEL   (APPT-RANK-INX)           PPLELMEX
072700      ELSE                                                        PPLELMEX
072800     IF XEDB-2056-DOS       (APPT-SEG-SUB, APPT-DIST-SUB) = 'HST' PPLELMEX
072900        MOVE 2 TO DIST-RANK-DOS-LEVEL   (APPT-RANK-INX)           PPLELMEX
073000      ELSE                                                        PPLELMEX
073100        MOVE 1 TO DIST-RANK-DOS-LEVEL   (APPT-RANK-INX).          PPLELMEX
073200 EJECT                                                            PPLELMEX
073300 C230-SORT-APPT-TABLE.                                            PPLELMEX
073400     SET APPT-RANK-INX TO +1.                                     PPLELMEX
073500     MOVE ZERO TO SORT-ACTIVE-FLAG.                               PPLELMEX
073600     PERFORM C231-SORT-APPT-TABLE                                 PPLELMEX
073700        THRU C231-SORT-APPT-TABLE-EXIT.                           PPLELMEX
073800     IF SORT-ACTIVE                                               PPLELMEX
073900        GO TO C230-SORT-APPT-TABLE.                               PPLELMEX
074000 SKIP2                                                            PPLELMEX
074100 C231-SORT-APPT-TABLE.                                            PPLELMEX
074200     IF APPT-RANK-INX = APPT-RANK-MAX                             PPLELMEX
074300        GO TO C231-SORT-APPT-TABLE-EXIT.                          PPLELMEX
074400     IF APPT-DIST-RANK                  (APPT-RANK-INX + 1) >     PPLELMEX
074500        APPT-DIST-RANK                  (APPT-RANK-INX)           PPLELMEX
074600        MOVE APPT-DIST-RANK-TABLE       (APPT-RANK-INX) TO        PPLELMEX
074700             HOLD-APPT-DIST-RANK                                  PPLELMEX
074800        MOVE APPT-DIST-RANK-TABLE       (APPT-RANK-INX + 1) TO    PPLELMEX
074900             APPT-DIST-RANK-TABLE       (APPT-RANK-INX)           PPLELMEX
075000        MOVE HOLD-APPT-DIST-RANK TO                               PPLELMEX
075100             APPT-DIST-RANK-TABLE       (APPT-RANK-INX + 1)       PPLELMEX
075200        MOVE +1 TO SORT-ACTIVE-FLAG.                              PPLELMEX
075300     SET APPT-RANK-INX UP BY 1.                                   PPLELMEX
075400     GO TO C231-SORT-APPT-TABLE.                                  PPLELMEX
075500 SKIP2                                                            PPLELMEX
075600 C231-SORT-APPT-TABLE-EXIT.                                       PPLELMEX
075700     EXIT.                                                        PPLELMEX
075800 SKIP2                                                            PPLELMEX
075900 C240-SET-DEFAULT-VALUE.                                          PPLELMEX
076000     IF ELEM-RETR-ALPHANUM        (ELEM-RETR-ENTRY-INX)           PPLELMEX
076100        MOVE ALL ' ' TO                                           PPLELMEX
076200           ELEM-RETR-VALUE        (ELEM-RETR-ENTRY-INX)           PPLELMEX
076300     ELSE                                                         PPLELMEX
076400        MOVE ALL '0' TO                                           PPLELMEX
076500           ELEM-RETR-VALUE        (ELEM-RETR-ENTRY-INX).          PPLELMEX
076600 EJECT                                                            PPLELMEX
076700 C250-MOVE-ELEMENT.                                               PPLELMEX
076800******************************************************************PPLELMEX
076900*    *   THIS SECTION USES CHARACTERISTICS DERIVED FROM THE       PPLELMEX
077000*    *   DATA ELEMENT TABLE TO EXTRACT VALUE OF REQUESTED ELEMENT PPLELMEX
077100*    *   FROM EDB AND FORMAT THAT VALUE INTO A 30-CHARACTER FIELD PPLELMEX
077200*    *   (DISPLAY-CONTENT) IN ALPHANUMERIC, SIGNED NUMERIC, OR    PPLELMEX
077300*    *   EDITED NUMERIC FORMAT.                                   PPLELMEX
077400******************************************************************PPLELMEX
077500                                                                  PPLELMEX
077600     MOVE ZERO TO DSPLY-CONVERT.                                  PPLELMEX
077700     MOVE 15 TO F-SUB.                                            PPLELMEX
077800     MOVE SPACES TO SIGN-CHAR, DISPLAY-CONTENT.                   PPLELMEX
077900     MOVE ELEM-RETR-START-POS      (ELEM-RETR-ENTRY-INX) TO       PPLELMEX
078000        START-POS, C-SUB.                                         PPLELMEX
078100     SUBTRACT 14 FROM START-POS, C-SUB.                           PPLELMEX
078200     MOVE 1 TO D-SUB, E-SUB.                                      PPLELMEX
078300     IF ELEM-RETR-PACK             (ELEM-RETR-ENTRY-INX)          PPLELMEX
078400        MOVE ZERO TO PACKED-FLD-N, DISPLAY-NUMERIC                PPLELMEX
078500        COMPUTE D-SUB =                                           PPLELMEX
078600           8 - ELEM-RETR-INT-LENGTH (ELEM-RETR-ENTRY-INX) + 1     PPLELMEX
078700        PERFORM C251-UNPACK-ELEMENT                               PPLELMEX
078800     ELSE                                                         PPLELMEX
078900        COMPUTE F-SUB =                                           PPLELMEX
079000           15 - (ELEM-RETR-INT-LENGTH (ELEM-RETR-ENTRY-INX) + 1). PPLELMEX
079100     PERFORM C252-SET-ELEMENT-PARAMS.                             PPLELMEX
079200     PERFORM C253-MOVE-ELEMENT-CHARS.                             PPLELMEX
079300     IF ELEM-RETR-EDITED              (ELEM-RETR-ENTRY-INX)       PPLELMEX
079400        PERFORM C254-EDIT-ELEMENT.                                PPLELMEX
079500     GO TO C250-MOVE-ELEMENT-EXIT.                                PPLELMEX
079600 EJECT                                                            PPLELMEX
079700 C251-UNPACK-ELEMENT.                                             PPLELMEX
079800     SET RECORD-CHARS-INX TO C-SUB.                               PPLELMEX
079900     MOVE RECORD-CHARS (RECORD-AREA-INX, RECORD-CHARS-INX) TO     PPLELMEX
080000        PACKED-DIGIT (D-SUB).                                     PPLELMEX
080100     IF E-SUB < ELEM-RETR-INT-LENGTH (ELEM-RETR-ENTRY-INX)        PPLELMEX
080200        ADD 1 TO C-SUB D-SUB, E-SUB                               PPLELMEX
080300        GO TO C251-UNPACK-ELEMENT.                                PPLELMEX
080400     COMPUTE C-SUB = 15 -                                         PPLELMEX
080500        (ELEM-RETR-INT-LENGTH (ELEM-RETR-ENTRY-INX) * 2 - 1) + 1. PPLELMEX
080600     IF PACKED-FLD-N IS NUMERIC                                   PPLELMEX
080700        MOVE PACKED-FLD-S TO DSPLY-CONVERT                        PPLELMEX
080800        MOVE PACKED-FLD-N TO DISPLAY-NUMERIC                      PPLELMEX
080900     ELSE                                                         PPLELMEX
081000        MOVE '***  DATA EXCEPTION  ***' TO DISPLAY-CONTENT        PPLELMEX
081100        MOVE '0' TO                                               PPLELMEX
081200           ELEM-RETR-EXTR-STATUS   (ELEM-RETR-ENTRY-INX)          PPLELMEX
081300        GO TO C250-MOVE-ELEMENT-EXIT.                             PPLELMEX
081400     IF PACKED-FLD-N < ZERO                                       PPLELMEX
081500        MOVE '-' TO SIGN-CHAR.                                    PPLELMEX
081600 EJECT                                                            PPLELMEX
081700 C252-SET-ELEMENT-PARAMS.                                         PPLELMEX
081800     MOVE 1 TO E-SUB, D-SUB.                                      PPLELMEX
081900     IF ELEM-RETR-PACK             (ELEM-RETR-ENTRY-INX)          PPLELMEX
082000        COMPUTE EXTERNAL-LENGTH =                                 PPLELMEX
082100           ELEM-RETR-INT-LENGTH (ELEM-RETR-ENTRY-INX) * 2 - 1     PPLELMEX
082200     ELSE                                                         PPLELMEX
082300        MOVE ELEM-RETR-INT-LENGTH  (ELEM-RETR-ENTRY-INX) TO       PPLELMEX
082400           EXTERNAL-LENGTH.                                       PPLELMEX
082500******************************************************************PPLELMEX
082600*    *   ARE PACKED DATES STILL USED???                           PPLELMEX
082700******************************************************************PPLELMEX
082800     IF ELEM-RETR-PACK             (ELEM-RETR-ENTRY-INX) AND      PPLELMEX
082900        ELEM-RETR-DATE             (ELEM-RETR-ENTRY-INX)          PPLELMEX
083000        ADD 1 TO C-SUB                                            PPLELMEX
083100        SUBTRACT 1 FROM EXTERNAL-LENGTH.                          PPLELMEX
083200     IF ELEM-RETR-DEC-SIZE         (ELEM-RETR-ENTRY-INX) > 0 AND  PPLELMEX
083300        ELEM-RETR-EDITED           (ELEM-RETR-ENTRY-INX)          PPLELMEX
083400        COMPUTE DEC-POS = EXTERNAL-LENGTH -                       PPLELMEX
083500           (ELEM-RETR-DEC-SIZE (ELEM-RETR-ENTRY-INX) - 1)         PPLELMEX
083600        ADD 1 TO EXTERNAL-LENGTH                                  PPLELMEX
083700     ELSE                                                         PPLELMEX
083800        MOVE ZERO TO DEC-POS.                                     PPLELMEX
083900 SKIP2                                                            PPLELMEX
084000 C253-MOVE-ELEMENT-CHARS.                                         PPLELMEX
084100     IF E-SUB = DEC-POS AND                                       PPLELMEX
084200        ELEM-RETR-EDITED           (ELEM-RETR-ENTRY-INX)          PPLELMEX
084300        MOVE '.' TO DISPLAY-CHAR (D-SUB)                          PPLELMEX
084400        ADD 1 TO E-SUB, D-SUB.                                    PPLELMEX
084500     IF ELEM-RETR-PACK             (ELEM-RETR-ENTRY-INX)          PPLELMEX
084600        IF ELEM-RETR-EDITED        (ELEM-RETR-ENTRY-INX)          PPLELMEX
084700           MOVE DSPLY-CHAR       (C-SUB) TO DISPLAY-CHAR (D-SUB)  PPLELMEX
084800        ELSE                                                      PPLELMEX
084900           MOVE DISPLAY-NUM-CHAR (C-SUB) TO DISPLAY-CHAR (D-SUB)  PPLELMEX
085000     ELSE                                                         PPLELMEX
085100        SET RECORD-CHARS-INX TO C-SUB                             PPLELMEX
085200        MOVE RECORD-CHARS (RECORD-AREA-INX, RECORD-CHARS-INX) TO  PPLELMEX
085300           DISPLAY-CHAR (D-SUB), DSPLY-CHAR (F-SUB).              PPLELMEX
085400*    IF (ELEM-RETR-NUMERIC         (ELEM-RETR-ENTRY-INX) AND      PPLELMEX
085500*        NOT ELEM-RETR-PACK        (ELEM-RETR-ENTRY-INX) AND      PPLELMEX
085600*        RECORD-CHARS (RECORD-AREA-INX, RECORD-CHARS-INX)         PPLELMEX
085700*           NOT NUMERIC)                                          PPLELMEX
085800*       MOVE '***  DATA EXCEPTION  ***' TO DISPLAY-CONTENT        PPLELMEX
085900*       MOVE '0' TO                                               PPLELMEX
086000*          ELEM-RETR-EXTR-STATUS   (ELEM-RETR-ENTRY-INX)          PPLELMEX
086100*       GO TO C250-MOVE-ELEMENT-EXIT.                             PPLELMEX
086200     IF E-SUB < EXTERNAL-LENGTH                                   PPLELMEX
086300        ADD 1 TO C-SUB, D-SUB, E-SUB, F-SUB                       PPLELMEX
086400        GO TO C253-MOVE-ELEMENT-CHARS.                            PPLELMEX
086500 EJECT                                                            PPLELMEX
086600 C254-EDIT-ELEMENT.                                               PPLELMEX
086700     IF ELEM-RETR-NUMERIC          (ELEM-RETR-ENTRY-INX) AND      PPLELMEX
086800        ELEM-RETR-PACK             (ELEM-RETR-ENTRY-INX)          PPLELMEX
086900        INSPECT DISPLAY-CONTENT REPLACING LEADING '0' BY ' '.     PPLELMEX
087000     IF ELEM-RETR-NUMERIC          (ELEM-RETR-ENTRY-INX)          PPLELMEX
087100        ADD 1 TO D-SUB, EXTERNAL-LENGTH                           PPLELMEX
087200        MOVE SIGN-CHAR TO DISPLAY-CHAR (D-SUB).                   PPLELMEX
087300     IF ELEM-RETR-DATE             (ELEM-RETR-ENTRY-INX)          PPLELMEX
087400        IF ELEM-RETR-INT-LENGTH    (ELEM-RETR-ENTRY-INX) = 4      PPLELMEX
087500           MOVE DISPLAY-CONTENT    TO  XMDY-YYMM                  PPLELMEX
087600           MOVE CORR XMDY-YYMM     TO  XMDY-MM-YY                 PPLELMEX
087700           MOVE XMDY-MM-YY         TO  DISPLAY-CONTENT            PPLELMEX
087800           ADD 1 TO EXTERNAL-LENGTH                               PPLELMEX
087900        ELSE                                                      PPLELMEX
088000           MOVE DISPLAY-CONTENT    TO  XMDY-YYMMDD                PPLELMEX
088100           MOVE CORR XMDY-YYMMDD   TO  XMDY-MM-DD-YY              PPLELMEX
088200           MOVE XMDY-MM-DD-YY      TO  DISPLAY-CONTENT            PPLELMEX
088300           ADD 2 TO EXTERNAL-LENGTH.                              PPLELMEX
088400 SKIP2                                                            PPLELMEX
088500 C250-MOVE-ELEMENT-EXIT.                                          PPLELMEX
088600     EXIT.                                                        PPLELMEX
088700 EJECT                                                            PPLELMEX
088800 C300-EXTRACT-FALSE-VAR.                                          PPLELMEX
088900     MOVE ELEM-RETR-FALSE-VAR      (ELEM-RETR-ENTRY-INX) TO       PPLELMEX
089000        CASE-NUMBER.                                              PPLELMEX
089100     GO TO C310-EXTRACT-FALSE-VAR-1                               PPLELMEX
089200        DEPENDING ON CASE-NUMBER.                                 PPLELMEX
089300     GO TO C399-EXTRACT-FALSE-VAR-EXIT.                           PPLELMEX
089400 SKIP2                                                            PPLELMEX
089500 C310-EXTRACT-FALSE-VAR-1.                                        PPLELMEX
089600     SET RECORD-AREA-INX TO 1.                                    PPLELMEX
089700     MOVE RECORD-SS-NO (RECORD-AREA-INX) TO                       PPLELMEX
089800        ELEM-RETR-VALUE            (ELEM-RETR-ENTRY-INX).         PPLELMEX
089900     GO TO C399-EXTRACT-FALSE-VAR-EXIT.                           PPLELMEX
090000 SKIP2                                                            PPLELMEX
090100 C399-EXTRACT-FALSE-VAR-EXIT.                                     PPLELMEX
090200     EXIT.                                                        PPLELMEX
090300 EJECT                                                            PPLELMEX
090400******************************************************************PPLELMEX
090500*                                                                *PPLELMEX
090600*                         I/O ROUTINES                           *PPLELMEX
090700*                                                                *PPLELMEX
090800******************************************************************PPLELMEX
090900*                                                                 PPLELMEX
091000*                                                                 PPLELMEX
091100 X000-CALL-PPIOCTL.                                               PPLELMEX
091200     MOVE 0 TO PPIOCTL-ERROR-FOUND-FLAG.                          PPLELMEX
091300     CALL  'PPIOCTL'  USING  CTL-INTERFACE  CTL-SEGMENT-TABLE.    PPLELMEX
091400     IF IO-CTL-ERROR-CODE > ZERO                                  PPLELMEX
091500        DISPLAY CTL-INTERFACE                                     PPLELMEX
091600        MOVE IO-CTL-ERROR-CODE TO ELEM-RETR-IO-ERROR-CODE         PPLELMEX
091700        MOVE 1 TO PPIOCTL-ERROR-FOUND-FLAG.                       PPLELMEX
091800 EJECT                                                            PPLELMEX
091900 X100-READ-LOAD-DET.                                              PPLELMEX
092000     MOVE INIT-ELEM-RETR-DET-OUTPUT TO                            PPLELMEX
092100        ELEM-RETR-OUTPUT           (ELEM-RETR-ENTRY-INX).         PPLELMEX
092200     MOVE ELEM-RETR-NO             (ELEM-RETR-ENTRY-INX) TO       PPLELMEX
092300        IO-CTL-NOM-SEG.                                           PPLELMEX
092400     PERFORM X000-CALL-PPIOCTL.                                   PPLELMEX
092500     IF PPIOCTL-ERROR-FOUND                                       PPLELMEX
092600        MOVE  '***  NO DET ENTRY FOUND  ***' TO                   PPLELMEX
092700           ELEM-RETR-VALUE         (ELEM-RETR-ENTRY-INX)          PPLELMEX
092800        MOVE 17 TO ELEM-RETR-ERROR-CODE                           PPLELMEX
092900        GO TO X100-READ-LOAD-DET-EXIT.                            PPLELMEX
093000     MOVE CTL-SEG-TAB TO PBP3N-DATA-ELEMENT-SEGMENT.              PPLELMEX
093100*    DISPLAY PBP3N-DATA-ELEMENT-SEGMENT.                          PPLELMEX
093200     IF PBP100-DELETE = HIGH-VALUE                                PPLELMEX
093300        MOVE  '***  ELEMENT DELETED  ***' TO                      PPLELMEX
093400           ELEM-RETR-VALUE         (ELEM-RETR-ENTRY-INX)          PPLELMEX
093500        MOVE 18 TO ELEM-RETR-ERROR-CODE                           PPLELMEX
093600        GO TO X100-READ-LOAD-DET-EXIT.                            PPLELMEX
093700     MOVE 1 TO X.                                                 PPLELMEX
093800     MOVE 0 TO LOC-FOUND-FLAG.                                    PPLELMEX
093900     PERFORM X101-SET-SEG-LOC                                     PPLELMEX
094000        UNTIL LOC-FOUND OR X > RECORD-LIMIT.                      PPLELMEX
094100     IF NOT LOC-FOUND                                             PPLELMEX
094200        MOVE  '***  NO SEGMENT FOR ELEM  ***' TO                  PPLELMEX
094300           ELEM-RETR-VALUE         (ELEM-RETR-ENTRY-INX)          PPLELMEX
094400        MOVE 19 TO ELEM-RETR-ERROR-CODE                           PPLELMEX
094500        GO TO X100-READ-LOAD-DET-EXIT.                            PPLELMEX
094600     MOVE 1 TO X.                                                 PPLELMEX
094700     MOVE 0 TO EDIT-ERROR-FLAG.                                   PPLELMEX
094800     PERFORM X105-SCAN-EDIT-AREA.                                 PPLELMEX
094900     IF EDIT-ERROR-FOUND                                          PPLELMEX
095000        MOVE  '***  BAD EDIT AREA  ***' TO                        PPLELMEX
095100           ELEM-RETR-VALUE         (ELEM-RETR-ENTRY-INX)          PPLELMEX
095200        DISPLAY ELEM-RETR-ENTRY    (ELEM-RETR-ENTRY-INX)          PPLELMEX
095300        MOVE 20 TO ELEM-RETR-ERROR-CODE                           PPLELMEX
095400        GO TO X100-READ-LOAD-DET-EXIT.                            PPLELMEX
095500     IF NOT ELEM-RETR-DATE         (ELEM-RETR-ENTRY-INX)          PPLELMEX
095600        IF NUMERIC-DATA                                           PPLELMEX
095700           MOVE '1' TO                                            PPLELMEX
095800              ELEM-RETR-DATA-TYPE  (ELEM-RETR-ENTRY-INX)          PPLELMEX
095900        ELSE                                                      PPLELMEX
096000           MOVE '2' TO                                            PPLELMEX
096100              ELEM-RETR-DATA-TYPE  (ELEM-RETR-ENTRY-INX).         PPLELMEX
096200     MOVE '1' TO                                                  PPLELMEX
096300        ELEM-RETR-INIT-STATUS      (ELEM-RETR-ENTRY-INX).         PPLELMEX
096400     MOVE PBP100-CK-DIGIT TO                                      PPLELMEX
096500        ELEM-RETR-CHECK-DIGIT      (ELEM-RETR-ENTRY-INX).         PPLELMEX
096600     MOVE PBP100-INT-LNTH TO                                      PPLELMEX
096700        ELEM-RETR-INT-LENGTH       (ELEM-RETR-ENTRY-INX).         PPLELMEX
096800     MOVE PBP100-EXT-LNTH TO                                      PPLELMEX
096900        ELEM-RETR-EXT-LENGTH       (ELEM-RETR-ENTRY-INX).         PPLELMEX
097000     MOVE PBP100-DEC-POINT TO                                     PPLELMEX
097100        ELEM-RETR-DEC-SIZE         (ELEM-RETR-ENTRY-INX).         PPLELMEX
097200     MOVE PBP100-STORE-MODE TO                                    PPLELMEX
097300        ELEM-RETR-MODE             (ELEM-RETR-ENTRY-INX).         PPLELMEX
097400     MOVE PBP100-START-POSITION TO                                PPLELMEX
097500        ELEM-RETR-START-POS        (ELEM-RETR-ENTRY-INX).         PPLELMEX
097600 SKIP2                                                            PPLELMEX
097700 X100-READ-LOAD-DET-EXIT.                                         PPLELMEX
097800     EXIT.                                                        PPLELMEX
097900 EJECT                                                            PPLELMEX
098000 X101-SET-SEG-LOC.                                                PPLELMEX
098100     IF SEGMENT-TYPE (X) = ELEM-RETR-SEG (ELEM-RETR-ENTRY-INX)    PPLELMEX
098200        MOVE X TO ELEM-RETR-SEG-LOC      (ELEM-RETR-ENTRY-INX)    PPLELMEX
098300        MOVE 1 TO LOC-FOUND-FLAG                                  PPLELMEX
098400     ELSE                                                         PPLELMEX
098500        ADD 1 TO X.                                               PPLELMEX
098600 SKIP2                                                            PPLELMEX
098700 X105-SCAN-EDIT-AREA.                                             PPLELMEX
098800     IF PBP100-EDIT-AREA (X) = SPACES                             PPLELMEX
098900        NEXT SENTENCE                                             PPLELMEX
099000     ELSE                                                         PPLELMEX
099100         IF PBP100-EDIT-AREA (X) = 'D'                            PPLELMEX
099200             MOVE '3' TO ELEM-RETR-DATA-TYPE (ELEM-RETR-ENTRY-INX)PPLELMEX
099300         ELSE                                                     PPLELMEX
099400             IF PBP100-EDIT-AREA (X) = 'V'                        PPLELMEX
099500                 COMPUTE X   =                                    PPLELMEX
099600                     X   +   PBP100-EXT-LNTH +   1                PPLELMEX
099700                     GO TO X105-SCAN-EDIT-AREA                    PPLELMEX
099800             ELSE                                                 PPLELMEX
099900                 IF PBP100-EDIT-AREA (X) = 'R'                    PPLELMEX
100000                     COMPUTE X   =                                PPLELMEX
100100                         X   +   (2  *   PBP100-EXT-LNTH) + 1     PPLELMEX
100200                     GO TO X105-SCAN-EDIT-AREA                    PPLELMEX
100300                 ELSE                                             PPLELMEX
100400                     IF      PBP100-EDIT-AREA (X) = 'G'           PPLELMEX
100500                         OR  PBP100-EDIT-AREA (X) = 'T'           PPLELMEX
100600                         ADD 3   TO  X                            PPLELMEX
100700                         GO TO X105-SCAN-EDIT-AREA                PPLELMEX
100800                     ELSE                                         PPLELMEX
100900                         MOVE  1 TO EDIT-ERROR-FLAG.              PPLELMEX
