000060*==========================================================%      ASOB99
000070*=    PROGRAM: PPLMATCH                                   =%      ASOB99
000080*=    CHANGE # ASO-B99      PROJ. REQUEST: ASO-B99        =%      ASOB99
000090*=    NAME: R. SWIDERSKI    MODIFICATION DATE: 1/12/1990  =%      ASOB99
000091*=                                                        =%      ASOB99
000092*=    DESCRIPTION: PROGRAM WAS MODIFIED TO CONFORM        =%      ASOB99
000093*=    TO COBOL II STANDARDS.                              =%      ASOB99
000094*==========================================================%      ASOB99
000100 IDENTIFICATION DIVISION.
000200 PROGRAM-ID.    PPLMATCH.
000300 AUTHOR.        R SWIDERSKI.
000400 INSTALLATION.  UCSD ADCOM SYSTEMS.
000500 DATE-WRITTEN.  SEPTEMBER, 1989.
000600 DATE-COMPILED.   YOU KNOW.
000700     SKIP1
000800 ENVIRONMENT DIVISION.
000900 CONFIGURATION SECTION.
001000 SOURCE-COMPUTER.  IBM-4341.
001100 OBJECT-COMPUTER.  IBM-4341.
001200     EJECT
001300 INPUT-OUTPUT SECTION.
001400     SKIP1
001500 FILE-CONTROL.
001600     SKIP1
001700     SELECT TABLE-FILE
001800         ASSIGN TO UT-S-TABLEFIL.
001900     SKIP1
002000     SELECT DATA-FILE
002100         ASSIGN TO UT-S-DATAFILE.
002200     SKIP1
002300     SELECT OUTPUT-FILE
002400         ASSIGN TO UT-S-OUTPUT.
002500     SKIP1
002600     SELECT SORT-FILE
002700         ASSIGN TO UT-S-SORTWK01.
002800     EJECT
002900 DATA DIVISION.
003000     SKIP1
003100 FILE  SECTION.
003200     SKIP1
003300 FD  DATA-FILE
003400     RECORD CONTAINS 0 CHARACTERS
003500     BLOCK CONTAINS 0 RECORDS
003510     RECORDING MODE IS F
003600     LABEL RECORDS ARE STANDARD.
003700 01  DATA-RECORD                 PIC X(500).
003800     SKIP1
003900 FD  TABLE-FILE
004000     RECORD CONTAINS 0 CHARACTERS
004100     BLOCK CONTAINS 0 RECORDS
004110     RECORDING MODE IS F
004200     LABEL RECORDS ARE STANDARD.
004300 01  TABLE-RECORD                PIC X(500).
004400     SKIP1
004500 FD  OUTPUT-FILE
004600     RECORD CONTAINS 500 CHARACTERS
004700     BLOCK CONTAINS 0 RECORDS
004710     RECORDING MODE IS F
004800     LABEL RECORDS ARE STANDARD.
004900 01  OUTPUT-FILE-RECORD          PIC X(500).
005000     SKIP1
005100 SD  SORT-FILE
005110     RECORD CONTAINS 60 CHARACTERS.
005200 01  SORT-RECORD.
005300     05  KEY-OF-SORT-RECORD      PIC X(30).
005400     05  FILLER                  PIC X(30).
005500     EJECT
005600 WORKING-STORAGE SECTION.
005700     SKIP1
005800 01  ARRAY.
005900     05  MAXIMUM-ALLOWABLE-ELEMENTS
006010                                 PIC 9(5)        VALUE 72500.
006100     05  NUMBER-OF-ELEMENTS-IN-ARRAY
006200                                 PIC 9(5).
006300     05  ELEMENT-SS              PIC 9(5).
006400     05  TARGET-SS               PIC S9(4)       COMP.
006500     05  RESULT-SS               PIC S9(4)       COMP.
006600     05  ARRAY-ELEMENTS.
006700         10  ARRAY-ELEMENT       OCCURS 1 TO 72500 TIMES
006710                                 DEPENDING ON
006720                                     NUMBER-OF-ELEMENTS-IN-ARRAY
006800                                 ASCENDING KEY
006900                                     TARGETS-AMALGAMATION
007000                                 INDEXED BY ARRAY-ELEMENT-INDEX.
007100             15  TARGETS-AMALGAMATION.
007200                 20  TARGET-POSITION OCCURS 30 TIMES
007300                                 PIC X(1).
007400             15  RESULTS-AMALGAMATION.
007500                 20  RESULT-POSITION OCCURS 30 TIMES
007600                                 PIC X(1).
007700     SKIP1
007800 01  ARRAY-SEARCH-KEY-DATA.
007900     05  ARRAY-SEARCH-KEY-SS     PIC S9(4)       COMP.
008000     05  ARRAY-SEARCH-KEY.
008100         10  ARRAY-SEARCH-KEY-POSITION
008200                                 OCCURS 30 TIMES
008300                                 PIC X(1).
008400     SKIP1
008500 77  TABLE-FILE-EOF-SW           PIC X(3)        VALUE SPACES.
008600     88  AT-END-OF-TABLE-FILE                    VALUE 'YES'.
008700     SKIP1
008800 77  SORT-FILE-EOF-SW            PIC X(3).
008900     88  AT-END-OF-SORT-FILE                     VALUE 'YES'.
009000     SKIP1
009100 77  DATA-FILE-EOF-SW            PIC X(3).
009200     88  AT-END-OF-DATA-FILE                     VALUE 'YES'.
009300     SKIP1
009400 01  DATA-RECORD-DATA.
009500     05  DATA-RECORD-SS          PIC S9(4)       COMP.
009600     05  DATA-RECORD-WS.
009700         10  DATA-RECORD-POSITION
009800                                 OCCURS 500 TIMES
009900                                 PIC X(1).
010000     SKIP1
010100 01  TABLE-RECORD-DATA.
010200     05  TABLE-RECORD-SS         PIC S9(4)       COMP.
010300     05  TABLE-RECORD-WS.
010400         10  TABLE-RECORD-POSITION
010500                                 OCCURS 500 TIMES
010600                                 PIC X(1).
010700     SKIP1
010800 01  NUMBER-OF-TARGETS-SS        PIC S9(4)       COMP.
010900     SKIP1
011000 01  NUMBER-OF-RESULTS-SS        PIC S9(4)       COMP.
011100     SKIP1
011110 01  LAST-AMALGAMATION-POSITION  PIC 9(2)        VALUE 30.
011120     SKIP1
011130 01  MAXIMUM-OUTPUT-RECORD-LENGTH
011131                                 PIC 9(3)        VALUE 500.
011140     SKIP1
011200 01  ERROR-CODES.
011300     05  SUCCESSFUL-PROCESSING-CODE
011400                                 PIC X(1)        VALUE ZERO.
011500     05  NULL-TABLE-FILE-CODE    PIC X(1)        VALUE '1'.
011600     05  EXCESS-TABLE-RECORDS-CODE
011700                                 PIC X(1)        VALUE '2'.
011800     05  NULL-DATA-FILE-CODE     PIC X(1)        VALUE '3'.
011900     SKIP1
012000 01  ERROR-MESSAGES.
012100     05  SUCCESSFUL-PROCESSING-MESSAGE
012200                                 PIC X(37)       VALUE
012300         'JOB PROCESSING COMPLETED SUCCESSFULLY'.
012400     05  NULL-TABLE-FILE-MESSAGE
012500                                 PIC X(29)       VALUE
012600         'NULL TABLE FILE - JOB ABORTED'.
012700     05  EXCESS-TABLE-RECORDS-MESSAGE
012800                                 PIC X(57)       VALUE
012900         'EXCESS TABLE RECORDS > 72,500 MAX ALLOWED - JOB ABORTED
012910-        ' '.
013000     05  NULL-DATA-FILE-MESSAGE  PIC X(28)       VALUE
013100         'NULL DATA FILE - JOB ABORTED'.
013200     SKIP1
013300 LINKAGE SECTION.
013400     SKIP1
013500 01  PARAMETERS.
013600     COPY CLWSL802.
013700     EJECT
013800 PROCEDURE DIVISION USING PARAMETERS.
013900     SKIP1
014000 MAIN SECTION.
014100     SKIP1
014200 MAIN-PARAGRAPH.
014300     OPEN  INPUT DATA-FILE
014400                 TABLE-FILE
014500          OUTPUT OUTPUT-FILE.
014600     PERFORM READ-TABLE-FILE.
014700     IF AT-END-OF-TABLE-FILE
014800         MOVE NULL-TABLE-FILE-CODE TO ERROR-CODE
014900         MOVE NULL-TABLE-FILE-MESSAGE TO ERROR-MESSAGE
015000         PERFORM END-PROCESSING.
015200     MOVE ZEROS TO NUMBER-OF-ELEMENTS-IN-ARRAY
015300                   ELEMENT-SS.
015400     PERFORM PROCESS-TABLE-FILE-ROUTINE
015500         UNTIL ((AT-END-OF-TABLE-FILE)
015600             OR (NUMBER-OF-ELEMENTS-IN-ARRAY >
015700                     MAXIMUM-ALLOWABLE-ELEMENTS)).
015800     IF AT-END-OF-TABLE-FILE
015900         MOVE NUMBER-OF-ELEMENTS-IN-ARRAY TO
016000             TABLE-RECORDS-READ-COUNTER
016100     ELSE
016200         MOVE EXCESS-TABLE-RECORDS-CODE TO ERROR-CODE
016300         MOVE EXCESS-TABLE-RECORDS-MESSAGE TO ERROR-MESSAGE
016400         PERFORM END-PROCESSING.
016500     SORT SORT-FILE
016600         ASCENDING KEY KEY-OF-SORT-RECORD
016700          INPUT PROCEDURE RELEASE-ARRAY-ELEMENTS-TO-SORT
016710                     THRU RELEASE-RECORDS-SECTION-EXIT
016800         OUTPUT PROCEDURE RETURN-SORTED-RECORDS-TO-ARRAY.
016900     PERFORM READ-DATA-FILE.
017000     IF AT-END-OF-DATA-FILE
017100         MOVE NULL-DATA-FILE-CODE TO ERROR-CODE
017200         MOVE NULL-DATA-FILE-MESSAGE TO ERROR-MESSAGE
017300         PERFORM END-PROCESSING.
017400     MOVE ZEROS TO DATA-RECORDS-READ-COUNTER
017500                   RECORDS-MATCHED-COUNTER
017510                   RECORDS-NOT-MATCHED-COUNTER
017600                   OUTPUT-RECORDS-WRITTEN-COUNTER.
017700     PERFORM PROCESS-DATA-FILE-ROUTINE
017800         UNTIL AT-END-OF-DATA-FILE.
017900     MOVE SUCCESSFUL-PROCESSING-CODE TO ERROR-CODE.
018000     MOVE SUCCESSFUL-PROCESSING-MESSAGE TO ERROR-MESSAGE.
018100     PERFORM END-PROCESSING.
018200     SKIP1
018300 END-PROCESSING.
018400     CLOSE DATA-FILE
018500           TABLE-FILE
018600           OUTPUT-FILE.
018700     GOBACK.
018800     EJECT
018900 PROCESS-TABLE-FILE SECTION.
019000     SKIP1
019100 PROCESS-TABLE-FILE-ROUTINE.
019200     ADD 1 TO NUMBER-OF-ELEMENTS-IN-ARRAY
019300              ELEMENT-SS.
019400     MOVE ZEROS TO NUMBER-OF-TARGETS-SS
019500                   TARGET-SS.
019600     PERFORM GET-TABLE-RECORD-TARGETS NUMBER-OF-TARGETS TIMES.
019610     PERFORM TARGET-HIGH-VALUE-FILL-ROUTINE
019620         UNTIL TARGET-SS = LAST-AMALGAMATION-POSITION.
019700     MOVE ZEROS TO NUMBER-OF-RESULTS-SS
019800                   RESULT-SS.
019900     PERFORM GET-TABLE-RECORD-RESULTS NUMBER-OF-RESULTS TIMES.
019910     PERFORM RESULT-HIGH-VALUE-FILL-ROUTINE
019920         UNTIL RESULT-SS = LAST-AMALGAMATION-POSITION.
020000     PERFORM READ-TABLE-FILE.
020100     SKIP1
020200 GET-TABLE-RECORD-TARGETS.
020300     ADD 1 TO NUMBER-OF-TARGETS-SS.
020400     MOVE START-OF-TARGET-ON-TABLE-FILE (NUMBER-OF-TARGETS-SS) TO
020500         TABLE-RECORD-SS.
020600     PERFORM GET-TABLE-RECORD-TARGET
020700         TARGET-LENGTH (NUMBER-OF-TARGETS-SS) TIMES.
020800     SKIP1
020900 GET-TABLE-RECORD-TARGET.
021000     ADD 1 TO TARGET-SS.
021100     MOVE TABLE-RECORD-POSITION (TABLE-RECORD-SS) TO
021200         TARGET-POSITION (ELEMENT-SS, TARGET-SS).
021300     ADD 1 TO TABLE-RECORD-SS.
021310     SKIP1
021320 TARGET-HIGH-VALUE-FILL-ROUTINE.
021330     ADD 1 TO TARGET-SS.
021340     MOVE HIGH-VALUE TO TARGET-POSITION (ELEMENT-SS, TARGET-SS).
021400     SKIP1
021500 GET-TABLE-RECORD-RESULTS.
021600     ADD 1 TO NUMBER-OF-RESULTS-SS.
021700     MOVE START-OF-RESULT-ON-TABLE-FILE (NUMBER-OF-RESULTS-SS) TO
021800         TABLE-RECORD-SS.
021900     PERFORM GET-TABLE-RECORD-RESULT
022000         RESULT-LENGTH (NUMBER-OF-RESULTS-SS) TIMES.
022100     SKIP1
022200 GET-TABLE-RECORD-RESULT.
022300     ADD 1 TO RESULT-SS.
022400     MOVE TABLE-RECORD-POSITION (TABLE-RECORD-SS) TO
022500         RESULT-POSITION (ELEMENT-SS, RESULT-SS).
022600     ADD 1 TO TABLE-RECORD-SS.
022610     SKIP1
022620 RESULT-HIGH-VALUE-FILL-ROUTINE.
022630     ADD 1 TO RESULT-SS.
022640     MOVE HIGH-VALUE TO RESULT-POSITION (ELEMENT-SS, RESULT-SS).
022700     EJECT
022800 RELEASE-ARRAY-ELEMENTS-TO-SORT SECTION.
022900     SKIP1
023000 MOVE-ELEMENTS-TO-SORT-FILE.
023100     MOVE ZERO TO ELEMENT-SS.
023200     PERFORM MOVE-ELEMENT-TO-SORT-FILE
023300         UNTIL ELEMENT-SS NOT < NUMBER-OF-ELEMENTS-IN-ARRAY.
023340     GO TO RELEASE-RECORDS-SECTION-EXIT.
023400     SKIP1
023500 MOVE-ELEMENT-TO-SORT-FILE.
023600     ADD 1 TO ELEMENT-SS.
023700     RELEASE SORT-RECORD FROM ARRAY-ELEMENT (ELEMENT-SS).
023701     SKIP1
023710 RELEASE-RECORDS-SECTION-EXIT.
023720     EXIT.
023800     EJECT
023900 RETURN-SORTED-RECORDS-TO-ARRAY SECTION.
024000     SKIP1
024100 MOVE-ELEMENTS-FROM-SORT-FILE.
024210     MOVE ZERO TO ELEMENT-SS.
024300     PERFORM MOVE-ELEMENT-FROM-SORT-FILE
024400         UNTIL ELEMENT-SS NOT < NUMBER-OF-ELEMENTS-IN-ARRAY.
024410     GO TO RETURN-RECORDS-SECTION-EXIT.
024500     SKIP1
024600 MOVE-ELEMENT-FROM-SORT-FILE.
024700     ADD 1 TO ELEMENT-SS.
024800     RETURN SORT-FILE INTO ARRAY-ELEMENT (ELEMENT-SS)
024900         AT END
025000             MOVE 'YES' TO SORT-FILE-EOF-SW.
025010     SKIP1
025020 RETURN-RECORDS-SECTION-EXIT.
025030     EXIT.
025100     EJECT
025200 PROCESS-DATA-FILE SECTION.
025300     SKIP1
025400 PROCESS-DATA-FILE-ROUTINE.
025500     ADD 1 TO DATA-RECORDS-READ-COUNTER.
025600     MOVE ZERO TO NUMBER-OF-TARGETS-SS
025700                  ARRAY-SEARCH-KEY-SS.
025800     MOVE HIGH-VALUES TO ARRAY-SEARCH-KEY.
025900     PERFORM GET-DATA-RECORD-TARGETS NUMBER-OF-TARGETS TIMES.
026000     SEARCH ALL ARRAY-ELEMENT
026100         AT END
026200             PERFORM MISMATCH-PROCESSING-ROUTINE
026300         WHEN TARGETS-AMALGAMATION (ARRAY-ELEMENT-INDEX) =
026400                  ARRAY-SEARCH-KEY
026410             PERFORM MATCH-PROCESSING-ROUTINE.
027100     PERFORM READ-DATA-FILE.
027200     SKIP1
027300 GET-DATA-RECORD-TARGETS.
027400     ADD 1 TO NUMBER-OF-TARGETS-SS.
027500     MOVE START-OF-TARGET-ON-DATA-FILE (NUMBER-OF-TARGETS-SS) TO
027600         DATA-RECORD-SS.
027700     PERFORM GET-DATA-RECORD-TARGET
027800         TARGET-LENGTH (NUMBER-OF-TARGETS-SS) TIMES.
027900     SKIP1
028000 GET-DATA-RECORD-TARGET.
028100     ADD 1 TO ARRAY-SEARCH-KEY-SS.
028200     MOVE DATA-RECORD-POSITION (DATA-RECORD-SS) TO
028300         ARRAY-SEARCH-KEY-POSITION (ARRAY-SEARCH-KEY-SS).
028400     ADD 1 TO DATA-RECORD-SS.
028500     EJECT
028501 MATCH-PROCESSING SECTION.
028502     SKIP1
028503 MATCH-PROCESSING-ROUTINE.
028504     ADD 1 TO RECORDS-MATCHED-COUNTER.
028505     IF EXTRACT-OPTION-READ
028506         PERFORM WRITE-OUTPUT-RECORD
028507         ADD 1 TO OUTPUT-RECORDS-WRITTEN-COUNTER
028508     ELSE
028509         SET ELEMENT-SS TO ARRAY-ELEMENT-INDEX
028510         MOVE 1 TO NUMBER-OF-RESULTS-SS
028511         MOVE ZERO TO RESULT-SS
028512         PERFORM OUTPUT-RESULTS-ROUTINE
028513             NUMBER-OF-RESULTS TIMES.
028514     EJECT
028600 MISMATCH-PROCESSING SECTION.
028700     SKIP1
028800 MISMATCH-PROCESSING-ROUTINE.
028810     ADD 1 TO RECORDS-NOT-MATCHED-COUNTER.
028820     IF EXTRACT-OPTION-READ
028830         NEXT SENTENCE
028831     ELSE
028832     IF ((EXCLUDE-OPTION-READ) OR
028900         (NO-DEFAULT-RESULT-FOR-MISMATCH))
029000         PERFORM WRITE-OUTPUT-RECORD
029100         ADD 1 TO OUTPUT-RECORDS-WRITTEN-COUNTER
029200     ELSE
029300         MOVE 1 TO NUMBER-OF-RESULTS-SS
029400         PERFORM DEFAULT-RESULT-ROUTINE
029500             NUMBER-OF-RESULTS TIMES.
029600     SKIP1
029700 DEFAULT-RESULT-ROUTINE.
029800     MOVE START-OF-RESULT-ON-DATA-FILE (NUMBER-OF-RESULTS-SS) TO
029900         DATA-RECORD-SS.
030000     PERFORM MOVE-DEFAULT-RESULT
030100         RESULT-LENGTH (NUMBER-OF-RESULTS-SS) TIMES.
030200     IF NUMBER-OF-RESULTS-SS NOT < NUMBER-OF-RESULTS
030300         PERFORM WRITE-OUTPUT-RECORD
030400         ADD 1 TO OUTPUT-RECORDS-WRITTEN-COUNTER
030500     ELSE
030600         ADD 1 TO NUMBER-OF-RESULTS-SS.
030700     SKIP1
030800 MOVE-DEFAULT-RESULT.
030900     MOVE DEFAULT-RESULT TO DATA-RECORD-POSITION (DATA-RECORD-SS).
031000     ADD 1 TO DATA-RECORD-SS.
031100     EJECT
031200 OUTPUT-RESULTS SECTION.
031300     SKIP1
031400 OUTPUT-RESULTS-ROUTINE.
031500     MOVE START-OF-RESULT-ON-DATA-FILE (NUMBER-OF-RESULTS-SS) TO
031600         DATA-RECORD-SS.
031700     PERFORM MOVE-RESULT
031800         RESULT-LENGTH (NUMBER-OF-RESULTS-SS) TIMES.
031900     IF NUMBER-OF-RESULTS-SS NOT < NUMBER-OF-RESULTS
032000         PERFORM WRITE-OUTPUT-RECORD
032100         ADD 1 TO OUTPUT-RECORDS-WRITTEN-COUNTER
032200     ELSE
032300         ADD 1 TO NUMBER-OF-RESULTS-SS.
032400     SKIP1
032500 MOVE-RESULT.
032600     ADD 1 TO RESULT-SS.
032700     MOVE RESULT-POSITION (ELEMENT-SS, RESULT-SS) TO
032800         DATA-RECORD-POSITION (DATA-RECORD-SS).
032900     ADD 1 TO DATA-RECORD-SS.
033000     EJECT
033100 INPUT-AND-OUTPUT SECTION.
033200     SKIP1
033300 READ-TABLE-FILE.
033400     READ TABLE-FILE INTO TABLE-RECORD-WS
033500         AT END
033600             MOVE 'YES' TO TABLE-FILE-EOF-SW.
033700     SKIP1
033800 READ-DATA-FILE.
033810     MOVE SPACES TO DATA-RECORD-WS.
033900     READ DATA-FILE INTO DATA-RECORD-WS
034000         AT END
034100             MOVE 'YES' TO DATA-FILE-EOF-SW.
034200     SKIP1
034300 WRITE-OUTPUT-RECORD.
034400     WRITE OUTPUT-FILE-RECORD FROM DATA-RECORD-WS.
