000100*==========================================================%      UCSD9999
000200*= UCSD LOCAL CHANGES HAVE BEEN IMPLEMENTED.              =%      UCSD9999
000300*= COLUMN 73 THRU 80 DENOTES CHANGE NUMBER - UCSD9999     =%      UCSD9999
000400*=                                                        =%      UCSD9999
000500*==========================================================%      UCSD9999
000010*==========================================================%      UCSD0006
000700*=    PROGRAM: PPP142                                     =%      UCSD0006
000800*=    CHANGE #0006          PROJ. REQUEST: IBM OFFLOAD    =%      UCSD0006
000900*=    NAME: JIM PIERCE      MODIFICATION DATE: 04/13/91   =%      UCSD0006
001000*=                                                        =%      UCSD0006
001100*=    DESCRIPTION: COPY MEMBER CLPDP142 WAS MODIFIED      =%      UCSD0006
001200*=        TO INCLUDE TOT-CHANGE-RCS-IN  IN CONTROL REPORT =%      UCSD0006
000050*==========================================================%      UCSD0006
000060*==========================================================%      UCSD0006
000070*=    PROGRAM: PPP142                                     =%      UCSD0006
000080*=    CHANGE # 0006         PROJ. REQUEST: IBM OFFLOAD    =%      UCSD0006
000090*=    NAME: R. P. YINGLING  MODIFICATION DATE: 05/03/90   =%      UCSD0006
000091*=                                                        =%      UCSD0006
000092*=    DESCRIPTION:                                        =%      UCSD0006
000093*=     PROGRAM WAS MODIFIED TO PRODUCE PRODUCTION         =%      UCSD0006
000094*=     CONTROL REPORTS.                                   =%      UCSD0006
000096*==========================================================%      UCSD0006
001500**************************************************************/   36070535
001600*  PROGRAM:  PPP142                                          */   36070535
001700*  RELEASE # ___0535___   SERVICE REQUEST NO(S) __3607______ */   36070535
001800*  NAME ______JAG______   MODIFICATION DATE ____02/06/91_____*/   36070535
001900*  DESCRIPTION: ADDED UPDATE OF THE ACTION CODES TABLE.      */   36070535
002000**************************************************************/   36070535
000100**************************************************************/   36050446
000200*  PROGRAM:  PPP142                                          */   36050446
000300*  RELEASE # ___0446___   SERVICE REQUEST NO(S) __3605______ */   36050446
000400*  NAME ___B. JAMES____   MODIFICATION DATE ____01/31/90_____*/   36050446
000500*  DESCRIPTION: INITIAL RELEASE OF DB2 EDB BATCH UPDATE PGM  */   36050446
000600**************************************************************/   36050446
000700 IDENTIFICATION DIVISION.                                         PPP142
000800 PROGRAM-ID. PPP142                                               PPP142
000900 AUTHOR. BRUCE JAMES                                              PPP142
001000 DATE-WRITTEN.  NOV. 14, 1989.                                    PPP142
001100 DATE-COMPILED.                                                   PPP142
001200 INSTALLATION. UNIVERSITY OF CALIFORNIA                           PPP142
001300*REMARKS.                                                         PPP142
001400     SKIP3                                                        PPP142
001500******************************************************************PPP142
001600*  THIS PROGRAM WORKS IN CONJUNCTION WITH PPP120 AND PPP410 TO    PPP142
001700*  POST UPDATES TO THE EDB FILE.  BOTH PPP120 AND PPP410 CREATE   PPP142
001800*  A LOG OF EDB RECORDS TO BE WRITTEN TO THE DATABASE.  THIS      PPP142
001900*  PROGRAM READS THOSE RECORDS AND WRITES THEM TO THE EDB FILE.   PPP142
002000*  THE EDB IS THEN OPENED SEQUENTIALLY AND READ FOR ERROR-        PPP142
002100*  CHECKING AND BALANCE TOTALLING BY USER14.                      PPP142
002200******************************************************************PPP142
002300 ENVIRONMENT DIVISION.                                            PPP142
002400 CONFIGURATION SECTION.                                           PPP142
002500 SOURCE-COMPUTER.                                                 PPP142
002600           IBM-370.                                               PPP142
002700 OBJECT-COMPUTER.                                                 PPP142
002800           IBM-370.                                               PPP142
002900 SPECIAL-NAMES.                                                   PPP142
003000     C01 IS NEW-PAGE.                                             PPP142
003100     EJECT                                                        PPP142
003200 INPUT-OUTPUT SECTION.                                            PPP142
003300 FILE-CONTROL.                                                    PPP142
003400     SKIP1                                                        PPP142
003500*INPUT FILES.                                                     PPP142
003600     SELECT SEG-CHANGE-FILE      COPY CPSLXSEG.                   PPP142
005700     SKIP1                                                        36070535
005800     SELECT EDB-CHG              COPY CPSLXCHG.                   36070535
003700*                                                                 PPP142
003800*OUTPUT FILES.                                                    PPP142
003900*                                                                 PPP142
004000**** DATA BASE THRU 'PPIOEDB'                                     PPP142
004100*                                                                 PPP142
004200     SELECT PRINT-FILE           COPY CPSLXPRT.                   PPP142
004210     COPY CLSLCRPT.                                               UCSD0006
004300*                                                                 PPP142
004400     EJECT                                                        PPP142
004500 DATA DIVISION.                                                   PPP142
004600 FILE SECTION.                                                    PPP142
004700     SKIP3                                                        PPP142
004800 FD  SEG-CHANGE-FILE             COPY CPFDXRST.                   PPP142
004900     EJECT                                                        PPP142
007300 FD  EDB-CHG                     COPY CPFDXCHG                    36070535
007400         REPLACING EDB-CHANGE-RECORD BY INPT-CHG-REC.             36070535
007500     SKIP1                                                        36070535
007600 01  INPT-CHG-REC.               COPY CPWSXCHG                    36070535
007700         REPLACING XCHG-FIXED-AREA     BY INPT-FIXED-AREA         36070535
007800                   XCHG-EMPLOYEE-ID    BY INPT-EMPLOYEE-ID        36070535
007900                   XCHG-DATA-ELEM-NO   BY INPT-DATA-ELEM-NO       36070535
008000                   XCHG-OCCURENCE-KEY  BY INPT-OCCURENCE-KEY      36070535
008100                   XCHG-PROCESS-ID     BY INPT-PROCESS-ID         36070535
008200                   XCHG-CHANGE-SOURCE  BY INPT-CHANGE-SOURCE      36070535
008300                   XCHG-TIMESTAMP      BY INPT-TIMESTAMP          36070535
008400                   XCHG-ODO-LENGTHS    BY INPT-ODO-LENGTHS        36070535
008500                   XCHG-OLD-VAL-LNGTH  BY INPT-OLD-VAL-LNGTH      36070535
008600                   XCHG-NEW-VAL1-LNGTH BY INPT-NEW-VAL1-LNGTH     36070535
008700                   XCHG-NEW-VAL2-LNGTH BY INPT-NEW-VAL2-LNGTH     36070535
008800                   XCHG-OLD-VALUE      BY INPT-OLD-VALUE          36070535
008900                   XCHG-OLD-VAL        BY INPT-OLD-VAL            36070535
009000                   XCHG-NEW-VALUE1     BY INPT-NEW-VALUE1         36070535
009100                   XCHG-NEW-VAL1       BY INPT-NEW-VAL1           36070535
009200                   XCHG-NEW-VALUE2     BY INPT-NEW-VALUE2         36070535
009300                   XCHG-NEW-VAL2       BY INPT-NEW-VAL2.          36070535
009400     EJECT                                                        36070535
005000 FD  PRINT-FILE                  COPY CPFDXPRT.                   PPP142
005010     COPY CLFDCRPT.                                               UCSD0006
005100     EJECT                                                        PPP142
005200 WORKING-STORAGE SECTION.                                         PPP142
005300 77  AAA-WS                  PIC X(15) VALUE 'WORKING STORAGE'.   PPP142
005400 77  A-STND-PROG-ID          PIC X(15) VALUE 'PPP142/111489'.     PPP142
005500 77  UCA-STATUS              PIC X     VALUE ZERO.                PPP142
005600 77  LINE-CNT                PICTURE S9(04) COMP VALUE ZERO.      PPP142
005700 77  WRITE-COUNT             PICTURE S9(04) COMP VALUE ZERO.      PPP142
005800 77  DELETE-COUNT            PICTURE S9(04) COMP VALUE ZERO.      PPP142
005900 77  REWRITE-COUNT           PICTURE S9(04) COMP VALUE ZERO.      PPP142
006000 77  UPDATE-COUNT            PICTURE S9(04) COMP VALUE ZERO.      PPP142
006100 77  DROP-COUNT              PICTURE S9(04) COMP VALUE ZERO.      PPP142
010800 77  TOT-CHANGE-RCS-IN       PICTURE S9(09) COMP-3 VALUE ZERO.    36070535
010900 77  WS-EMPLOYEE-ID          PIC X(09) VALUE SPACES.              36070535
011000 77  EOF-CHG-SW              PIC X(01) VALUE SPACES.              36070535
011100     88  EOF-EDB-CHG                   VALUE 'Y'.                 36070535
006200*                                                                 PPP142
006300 01  STND-RPT-HD1.               COPY CPWSXSHR.                   PPP142
006400*                                                                 PPP142
006500 01  DETAIL-LINE.                                                 PPP142
006600     05  FILLER                  PICTURE X(45).                   PPP142
006700     05  MESSAGE-TEXT            PICTURE X(30).                   PPP142
006800     05  MESSAGE-VALUE           PICTURE Z(12)9.                  PPP142
006900*                                                                 PPP142
007000 01  MESSAGE-TABLE.                                               PPP142
007100     05  M14000                  PICTURE X(5) VALUE '14000'.      PPP142
007200     05  M14110                  PICTURE X(5) VALUE '14110'.      PPP142
007300     05  M14180                  PICTURE X(5) VALUE '14180'.      PPP142
007400     05  M14210                  PICTURE X(5) VALUE '14210'.      PPP142
007500     05  M14220                  PICTURE X(5) VALUE '14220'.      PPP142
007600     05  M14230                  PICTURE X(5) VALUE '14230'.      PPP142
007700     05  M14240                  PICTURE X(5) VALUE '14240'.      PPP142
007800     05  M14250                  PICTURE X(5) VALUE '14250'.      PPP142
007900     05  M14260                  PICTURE X(5) VALUE '14260'.      PPP142
008000     05  M14270                  PICTURE X(5) VALUE '14270'.      PPP142
008100     05  M14280                  PICTURE X(5) VALUE '14280'.      PPP142
013200     05  M14311                  PICTURE X(5) VALUE '14311'.      36070535
013300     05  M14312                  PICTURE X(5) VALUE '14312'.      36070535
013400     05  M14313                  PICTURE X(5) VALUE '14313'.      36070535
008200*                                                                 PPP142
008300 01  DATE-FORMAT.                COPY CPWSDATE.                   PPP142
008400*                                                                 PPP142
008500 01  XSCR-SYSTEM-CONTROL-RECORD. COPY CPWSXSCR.                   PPP142
008600*                                                                 PPP142
008700 01  CHECK-DATES VALUE ZERO.                                      PPP142
008800     03  CNTL-DATE           PIC X(6).                            PPP142
008900     03  RSTR-DATE           PIC X(6).                            PPP142
009000     03  EDB-DATE            PIC X(6).                            PPP142
009100     03  RSTR-LAST-PGM-RUN   PIC XX.                              PPP142
009200     03  CNTL-LAST-PGM-RUN   PIC XX.                              PPP142
009300     03  CNTL-EDB-GEN-NO     PIC 9(3).                            PPP142
009400     03  CNTL-ACTIV-GEN-NO   PIC 9(3).                            PPP142
009500*                                                                 PPP142
009600 01  CONTROL-FILE-KEYS.          COPY CPWSXCFK.                   PPP142
009700*                                                                 PPP142
009800***********************************                               PPP142
009900*    INTERFACES TO CALLED MODULES                                 PPP142
010000***********************************                               PPP142
010100     SKIP2                                                        PPP142
010200 01  EDB-INTERFACE.              COPY CPWSXEIF.                   PPP142
010300*                                                                 PPP142
010400     SKIP2                                                        PPP142
010500 01  SEGMENT-AREA.               COPY  CPWSXEST.                  PPP142
010600*                                                                 PPP142
010700     SKIP2                                                        PPP142
010800 01  IO-FUNCTIONS.               COPY CPWSXIOF.                   PPP142
010900*                                                                 PPP142
011000 01  MSSG-INTERFACE.             COPY CPWSXMIF.                   PPP142
011100*                                                                 PPP142
011110     COPY CLWSCRPT.                                               UCSD0006
016600 01  EMPLOYEE-CHANGE-RECORD.                                      36070535
016700                                 COPY CPWSXCHG.                   36070535
016800*                                                                 36070535
016900 01  PPXXXUPD-INTERFACE.                                          36070535
017000                                 COPY CPLNUXXX.                   36070535
011200     EJECT                                                        PPP142
011300 PROCEDURE DIVISION.                                              PPP142
011400******************************************************************PPP142
011500     SKIP3                                                        PPP142
011600******************************************************************PPP142
011700*    THIS IS THE CONTROLLING LOGIC OF THE PROGRAM.                PPP142
011800*    ALL OTHER PROCEDURES ARE INVOKED BY THIS PARAGRAPH           PPP142
011900******************************************************************PPP142
012000     SKIP1                                                        PPP142
012100 PROGRAM-LOGIC-0010.                                              PPP142
012200*                                                                 PPP142
012210     COPY CLPDCRPT.                                               UCSD0006
012300     PERFORM OPEN-FILES-2000.                                     PPP142
012400*                                                                 PPP142
012500     PERFORM SET-UP-PRINT-2500.                                   PPP142
012600*                                                                 PPP142
012700     PERFORM PROCESS-CONTROL-RECORDS-2700 THRU                    PPP142
012800             CONTROL-RECORD-EXIT-2790.                            PPP142
012900*                                                                 PPP142
013000     PERFORM READ-WRITE-LOOP-3000 THRU                            PPP142
013100             READ-WRITE-EXIT-3900.                                PPP142
013200*                                                                 PPP142
013300     PERFORM CLOSE-RANDOM-4000.                                   PPP142
013400*                                                                 PPP142
013500     PERFORM OPEN-SEQUENTIAL-5000.                                PPP142
013600*                                                                 PPP142
013700     PERFORM READ-EDB-6000 THRU READ-EDB-EXIT-6900.               PPP142
013800*                                                                 PPP142
013900     PERFORM CLOSE-SEQUENTIAL-9000.                               PPP142
014000*                                                                 PPP142
014010     PERFORM PRINT-CONTROL-REPORT.                                UCSD0006
020200     PERFORM PROCESS-EDB-CHG-7000.                                36070535
020300*                                                                 36070535
014100     GO TO EOJ-9999.                                              PPP142
014200*                                                                 PPP142
014300******************************************************************PPP142
014400 OPEN-FILES-2000.                                                 PPP142
014500     OPEN OUTPUT PRINT-FILE.                                      PPP142
014600     OPEN INPUT SEG-CHANGE-FILE.                                  PPP142
014700     MOVE 'SEQ-OPEN-IO' TO IO-EDB-ACTION.                         PPP142
014800     CALL 'PPIOEDB' USING EDB-INTERFACE SEGMENT-AREA.             PPP142
014900     IF IO-EDB-ERROR-CODE > 0                                     PPP142
015000         MOVE M14230 TO XMSG-NUMBER                               PPP142
015100         MOVE IO-EDB-ERROR-CODE TO XMSG-DATA                      PPP142
015200         MOVE 1 TO XMSG-REFERENCE                                 PPP142
015300         CALL 'PPMSGUTL' USING MSSG-INTERFACE                     PPP142
015400         GO TO ABEND-9800.                                        PPP142
015500     SKIP2                                                        PPP142
015600 SET-UP-PRINT-2500.                                               PPP142
015700     MOVE 'PPP1422' TO STND-RPT-ID.                               PPP142
015800     MOVE A-STND-PROG-ID TO STND-PROG-ID.                         PPP142
015900     COPY CPPDDATE.                                               PPP142
016000     MOVE GREGORIAN-DATE TO STND-RPT-DATE.                        PPP142
016100     MOVE SPACES TO STND-RPT-HD3.                                 PPP142
016200     MOVE '            EDB SEGMENT UPDATE' TO STND-RPT-TTL.       PPP142
016300     MOVE SPACES TO MSSG-INTERFACE.                               PPP142
016400     MOVE ZERO TO XMSG-SEVERITY XMSG-HIGHEST-SEVERITY.            PPP142
016500     MOVE A-STND-PROG-ID TO XMSG-PROG-ID.                         PPP142
016600     MOVE 'PPP1421' TO XMSG-RPT-ID.                               PPP142
016700     MOVE '      DATA BASE RESTORE SUMMARY' TO XMSG-RPT-TTL.      PPP142
016800     MOVE GREGORIAN-DATE TO XMSG-RUN-DATE.                        PPP142
016900     COPY CPPDXP01.                                               PPP142
017000*                                                                 PPP142
017100 PROCESS-CONTROL-RECORDS-2700.                                    PPP142
023500     OPEN INPUT EDB-CHG.                                          36070535
023600     READ EDB-CHG INTO XSCR-SYSTEM-CONTROL-RECORD                 36070535
023700         AT END SET EOF-EDB-CHG TO TRUE                           36070535
023800     END-READ.                                                    36070535
023900     IF EOF-EDB-CHG                                               36070535
024000         MOVE M14311 TO XMSG-NUMBER                               36070535
024100         CALL 'PPMSGUTL' USING MSSG-INTERFACE                     36070535
024200         GO TO ABEND-9800                                         36070535
024300     END-IF.                                                      36070535
024400     ADD +1   TO TOT-CHANGE-RCS-IN.                               36070535
024500     MOVE XSCR-PROCESS-DATE TO CNTL-DATE.                         36070535
017200     MOVE XCFK-SCR TO IO-EDB-NOM-KEY.                             PPP142
017300     MOVE SEQ-READ TO IO-EDB-ACTION.                              PPP142
017400     CALL 'PPIOEDB' USING EDB-INTERFACE SEGMENT-AREA.             PPP142
017500     IF IO-EDB-ERROR-CODE > 0 OR SEG-KEY (1) NOT = XCFK-SCR       PPP142
017600         MOVE M14240 TO XMSG-NUMBER                               PPP142
017700         MOVE IO-EDB-ERROR-CODE TO XMSG-DATA                      PPP142
017800         MOVE 1 TO XMSG-REFERENCE                                 PPP142
017900         CALL 'PPMSGUTL' USING MSSG-INTERFACE                     PPP142
018000         GO TO ABEND-9800.                                        PPP142
018100     MOVE SEG-MENT (1) TO XSCR-SYSTEM-CONTROL-RECORD.             PPP142
025600     IF XSCR-PROCESS-DATE  NOT = CNTL-DATE                        36070535
025700         MOVE M14312 TO XMSG-NUMBER                               36070535
025800         MOVE 'CHANGE FILE DATE =' TO XMSG-DESC1                  36070535
025900         MOVE CNTL-DATE            TO XMSG-REF1                   36070535
026000         MOVE ' EDB DATE = '       TO XMSG-DESC2                  36070535
026100         MOVE XSCR-PROCESS-DATE    TO XMSG-REF2                   36070535
026200         MOVE 1 TO XMSG-REFERENCE                                 36070535
026300         CALL 'PPMSGUTL' USING MSSG-INTERFACE                     36070535
026400         GO TO ABEND-9800                                         36070535
026500     END-IF.                                                      36070535
018200     MOVE XSCR-PROCESS-DATE TO CNTL-DATE.                         PPP142
018300     MOVE XSCR-EDB-GEN-NO   TO CNTL-EDB-GEN-NO.                   PPP142
018400     MOVE XSCR-ACTIVITY-GEN-NO TO CNTL-ACTIV-GEN-NO.              PPP142
018500     READ SEG-CHANGE-FILE AT END                                  PPP142
018600         MOVE M14210 TO XMSG-NUMBER                               PPP142
018700         CALL 'PPMSGUTL' USING MSSG-INTERFACE                     PPP142
018800         GO TO ABEND-9800.                                        PPP142
018900     ADD 1 TO UPDATE-COUNT.                                       PPP142
019000     IF EDB-RESTORE-KEY NOT = XCFK-SCR                            PPP142
019100         MOVE M14220 TO XMSG-NUMBER                               PPP142
019200         CALL 'PPMSGUTL' USING MSSG-INTERFACE                     PPP142
019300         GO TO ABEND-9800.                                        PPP142
019400     MOVE EDB-RESTORE-RECORD TO XSCR-SYSTEM-CONTROL-RECORD.       PPP142
019500     MOVE XSCR-PROCESS-DATE TO XMSG-CHK-DATE.                     PPP142
019600     MOVE CNTL-EDB-GEN-NO TO XSCR-EDB-GEN-NO.                     PPP142
019700     MOVE CNTL-ACTIV-GEN-NO TO XSCR-ACTIVITY-GEN-NO.              PPP142
019800     MOVE CNTL-DATE TO XSCR-PROCESS-DATE.                         PPP142
019900     PERFORM SET-UP-INITIAL-MESSAGE-8000.                         PPP142
020000     IF  XSCR-LAST-PGM-RUN NOT = '12' AND NOT = '41'              PPP142
020100         MOVE 'RSTR LAST PGM=' TO XMSG-DESC1                      PPP142
020200         MOVE RSTR-LAST-PGM-RUN  TO XMSG-DESC2                    PPP142
020300         MOVE M14110 TO XMSG-NUMBER                               PPP142
020400         MOVE 1 TO XMSG-REFERENCE                                 PPP142
020500         CALL 'PPMSGUTL' USING MSSG-INTERFACE                     PPP142
020600         GO TO ABEND-9800.                                        PPP142
020700     MOVE '14' TO XSCR-LAST-PGM-RUN.                              PPP142
020800     MOVE XSCR-SYSTEM-CONTROL-RECORD TO SEG-MENT (1).             PPP142
020900     MOVE SEQ-REWRITE TO IO-EDB-ACTION.                           PPP142
021000     CALL 'PPIOEDB' USING EDB-INTERFACE SEGMENT-AREA.             PPP142
021100     IF IO-EDB-ERROR-CODE > 0                                     PPP142
021200         MOVE M14250 TO XMSG-NUMBER                               PPP142
021300         MOVE IO-EDB-ERROR-CODE TO XMSG-DATA                      PPP142
021400         MOVE 1 TO XMSG-REFERENCE                                 PPP142
021500         CALL 'PPMSGUTL' USING MSSG-INTERFACE                     PPP142
021600         GO TO ABEND-9800.                                        PPP142
021700     ADD 1 TO REWRITE-COUNT.                                      PPP142
021800     MOVE SEQ-READ TO IO-EDB-ACTION.                              PPP142
021900     MOVE ZEROS TO IO-EDB-NOM-KEY.                                PPP142
022000*                                                                 PPP142
022100 CALL-USER14-LOOP-2720.                                           PPP142
022200     MOVE SPACES TO XMSG-NUMBER.                                  PPP142
022300     CALL 'USER14' USING UCA-STATUS                               PPP142
022400                         MSSG-INTERFACE                           PPP142
022500                         SEGMENT-AREA.                            PPP142
022600     IF XMSG-NUMBER NOT = SPACES                                  PPP142
022700         CALL 'PPMSGUTL' USING MSSG-INTERFACE                     PPP142
022800         GO TO ABEND-9800.                                        PPP142
022900     CALL 'PPIOEDB' USING EDB-INTERFACE SEGMENT-AREA.             PPP142
023000     IF IO-EDB-ERROR-CODE NOT = 0                                 PPP142
023100         MOVE M14280 TO XMSG-NUMBER                               PPP142
023200         MOVE 'ERROR-CODE = ' TO XMSG-DESC1                       PPP142
023300         MOVE IO-EDB-ERROR-CODE TO XMSG-REF1                      PPP142
023400         MOVE 1 TO XMSG-REFERENCE                                 PPP142
023500         CALL 'PPMSGUTL' USING MSSG-INTERFACE                     PPP142
023600         GO TO ABEND-9800.                                        PPP142
023700     IF SEG-KEY (1) (1:1) NOT = SPACE                             PPP142
023800         GO TO EDB-SWITCH-2750.                                   PPP142
023900     GO TO CALL-USER14-LOOP-2720.                                 PPP142
024000*                                                                 PPP142
024100 EDB-SWITCH-2750.                                                 PPP142
024200     MOVE SEQ-CLOSE TO IO-EDB-ACTION.                             PPP142
024300     CALL 'PPIOEDB' USING EDB-INTERFACE SEGMENT-AREA.             PPP142
024400     MOVE 'RAND-OPEN-IO' TO IO-EDB-ACTION.                        PPP142
024500     CALL 'PPIOEDB' USING EDB-INTERFACE SEGMENT-AREA.             PPP142
024600     IF IO-EDB-ERROR-CODE > 0                                     PPP142
024700         MOVE M14230 TO XMSG-NUMBER                               PPP142
024800         MOVE 'ERROR-CODE = ' TO XMSG-DESC1                       PPP142
024900         MOVE IO-EDB-ERROR-CODE TO XMSG-REF1                      PPP142
025000         MOVE 1 TO XMSG-REFERENCE                                 PPP142
025100         CALL 'PPMSGUTL' USING MSSG-INTERFACE                     PPP142
025200         GO TO ABEND-9800.                                        PPP142
025300*                                                                 PPP142
025400 CONTROL-RECORD-EXIT-2790.                                        PPP142
025500     EXIT.                                                        PPP142
025600*                                                                 PPP142
025700 READ-WRITE-LOOP-3000.                                            PPP142
025800     READ SEG-CHANGE-FILE AT END                                  PPP142
025900     GO TO READ-WRITE-EXIT-3900.                                  PPP142
026000     ADD 1 TO UPDATE-COUNT.                                       PPP142
026100     IF EDB-RESTORE-DELETE = HIGH-VALUES                          PPP142
026200         MOVE SPACES TO XMSG-NUMBER                               PPP142
026300         CALL 'USER14' USING UCA-STATUS                           PPP142
026400                             MSSG-INTERFACE                       PPP142
026500                             EDB-RESTORE-RECORD                   PPP142
026600         IF XMSG-NUMBER NOT = SPACES                              PPP142
026700             CALL 'PPMSGUTL' USING MSSG-INTERFACE                 PPP142
026800             GO TO ABEND-9800.                                    PPP142
026900     MOVE EDB-RESTORE-KEY TO IO-EDB-NOM-KEY.                      PPP142
027000     MOVE RAND-READ TO IO-EDB-ACTION.                             PPP142
027100     CALL 'PPIOEDB' USING EDB-INTERFACE SEGMENT-AREA.             PPP142
027200*                                                                 PPP142
027300     EVALUATE IO-EDB-ERROR-CODE                                   PPP142
027400     WHEN 0                                                       PPP142
027500         MOVE EDB-RESTORE-RECORD TO SEG-MENT (1)                  PPP142
027600         MOVE RAND-REWRITE TO IO-EDB-ACTION                       PPP142
027700         CALL 'PPIOEDB' USING EDB-INTERFACE SEGMENT-AREA          PPP142
027800         IF EDB-RESTORE-DELETE = HIGH-VALUES                      PPP142
027900             ADD 1 TO DELETE-COUNT                                PPP142
028000         ELSE                                                     PPP142
028100             ADD 1 TO REWRITE-COUNT                               PPP142
028200         END-IF                                                   PPP142
028300     WHEN 13                                                      PPP142
028400         IF EDB-RESTORE-DELETE NOT = HIGH-VALUES                  PPP142
028500             MOVE EDB-RESTORE-RECORD TO SEG-MENT (1)              PPP142
028600             MOVE EDB-RESTORE-KEY TO IO-EDB-NOM-KEY               PPP142
028700             MOVE RAND-WRITE TO IO-EDB-ACTION                     PPP142
028800             CALL 'PPIOEDB' USING EDB-INTERFACE SEGMENT-AREA      PPP142
028900             ADD 1 TO WRITE-COUNT                                 PPP142
029000         ELSE                                                     PPP142
029100             MOVE ZERO TO IO-EDB-ERROR-CODE                       PPP142
029200             ADD 1 TO DROP-COUNT                                  PPP142
029300         END-IF                                                   PPP142
029400     WHEN 21                                                      PPP142
029500         IF EDB-RESTORE-DELETE NOT = HIGH-VALUES                  PPP142
029600             MOVE EDB-RESTORE-RECORD TO SEG-MENT (1)              PPP142
029700             MOVE RAND-REWRITE TO IO-EDB-ACTION                   PPP142
029800             CALL 'PPIOEDB' USING EDB-INTERFACE SEGMENT-AREA      PPP142
029900             ADD 1 TO REWRITE-COUNT                               PPP142
030000         ELSE                                                     PPP142
030100             MOVE ZERO TO IO-EDB-ERROR-CODE                       PPP142
030200             ADD 1 TO DROP-COUNT                                  PPP142
030300         END-IF                                                   PPP142
030400     WHEN OTHER                                                   PPP142
030500         MOVE M14260 TO XMSG-NUMBER                               PPP142
030600         MOVE IO-EDB-ERROR-CODE TO XMSG-DESC1                     PPP142
030700         MOVE 'EDB SEGMENT=' TO XMSG-REF1                         PPP142
030800         MOVE IO-EDB-NOM-KEY TO XMSG-DESC2                        PPP142
030900         MOVE 1 TO XMSG-REFERENCE                                 PPP142
031000         CALL 'PPMSGUTL' USING MSSG-INTERFACE                     PPP142
031100         GO TO ABEND-9800                                         PPP142
031200     END-EVALUATE.                                                PPP142
031300*                                                                 PPP142
031400     IF IO-EDB-ERROR-CODE > 0                                     PPP142
031500         MOVE M14270 TO XMSG-NUMBER                               PPP142
031600         MOVE IO-EDB-ERROR-CODE TO XMSG-DESC1                     PPP142
031700         MOVE 'EDB SEGMENT=' TO XMSG-REF1                         PPP142
031800         MOVE IO-EDB-NOM-KEY TO XMSG-DESC2                        PPP142
031900         MOVE 1 TO XMSG-REFERENCE                                 PPP142
032000         CALL 'PPMSGUTL' USING MSSG-INTERFACE                     PPP142
032100         GO TO ABEND-9800.                                        PPP142
032200     GO TO READ-WRITE-LOOP-3000.                                  PPP142
032300*                                                                 PPP142
032400 READ-WRITE-EXIT-3900.                                            PPP142
032500     EXIT.                                                        PPP142
032600*                                                                 PPP142
032700*                                                                 PPP142
032800 CLOSE-RANDOM-4000.                                               PPP142
032900     MOVE 'RECORDS READ:' TO MESSAGE-TEXT.                        PPP142
033000     MOVE UPDATE-COUNT TO MESSAGE-VALUE.                          PPP142
033100     WRITE PRINT-REC FROM DETAIL-LINE BEFORE ADVANCING 2 LINES.   PPP142
033200     MOVE 'RECORDS WRITTEN:' TO MESSAGE-TEXT.                     PPP142
033300     MOVE WRITE-COUNT TO MESSAGE-VALUE.                           PPP142
033400     WRITE PRINT-REC FROM DETAIL-LINE BEFORE ADVANCING 2 LINES.   PPP142
033500     MOVE 'ACTIVE RECORDS REWRITTEN:' TO MESSAGE-TEXT.            PPP142
033600     MOVE REWRITE-COUNT TO MESSAGE-VALUE.                         PPP142
033700     WRITE PRINT-REC FROM DETAIL-LINE BEFORE ADVANCING 2 LINES.   PPP142
033800     MOVE 'DELETE RECORDS REWRITEN:' TO MESSAGE-TEXT.             PPP142
033900     MOVE DELETE-COUNT TO MESSAGE-VALUE.                          PPP142
034000     WRITE PRINT-REC FROM DETAIL-LINE BEFORE ADVANCING 2 LINES.   PPP142
034100     MOVE 'DELETE RECORDS DROPPED:' TO MESSAGE-TEXT.              PPP142
034200     MOVE DROP-COUNT TO MESSAGE-VALUE.                            PPP142
034300     WRITE PRINT-REC FROM DETAIL-LINE BEFORE ADVANCING 2 LINES.   PPP142
034400     CLOSE SEG-CHANGE-FILE.                                       PPP142
034500     MOVE RAND-CLOSE TO IO-EDB-ACTION.                            PPP142
034600     CALL 'PPIOEDB' USING EDB-INTERFACE SEGMENT-AREA.             PPP142
034700*                                                                 PPP142
034800 OPEN-SEQUENTIAL-5000.                                            PPP142
034900     MOVE SEQ-OPEN-IN TO IO-EDB-ACTION.                           PPP142
035000     CALL 'PPIOEDB' USING EDB-INTERFACE SEGMENT-AREA.             PPP142
035100     IF IO-EDB-ERROR-CODE > 0                                     PPP142
035200         MOVE M14230 TO XMSG-NUMBER                               PPP142
035300         MOVE 'ERROR-CODE = ' TO XMSG-DESC1                       PPP142
035400         MOVE IO-EDB-ERROR-CODE TO XMSG-REF1                      PPP142
035500         MOVE 1 TO XMSG-REFERENCE                                 PPP142
035600         CALL 'PPMSGUTL' USING MSSG-INTERFACE                     PPP142
035700         GO TO ABEND-9850.                                        PPP142
035800*                                                                 PPP142
035900 READ-EDB-6000.                                                   PPP142
036000     MOVE XCFK-CTL-FILE-DELIM TO IO-EDB-NOM-KEY.                  PPP142
036100     MOVE SEQ-READ TO IO-EDB-ACTION.                              PPP142
036200     CALL 'PPIOEDB' USING EDB-INTERFACE SEGMENT-AREA.             PPP142
036300     IF IO-EDB-ERROR-CODE NOT = 0                                 PPP142
036400         MOVE M14280 TO XMSG-NUMBER                               PPP142
036500         MOVE 'ERROR-CODE = ' TO XMSG-DESC1                       PPP142
036600         MOVE IO-EDB-ERROR-CODE TO XMSG-REF1                      PPP142
036700         MOVE 'EDB KEY = ' TO XMSG-DESC2                          PPP142
036800         MOVE IO-EDB-NOM-KEY TO XMSG-REF2                         PPP142
036900         MOVE 1 TO XMSG-REFERENCE                                 PPP142
037000         CALL 'PPMSGUTL' USING MSSG-INTERFACE                     PPP142
037100         GO TO ABEND-9850.                                        PPP142
037200     MOVE ZEROS TO IO-EDB-NOM-KEY.                                PPP142
037300*                                                                 PPP142
037400 READ-EDB-LOOP-6100.                                              PPP142
037500     CALL 'PPIOEDB' USING EDB-INTERFACE SEGMENT-AREA.             PPP142
037600     IF IO-EDB-ERROR-CODE = 6                                     PPP142
037700         GO TO READ-EDB-EXIT-6900.                                PPP142
037800     IF IO-EDB-ERROR-CODE NOT = 0                                 PPP142
037900         MOVE M14280 TO XMSG-NUMBER                               PPP142
038000         MOVE 'ERROR-CODE = ' TO XMSG-DESC1                       PPP142
038100         MOVE IO-EDB-ERROR-CODE TO XMSG-REF1                      PPP142
038200         MOVE 1 TO XMSG-REFERENCE                                 PPP142
038300         CALL 'PPMSGUTL' USING MSSG-INTERFACE                     PPP142
038400         GO TO ABEND-9850.                                        PPP142
038500     MOVE SPACES TO XMSG-NUMBER.                                  PPP142
038600     CALL 'USER14' USING UCA-STATUS                               PPP142
038700                         MSSG-INTERFACE                           PPP142
038800                         SEGMENT-AREA.                            PPP142
038900     IF XMSG-NUMBER NOT = SPACES                                  PPP142
039000         CALL 'PPMSGUTL' USING MSSG-INTERFACE                     PPP142
039100         GO TO ABEND-9850.                                        PPP142
039200     GO TO READ-EDB-LOOP-6100.                                    PPP142
039300*                                                                 PPP142
039400 READ-EDB-EXIT-6900.                                              PPP142
039500     EXIT.                                                        PPP142
039600*                                                                 PPP142
048100 PROCESS-EDB-CHG-7000.                                            36070535
048200     SET APPLY-CHANGE TO TRUE.                                    36070535
048300     PERFORM WITH TEST AFTER                                      36070535
048400       UNTIL EOF-EDB-CHG                                          36070535
048500         READ EDB-CHG INTO EMPLOYEE-CHANGE-RECORD                 36070535
048600           AT END SET EOF-EDB-CHG TO TRUE                         36070535
048700         END-READ                                                 36070535
048800         IF NOT EOF-EDB-CHG                                       36070535
048900             ADD +1   TO TOT-CHANGE-RCS-IN                        36070535
049000             IF XCHG-EMPLOYEE-ID NOT = WS-EMPLOYEE-ID             36070535
049100                 IF WS-EMPLOYEE-ID NOT = SPACES                   36070535
049200                     SET POST-ROW TO TRUE                         36070535
049300                     PERFORM CALL-PPACAUPD-7100                   36070535
049400                     SET APPLY-CHANGE TO TRUE                     36070535
049500                 END-IF                                           36070535
049600                 MOVE XCHG-EMPLOYEE-ID TO WS-EMPLOYEE-ID          36070535
049700                 PERFORM CALL-PPACAUPD-7100                       36070535
049800             ELSE                                                 36070535
049900                 PERFORM CALL-PPACAUPD-7100                       36070535
050000             END-IF                                               36070535
050100         ELSE                                                     36070535
050200             SET POST-ROW TO TRUE                                 36070535
050300             PERFORM CALL-PPACAUPD-7100                           36070535
050400         END-IF                                                   36070535
050500     END-PERFORM.                                                 36070535
050600     CLOSE EDB-CHG.                                               36070535
050700     MOVE 'CHANGE RECORDS READ:' TO MESSAGE-TEXT.                 36070535
050800     MOVE TOT-CHANGE-RCS-IN  TO MESSAGE-VALUE.                    36070535
050900     WRITE PRINT-REC FROM DETAIL-LINE BEFORE ADVANCING 2 LINES.   36070535
051000     CLOSE PRINT-FILE.                                            36070535
051100*                                                                 36070535
051200 CALL-PPACAUPD-7100.                                              36070535
051300     MOVE WS-EMPLOYEE-ID TO PPXXXUPD-EMPLOYEE-ID.                 36070535
051400     CALL 'PPACAUPD' USING PPXXXUPD-INTERFACE,                    36070535
051500                           EMPLOYEE-CHANGE-RECORD.                36070535
051600     IF PPXXXUPD-ERROR                                            36070535
051700         MOVE M14313 TO XMSG-NUMBER                               36070535
051800         CALL 'PPMSGUTL' USING MSSG-INTERFACE                     36070535
051900         DISPLAY 'PPP142 TERMINATING AFTER PROCESSING CHANGE'     36070535
052000                 ' RECORDS UP TO, BUT EXCLUDING, THAT FOR'        36070535
052100                 ' EMPLOYEE ID: ' PPXXXUPD-EMPLOYEE-ID            36070535
052200         DISPLAY 'PPP142 PPXXXUPD-INTERFACE: "'                   36070535
052300                 PPXXXUPD-INTERFACE '"'                           36070535
052400         GO TO ABEND-9850.                                        36070535
052500*                                                                 36070535
039700 SET-UP-INITIAL-MESSAGE-8000.                                     PPP142
039800     MOVE 'D' TO XMSG-REFERENCE.                                  PPP142
039900     MOVE ZERO TO XMSG-SEVERITY.                                  PPP142
040000     MOVE M14000 TO XMSG-NUMBER                                   PPP142
040100     CALL 'PPMSGUTL' USING MSSG-INTERFACE.                        PPP142
040200*                                                                 PPP142
040300 CLOSE-SEQUENTIAL-9000.                                           PPP142
040400     MOVE SEQ-CLOSE TO IO-EDB-ACTION.                             PPP142
040500     CALL 'PPIOEDB' USING EDB-INTERFACE SEGMENT-AREA.             PPP142
040600     MOVE M14180 TO XMSG-NUMBER.                                  PPP142
040700     CALL 'PPMSGUTL' USING MSSG-INTERFACE.                        PPP142
040800     MOVE '2' TO UCA-STATUS.                                      PPP142
040900     CALL 'USER14' USING UCA-STATUS                               PPP142
041000                         MSSG-INTERFACE.                          PPP142
054000**** CLOSE PRINT-FILE.                                            36070535
041200*                                                                 PPP142
041300*                                                                 PPP142
041400 ABEND-9800.                                                      PPP142
041500     MOVE SPACE TO DETAIL-LINE.                                   PPP142
041600     MOVE 'PPP142 ABNORMAL END' TO MESSAGE-TEXT.                  PPP142
041700     WRITE PRINT-REC FROM DETAIL-LINE BEFORE ADVANCING 2 LINES.   PPP142
041800     PERFORM CLOSE-RANDOM-4000.                                   PPP142
041900     CLOSE PRINT-FILE.                                            PPP142
042000     MOVE 16 TO RETURN-CODE.                                      PPP142
042100     GO TO EOJ-9999.                                              PPP142
042200*                                                                 PPP142
042300 ABEND-9850.                                                      PPP142
042400     MOVE SPACE TO DETAIL-LINE.                                   PPP142
042500     MOVE 'PPP142 ABNORMAL END' TO MESSAGE-TEXT.                  PPP142
042600     WRITE PRINT-REC FROM DETAIL-LINE BEFORE ADVANCING 2 LINES.   PPP142
042700     PERFORM CLOSE-SEQUENTIAL-9000.                               PPP142
042800     MOVE 16 TO RETURN-CODE.                                      PPP142
042900     GO TO EOJ-9999.                                              PPP142
043000*                                                                 PPP142
043100 EOJ-9999.                                                        PPP142
043200     GOBACK.                                                      PPP142
043300         COPY CLPDP142.                                           UCSD0006
