000010*==========================================================%      UCSD0006
000020*=    PROGRAM: PPP140                                     =%      UCSD0006
000030*=    CHANGE #0006          PROJ. REQUEST: IBM OFFLOAD    =%      UCSD0006
000040*=    NAME:E.RICHARDSON     MODIFICATION DATE: 9/30/86    =%      UCSD0006
000050*=                                                        =%      UCSD0006
000060*=    DESCRIPTION: PROGRAM WAS MODIFIED TO PRODUCE        =%      UCSD0006
000070*=    PRODUCTION CONTROL REPORTS                          =%      UCSD0006
000080*=                                                        =%      UCSD0006
000090*=                                                        =%      UCSD0006
000091*==========================================================%      UCSD0006
000100**************************************************************/   30930413
000200*  PROGRAM: PPP140                                           */   30930413
000300*  RELEASE: ____0413____  SERVICE REQUEST(S): ____3093____   */   30930413
000400*  NAME:____JIM WILLIAMS__CREATION DATE:      __05/23/89__   */   30930413
000500*  DESCRIPTION:                                              */   30930413
000600*  - CHANGED FOR CONVERSION FROM OS/VS COBOL TO VS COBOL II. */   30930413
000700**************************************************************/   30930413
000800**************************************************************/   13190321
000900*  PROGRAM:  PPP140                                          */   13190321
001000*  RELEASE # ___0321___   SERVICE REQUEST NO(S)____1419______*/   13190321
001100*  NAME ___D. STORMAN__   MODIFICATION DATE ____09/20/87_____*/   13190321
001200*  DESCRIPTION                                               */   13190321
001300*  MOVED STANDARD REPORT AND PROGRAM IDS INTO REPORT HEADING.*/   13190321
001400**************************************************************/   13190159
001500*  PROGRAM:  PPP140                                          */   13190159
001600*  RELEASE # ___0159___   SERVICE REQUEST NO(S)____1319______*/   13190159
001700*  NAME ___JAL_________   MODIFICATION DATE ____09/20/85_____*/   13190159
001800*  DESCRIPTION                                               */   13190159
001900*  FOR PHASE 2 OF THE PAYROLL FILE EXPANSION PROJECT,        */   13190159
002000*  USER-CODED TRANSACTION INPUT RECORD LENGTHS WILL BE       */   13190159
002100*  EXPANDED BY 22 BYTES, AND RECORDS AND WORK AREAS          */   13190159
002200*  RELATING TO THE EDB FILE WILL BE EXPANDED AS WELL.        */   13190159
002300*  THE EDB FILE AND EDB RESTORE FILE (PLUS ALL RELATING      */   13190159
002400*  RECORDS AND PROGRAM WORK AREAS) WILL BE EXPANDED          */   13190159
002500*  FROM 224 TO 290 BYTES.                                    */   13190159
002600*                                                            */   13190159
002700*  **********************                                    */   13190159
002800*  NOTE:  IN THIS PROGRAM, SOME CHANGES (EG., DATA NAME      */   13190159
002900*         CHANGES) ARE BEING MADE TO BE CONSISTENT WITH      */   13190159
003000*         CHANGES MADE IN PHASE 1 OF THE PAYROLL FILE        */   13190159
003100*         EXPANSION PROJECT (IE., THE SEPARATION OF THE      */   13190159
003200*         CONTROL TABLES FROM THE FRONT OF THE EDB FILE).    */   13190159
003300*  **********************                                    */   13190159
003400*                                                            */   13190159
003500**************************************************************/   13190159
003600     SKIP2                                                        13190159
003700**************************************************************/   21630135
003800*  PROGRAM:  PPP140                                        */     13190153
003900*  RELEASE # ---0153---   SERVICE REQUEST NOS(S) ---1319--- */    13190153
004000*  NAME ----NAME-------   MODIFICATION DATE ---07/09/85---  */    13190153
004100*  DESCRIPTION                                              */    13190153
004200*                                                           */    13190153
004300*  PPP140/USER14 NOW RESTORES THE EDB FILE ONLY.  (THE      */    13190153
004400*  CONTROL TABLES FILE IS STILL NEEDED IN THE JCL BECAUSE   */    13190153
004500*  'PPMSSG' IS CALLED DURING PROCESSING)                    */    13190153
004600*                                                           */    13190153
004700*                                                           */    13190153
004800*  THE CTL AND EDB FILES HAVE BEEN SPLIT OUT AS FOLLOWS:    */    13190153
004900*      CONTROL TABLES FILE:                                 */    13190153
005000*                CONTROL FILE HEADER                        */    13190153
005100*                CAMPUS CONTROL RECORD                      */    13190153
005200*                CONTROL TABLES                             */    13190153
005300*      EMPLOYEE DATA BASE:                                  */    13190153
005400*                SYSTEM CONTROL RECORD                      */    13190153
005500*                INITIALIZED SEGMENTS TABLE                 */    13190153
005600*                DELIMITER 99999'S RECORD                   */    13190153
005700*                EMPLOYEE SEGMENTS                          */    13190153
005800*      AND TWO SEPARATE RESTORE FILES                       */    13190153
005900*                                                           */    13190153
006000*  IN ADDITION TO THE ABOVE CHANGS, THE YES/NO OPTIONS      */    13190153
006100*  OF THE PROGRAM SPEC CARD ARE IGNORED.                    */    13190153
006200*                                                           */    13190153
006300*  SEPARATE THE CONTROL TABLES FROM THE EDB FILE.           */    13190153
006400*  THE CONTROL TABLES WILL RESIDE ON THE CONTROL TABLE      */    13190153
006500*  FILE ONLY.                                               */    13190153
006600*  THE NEW CONTROL TABLE FILE WILL CONSIST OF THE CONTROL   */    13190153
006700*  TABLES ON THE CURRENT CONTROL TABLE FILE, MINUS THE      */    13190153
006800*  'INITIALIZED SEGMENTS' TABLE AND THE 'DELIMITER RECORD'. */    13190153
006900*  THE NEW EDB FILE WILL CONSIST OF A 'SYSTEM CONTROL       */    13190153
007000*  RECORD', FOLLOWED BY THE 'INITIALIZED SEGMENTS' TABLE,   */    13190153
007100*  FOLLOWED BY THE 'DELIMITER RECORD', AND THEN FOLLOWED    */    13190153
007200*  BY THE EMPLOYEE SEGMENTS                                 */    13190153
007300*  NOTE:  THE CURRENT RESTORE FILE WILL BE SPLIT INTO TWO   */    13190153
007400*         RESTORE FILES, ONE CORRESPONDING TO THE NEW CTL   */    13190153
007500*         FILE AND THE OTHER CORRESPONDING TO THE NEW EDB   */    13190153
007600*         FILE.                                             */    13190153
007700*********************************************************** */    13190153
007800*  PROGRAM:  PPP140                                          */   21630135
007900*  RELEASE # ___0135___   SERVICE REQUEST NO(S) __2163______ */   21630135
008000*  NAME ___PAJ_________   MODIFICATION DATE ____12/20/84_____*/   21630135
008100*  DESCRIPTION                                               */   21630135
008200*    - 1)PROGRAM WILL ABORT ON A 'SEE SYSTEMS' ERROR         */   21630135
008300*      MESSAGE SEVERITY.                                     */   21630135
008400*    - 2)UPON TERMINATION OF THE PROGRAM THE 'RETURN-CODE'   */   21630135
008500*      WILL BE SET TO THE HIGHEST MESSAGE SEVERITY           */   21630135
008600*      ENCOUNTERED WHILE PROCESSING.                         */   21630135
008700**  *  *  *  *  *  *                                         */   21630135
008800**************************************************************/   21630135
008900 IDENTIFICATION DIVISION.                                         10/03/80
009000 PROGRAM-ID. PPP140.                                              PPP140
009100*REMARKS. DATA BASE RESTORE.                                      30930413
009200 AUTHOR. INTEGRAL SYSTEMS, INC.                                   PPP140
009300 INSTALLATION. INTEGRAL SYSTEMS, INC. STANDARD SYSTEM             PPP140
009400 DATE-WRITTEN.  DEC. 21, 1978. VERSION 4.0.                       PPP140
009500 DATE-COMPILED.                                                   PPP140
009600     SKIP3                                                        PPP140
009700 ENVIRONMENT DIVISION.                                            PPP140
009800 CONFIGURATION SECTION.                                           PPP140
009900 SOURCE-COMPUTER. COPY CPOTXISI.                                  PPP140
010000 OBJECT-COMPUTER. COPY CPOTXOBJ.                                  PPP140
010100 SPECIAL-NAMES. C01 IS NEW-PAGE.                                  PPP140
010200 INPUT-OUTPUT SECTION.                                            PPP140
010300 FILE-CONTROL.                                                    PPP140
010400     SELECT CARD-FILE COPY CPSLXCRD.                              PPP140
010500*    SELECT RESTORE-FILE COPY CPSLXRST.                           13190159
010600     SELECT EDB-RESTORE-FILE COPY CPSLXRST.                       13190159
010610     COPY CLSLCRPT.                                               UCSD0006
010700     EJECT                                                        PPP140
010800 DATA DIVISION.                                                   PPP140
010900 FILE SECTION.                                                    PPP140
011000 FD  CARD-FILE COPY CPFDXCRD.                                     PPP140
011100     SKIP3                                                        PPP140
011200*FD  RESTORE-FILE COPY CPFDXRST.                                  13190159
011300 FD  EDB-RESTORE-FILE COPY CPFDXRST.                              13190159
011310     COPY CLFDCRPT.                                               UCSD0006
011400     EJECT                                                        PPP140
011500******************************************************************PPP140
011600 WORKING-STORAGE SECTION.                                         PPP140
011700******************************************************************PPP140
011800     SKIP3                                                        PPP140
011900 77  A-STND-PROG-ID          PIC X(15) VALUE                      PPP140
012000*        'PPP140  /071579'.                                       13190159
012100*        'PPP140  /092085'.                                       13190321
012200         'PPP140  /091887'.                                       13190321
012300 77  CNTL-OPEN               PIC X VALUE SPACE.                   PPP140
012400 77  UCA-STATUS              PIC X VALUE ZEROS.                   PPP140
012500 77  EDB-DEL                 PIC S9(7) COMP-3 VALUE ZERO.         PPP140
012600 77  EDB-IN                  PIC S9(7) COMP-3 VALUE ZERO.         PPP140
012700 77  EDB-OUT                 PIC S9(7) COMP-3 VALUE ZERO.         PPP140
012800 77  EDB-OPEN                PIC X VALUE SPACE.                   PPP140
012900 77  I                       PIC S9(4) COMP VALUE ZERO.           PPP140
013000 77  J                       PIC S9(4) COMP VALUE ZERO.           PPP140
013100 77  K                       PIC S9(4) COMP VALUE ZERO.           PPP140
013200 77  L                       PIC S9(4) COMP VALUE ZERO.           PPP140
013300 77  LAST-KEY                PIC X(13) VALUE SPACES.              PPP140
013400 77  LINE-CNT                PIC S9(4) COMP VALUE ZERO.           PPP140
013500 77  LN-FEED                 PIC S9(4) COMP VALUE +1.             PPP140
013600 77  TOTAL-DEL               PIC S9(7) COMP-3 VALUE ZERO.         PPP140
013700 77  TOTAL-IN                PIC S9(7) COMP-3 VALUE ZERO.         PPP140
013800 77  TOTAL-OUT               PIC S9(7) COMP-3 VALUE ZERO.         PPP140
013900     SKIP3                                                        PPP140
014000 01  ABEND-CODE.                                                  PPP140
014100     09 ABEND-CODE-9         PIC 9          VALUE ZERO.           PPP140
 .
014300 01  CARD-HOLD.                                                   PPP140
014400     03  SPEC-CARD-ID        PIC X(10).                           PPP140
014500         88  VALID-ID        VALUE 'PPP14-SPEC'.                  PPP140
014600     03  SPEC-RUN-TYPE       PIC X(7).                            PPP140
014700         88  VALID-RUN-TYPE  VALUE 'REGULAR' 'SPECIAL'.           PPP140
014800         88  SPECIAL-RUN     VALUE 'SPECIAL'.                     PPP140
014900         88  NORMAL-RUN      VALUE 'REGULAR'.                     PPP140
015000     03  FILLER              PIC XX.                              PPP140
015100**** 03  SPEC-CNTL-FILE-PRESENT    PIC XXX VALUE 'NO '.           13190153
015200****     88  VALID-CNTL-FILE VALUE 'YES' 'NO ' ' NO'.             13190153
015300****     88  CNTL-FILE-HERE  VALUE 'YES'.                         13190153
015400     03 FILLER               PIC XXX.                             13190153
015500     03  SPEC-SPECIAL-ISICNTL     PIC XXX VALUE 'NO '.            PPP140
015600     SKIP3                                                        PPP140
015700 01  CHECK-DATES VALUE ZERO.                                      PPP140
015800     03  CNTL-DATE           PIC X(6).                            PPP140
015900     03  RSTR-DATE           PIC X(6).                            PPP140
016000     03  EDB-DATE            PIC X(6).                            PPP140
016100     03  RSTR-LAST-PGM-RUN   PIC XX.                              PPP140
016200     03  CNTL-LAST-PGM-RUN   PIC XX.                              PPP140
016300     03  CNTL-EDB-GEN-NO     PIC 9(3).                            PPP140
016400     03  CNTL-ACTIV-GEN-NO   PIC 9(3).                            PPP140
016500     EJECT                                                        PPP140
016600******************************************************************PPP140
016700*    BUFFERS AND LINK AREAS                                       PPP140
016800******************************************************************PPP140
016900     SKIP3                                                        PPP140
017000 01  DATE-FORMAT.                                                 30930413
017100          COPY CPWSDATE.                                          30930413
017200*01  CTL-INTERFACE COPY CPWSXCIF.                                 13190159
017300     SKIP3                                                        PPP140
017400*01  CNTL-SEGMENT            PIC X(224).                          13190159
017500 01  EDB-SEGMENT             PIC X(290).                          13190159
017600     SKIP3                                                        PPP140
017700*01  EDB-INTERFACE           COPY CPWSXEIF.                       30930413
017800 01  EDB-INTERFACE.          COPY CPWSXEIF.                       30930413
017900     SKIP3                                                        PPP140
018000*01  DATA-BASE-SEGMENT       PIC X(224).                          13190159
018100 01  DATA-BASE-SEGMENT       PIC X(290).                          13190159
018200*01  XDBS-PERSONAL-DATA1  REDEFINES  DATA-BASE-SEGMENT            30930413
018300 01  XDBS-PERSONAL-DATA1  REDEFINES  DATA-BASE-SEGMENT.           30930413
018400                         COPY  CPWSDB01.                          PPP140
018500     SKIP3                                                        PPP140
018600*01  XSCR-SYSTEM-CONTROL-RECORD  COPY 'CPWSXSCR'.                 30930413
018700 01  XSCR-SYSTEM-CONTROL-RECORD. COPY 'CPWSXSCR'.                 30930413
018800     SKIP3                                                        PPP140
018900*01  MSSG-INTERFACE COPY CPWSXMIF.                                30930413
019000 01  MSSG-INTERFACE.    COPY CPWSXMIF.                            30930413
019100 01  MSSG-INTERFACE-2 REDEFINES MSSG-INTERFACE.                   21630135
019200     05  FILLER                 PIC X(186).                       21630135
019300     05  XMSG-DATA2             PIC X(80).                        21630135
019400*    05  PGM-ERROR-LINE REDEFINES XMSG-DATA                       PPP140
019500     05  PGM-ERROR-LINE REDEFINES XMSG-DATA2.                     21630135
019600         10  PEL-MSSG1       PIC X(15).                           PPP140
019700         10  PEL-PGM1        PIC XX.                              PPP140
019800         10  FILLER          PIC X(5).                            PPP140
019900         10  PEL-MSSG2       PIC X(15).                           PPP140
020000         10  PEL-PGM2        PIC XX.                              PPP140
020100*    05  DATE-ERROR-LINE REDEFINES XMSG-DATA.                     PPP140
020200     05  DATE-ERROR-LINE REDEFINES XMSG-DATA2.                    21630135
020300         10  DEL-MSSG1       PIC X(15).                           PPP140
020400         10  DEL-DATE1       PIC X(8).                            PPP140
020500         10  FILLER          PIC XX.                              PPP140
020600         10  DEL-MSSG2       PIC X(15).                           PPP140
020700         10  DEL-DATE2       PIC X(8).                            PPP140
020800     05  FILLER              PIC X.                               21630135
020900     EJECT                                                        PPP140
021000*01  XMDY-DATE               COPY CPWSXMDY.                       30930413
021100 01  XMDY-DATE.              COPY CPWSXMDY.                       30930413
021200     EJECT                                                        PPP140
021300******************************************************************PPP140
021400*    CONSTANTS                                                    PPP140
021500******************************************************************PPP140
021600     SKIP3                                                        PPP140
021700*                                                                 PPP140
021800*    MESSAGES NEEDED EVEN WITH NO CONTROL FILE                    PPP140
021900*                                                                 PPP140
022000 01  MSSG-NO-SEV.                                                 PPP140
022100     03  FILLER              PIC X(6) VALUE '140106'.             21630135
022200     03  FILLER              PIC X(6) VALUE '140206'.             21630135
022300     03  FILLER              PIC X(6) VALUE '140306'.             21630135
022400**   03  FILLER              PIC X(6) VALUE '140405'.             PPP140
022500     03  FILLER              PIC X(6) VALUE '140506'.             21630135
022600     03  FILLER              PIC X(6) VALUE '140602'.             21630135
022700     03  FILLER              PIC X(6) VALUE '140706'.             PPP140
022800     03  FILLER              PIC X(6) VALUE '140806'.             PPP140
022900**   03  FILLER              PIC X(6) VALUE '140902'.             PPP140
023000     03  FILLER              PIC X(6) VALUE '141006'.             PPP140
023100     03  FILLER              PIC X(6) VALUE '141106'.             PPP140
023200**   03  FILLER              PIC X(6) VALUE '141302'.             PPP140
023300**   03  FILLER              PIC X(6) VALUE '141306'.             PPP140
023400     03  FILLER              PIC X(6) VALUE '141406'.             PPP140
023500     03  FILLER              PIC X(6) VALUE '141502'.             21630135
023600     03  FILLER              PIC X(6) VALUE '141801'.             PPP140
023700     03  FILLER              PIC X(6) VALUE '141906'.             PPP140
023800 01  MSSG-WS-NO-SEV REDEFINES MSSG-NO-SEV.                        PPP140
023900     03  FILLER              OCCURS 13.                           21630135
024000         05  WS-MSSG-NO      PIC X(5).                            PPP140
024100         05  WS-MSSG-SEV     PIC 9.                               PPP140
024200     SKIP3                                                        PPP140
024300 01  MSSG-TEXT-HOLD.                                              PPP140
024400     03  FILLER PIC X(30) VALUE                                   21630135
024500                  'OPER-MISSING RUN SPECIFICATION'.               21630135
024600     03  FILLER PIC X(30) VALUE                                   21630135
024700                  'OPER-SPECID NOT PPP14-SPEC'.                   21630135
024800     03  FILLER PIC X(30) VALUE                                   21630135
024900                  'OPER-SPEC NOT REGULAR/SPECIAL'.                21630135
025000**   03  FILLER PIC X(30) VALUE 'SPEC CYCLE NOT FM OR PR'.        PPP140
025100     03  FILLER PIC X(30) VALUE                                   21630135
025200                  'OPER-SPEC CNTL IND NOT YES/NO'.                21630135
025300     03  FILLER PIC X(30) VALUE 'CONTROL FILE NOT PRESENT'.       PPP140
025400     03  FILLER PIC X(30) VALUE 'CANNOT OPEN CONTROL FILE'.       PPP140
025500     03  FILLER PIC X(30) VALUE 'CANNOT OPEN DATA BASE'.          PPP140
025600**   03  FILLER PIC X(30) VALUE 'EDB SEG. NO. NOT ON SEG.LIST'.   PPP140
025700     03  FILLER PIC X(30) VALUE 'KEYS OUT OF SEQUENCE'.           PPP140
025800     03  FILLER PIC X(30) VALUE 'PROGRAM SEQUENCE ERROR'.         PPP140
025810**   03  FILLER PIC X(30) VALUE 'UNRECOGNIZED KEY ON CTL FILE'.   PPP140
026000**   03  FILLER PIC X(30) VALUE 'EOF ON RESTORE FILE'.            PPP140
026100     03  FILLER PIC X(30) VALUE 'MISSING SCR ON RESTORE FILE'.    PPP140
026200     03  FILLER PIC X(30) VALUE 'SPECIAL RUN -- ERRORS IGNORED'.  PPP140
026300     03  FILLER PIC X(30) VALUE 'RESTORE SUCCESSFUL'.             PPP140
026400     03  FILLER PIC X(30) VALUE 'RESTORE NOT COMPLETE'.           PPP140
026500 01  MSSG-TBL REDEFINES MSSG-TEXT-HOLD.                           PPP140
026600     03  WS-MSSG-TEXT        OCCURS 13 PIC X(30).                 21630135
026700     SKIP3                                                        PPP140
026800*01  IO-FUNCTIONS COPY CPWSXIOF.                                  30930413
026900 01  IO-FUNCTIONS.    COPY CPWSXIOF.                              30930413
027000     SKIP3                                                        PPP140
027100*01  INSTALLATION-DEPDNT-CONSTANTS COPY CPWSXIDC.                 30930413
027200 01  INSTALLATION-DEPDNT-CONSTANTS.    COPY CPWSXIDC.             30930413
027300     SKIP3                                                        PPP140
027400 01  MSSG-NUMBERS.                                                PPP140
027500     03  M14000              PIC 9(5) VALUE 14000.                PPP140
027600     03  M14010              PIC 9(5) VALUE 14010.                PPP140
027700     03  M14020              PIC 9(5) VALUE 14020.                PPP140
027800     03  M14030              PIC 9(5) VALUE 14030.                PPP140
027900     03  M14050              PIC 9(5) VALUE 14050.                PPP140
028000     03  M14060              PIC 9(5) VALUE 14060.                PPP140
028100     03  M14070              PIC 9(5) VALUE 14070.                PPP140
028200     03  M14080              PIC 9(5) VALUE 14080.                PPP140
028300     03  M14090              PIC 9(5) VALUE 14090.                PPP140
028400     03  M14100              PIC 9(5) VALUE 14100.                PPP140
028500     03  M14110              PIC 9(5) VALUE 14110.                PPP140
028600     03  M14120              PIC 9(5) VALUE 14120.                PPP140
028700     03  M14130              PIC 9(5) VALUE 14130.                PPP140
028800     03  M14140              PIC 9(5) VALUE 14140.                PPP140
028900     03  M14150              PIC 9(5) VALUE 14150.                PPP140
029000     03  M14160              PIC 9(5) VALUE 14160.                PPP140
029100     03  M14170              PIC 9(5) VALUE 14170.                PPP140
029200     03  M14180              PIC 9(5) VALUE 14180.                PPP140
029300     03  M14190              PIC 9(5) VALUE 14190.                PPP140
029400     03  M14200              PIC 9(5) VALUE 14200.                PPP140
029500     SKIP3                                                        PPP140
029600*01  CONTROL-FILE-KEYS COPY CPWSXCFK.                             30930413
029700 01  CONTROL-FILE-KEYS.    COPY CPWSXCFK.                         30930413
029800     EJECT                                                        PPP140
029810     COPY CLWSCRPT.                                               UCSD0006
029900******************************************************************PPP140
030000 PROCEDURE DIVISION.                                              PPP140
030100******************************************************************PPP140
030110     COPY CLPDCRPT.                                               UCSD0006
030200     PERFORM INITIALIZATIONS-1000.                                PPP140
030300     PERFORM CARD-VERIFY-2000.                                    PPP140
030400     IF ABEND-CODE > FATAL-ERR
030500         GO TO TERMINATE-0900.                                    PPP140
030600     PERFORM CREATE-ISAM-FILE-3000.                               PPP140
030700 TERMINATE-0900.                                                  PPP140
030800     IF ABEND-CODE > FATAL-ERR
030900         MOVE M14190         TO XMSG-NUMBER                       PPP140
031000         PERFORM ERROR-PRNT-9010 THRU ERROR-PRNT-EXIT-9050        PPP140
031100     ELSE                                                         PPP140
031200         MOVE M14180         TO XMSG-NUMBER                       PPP140
031300         PERFORM ERROR-PRNT-9010 THRU ERROR-PRNT-EXIT-9050        PPP140
031400         MOVE 2 TO UCA-STATUS                                     PPP140
031500         CALL 'USER14'   USING UCA-STATUS,                           CL*10
031600                        MSSG-INTERFACE.                           PPP140
031610     PERFORM PRINT-CONTROL-REPORT.                                UCSD0006
031700     CLOSE CARD-FILE.                                             PPP140
031800     CLOSE EDB-RESTORE-FILE.                                      13190159
031900     PERFORM RETURN-CODE-9060 THRU RETURN-CODE-9060-EXIT.         21630135
032000     STOP RUN.                                                    PPP140
032100     EJECT                                                        PPP140
032200******************************************************************PPP140
032300 INITIALIZATIONS-1000 SECTION.                                    PPP140
032400******************************************************************PPP140
032500     SKIP3                                                        PPP140
032600 INIT-1010.                                                       PPP140
032700     COPY CPPDDATE.                                               30930413
032800     MOVE SPACES             TO MSSG-INTERFACE.                   PPP140
032900     MOVE ZERO TO XMSG-SEVERITY XMSG-HIGHEST-SEVERITY.            21630135
033000*****MOVE 'PPP140 '          TO XMSG-RPT-ID.                      13190321
033010**** MOVE A-STND-PROG-ID     TO XMSG-PROG-ID.                     13190153
033100     MOVE A-STND-PROG-ID     TO XMSG-PROG-ID.                     13190321
033200     MOVE 'PPP1401'          TO XMSG-RPT-ID.                      13190321
033300     MOVE '      EDB FILE  RESTORE SUMMARY' TO XMSG-RPT-TTL.      13190153
033400     MOVE '      DATA BASE RESTORE SUMMARY' TO XMSG-RPT-TTL.      PPP140
033500*    MOVE CURRENT-DATE       TO XMSG-RUN-DATE.                    30930413
033600     MOVE GREGORIAN-DATE     TO XMSG-RUN-DATE.                    30930413
033700     MOVE M14000 TO XMSG-NUMBER.                                  PPP140
033800     SKIP3                                                        PPP140
033900 OPEN-FILES-1040.                                                 PPP140
034000     OPEN INPUT CARD-FILE.                                        PPP140
034100*    OPEN INPUT RESTORE-FILE.                                     13190159
034200     OPEN INPUT EDB-RESTORE-FILE.                                 13190159
034300     SKIP3                                                        PPP140
034400 INITIALIZATION-EXIT-1999.                                        PPP140
034500     EXIT.                                                        PPP140
034600     EJECT                                                        PPP140
034700******************************************************************PPP140
034800 CARD-VERIFY-2000 SECTION.                                        PPP140
034900******************************************************************PPP140
035000     SKIP3                                                        PPP140
035100*READ-RSTR-CARD-FILE-2010.                                        13190159
035200 READ-EDB-RSTR-CARD-FILE-2010.                                    13190159
035300*    READ RESTORE-FILE                                            13190159
035400     READ EDB-RESTORE-FILE                                        13190159
035500         INTO XSCR-SYSTEM-CONTROL-RECORD                          PPP140
035600         AT END                                                   PPP140
035700             MOVE M14140     TO XMSG-NUMBER                       PPP140
035800             GO TO CARD-ERROR-2800.                               PPP140
035900     IF XSCR-KEY-AREA NOT = XCFK-SCR                              PPP140
036000         MOVE M14140          TO XMSG-NUMBER                      PPP140
036100         GO TO CARD-ERROR-2800.                                   PPP140
036200     MOVE XSCR-PROCESS-DATE  TO RSTR-DATE.                        PPP140
036300     MOVE XSCR-LAST-PGM-RUN  TO RSTR-LAST-PGM-RUN.                PPP140
036400     MOVE XSCR-SYSTEM-CONTROL-RECORD TO DATA-BASE-SEGMENT.        PPP140
036500     MOVE RSTR-DATE          TO XMSG-CHK-DATE.                    PPP140
036600     MOVE 'D'                TO XMSG-REFERENCE.                   PPP140
036700     MOVE ZERO               TO XMSG-SEVERITY.                    PPP140
036800     MOVE CORR XMDY-YYMMDD   TO XMDY-MM-DD-YY.                    PPP140
036900     IF      XMSG-NUMBER = M14000                                 PPP140
037000             PERFORM ERROR-PRNT-9030.                             PPP140
037100     READ CARD-FILE INTO CARD-HOLD                                PPP140
037200         AT END                                                   PPP140
037300         MOVE M14010         TO XMSG-NUMBER                       PPP140
037400         GO TO CARD-ERROR-2800.                                   PPP140
037500     SKIP3                                                        PPP140
037600*                                                                 PPP140
037700*    CHECK VALIDITY OF CONTROL FILE INDICATOR                     PPP140
037800*                                                                 PPP140
037900**** IF NOT VALID-CNTL-FILE                                       13190153
038000****     MOVE M14050         TO XMSG-NUMBER                       13190153
038100****     PERFORM ERROR-PRNT-9010 THRU ERROR-PRNT-EXIT-9050        13190153
038200****     GO TO CARD-ERROR-2800.                                   13190153
038300**** SKIP3                                                        13190153
038400*                                                                 PPP140
038500*    OPEN THE CONTROL FILE IF PRESENT AND READ THE CONTROL RECORD PPP140
038600*                                                                 PPP140
038700**** IF NOT CNTL-FILE-HERE                                        13190153
038800****     MOVE M14060         TO XMSG-NUMBER                       13190153
038900****     PERFORM ERROR-PRNT-9010 THRU ERROR-PRNT-EXIT-9050        13190153
039000****     GO TO VALIDITY-CHECK-2200.                               13190153
039100**** MOVE RAND-OPEN-IN       TO IO-CTL-ACTION.                    13190153
039200**** PERFORM CNTL-ACCESS-9100.                                    13190153
039300**** IF IO-CTL-ERROR-CODE > ZERO                                  13190153
039400****     MOVE M14070         TO XMSG-NUMBER                       13190153
039500****     PERFORM ERROR-PRNT-9010 THRU                             13190153
039600****             ERROR-PRNT-EXIT-9050                             13190153
039700****     GO TO CARD-EXIT-2990.                                    13190153
039800**** MOVE '*'                TO CNTL-OPEN.                        13190153
039900*                                                                 PPP140
040000*    VERIFY OTHER FIELDS ON CARD                                  PPP140
040100*                                                                 PPP140
040200 VALIDITY-CHECK-2200.                                             PPP140
040300     IF NOT VALID-ID                                              PPP140
040400         MOVE M14020         TO XMSG-NUMBER                       PPP140
040500         GO TO CARD-ERROR-2800.                                   PPP140
040600     IF NOT VALID-RUN-TYPE                                        PPP140
040700         MOVE M14030         TO XMSG-NUMBER                       PPP140
040800         GO TO CARD-ERROR-2800.                                   PPP140
040900     SKIP3                                                        PPP140
041000*                                                                 PPP140
041100*    VERIFY RUN SEQUENCE                                          PPP140
041200*                                                                 PPP140
041300     IF  SPECIAL-RUN                                              PPP140
041400         GO TO BYPASS-PGM-DATE-CHECKS-2300.                       PPP140
041500*    MOVE DATA-BASE-SEGMENT TO CNTL-SEGMENT.                      13190159
041600     MOVE DATA-BASE-SEGMENT TO EDB-SEGMENT.                       13190159
041700     MOVE RAND-OPEN-IN TO IO-EDB-ACTION.                          PPP140
041800     PERFORM EDB-ACCESS-9300.                                     PPP140
041900     MOVE RAND-READ TO IO-EDB-ACTION.                             PPP140
042000     MOVE XCFK-SCR  TO IO-EDB-NOM-KEY.                            PPP140
042100     PERFORM EDB-ACCESS-9300.                                     PPP140
042200     MOVE ZEROS TO IO-EDB-NOM-KEY.                                PPP140
042300     MOVE DATA-BASE-SEGMENT TO XSCR-SYSTEM-CONTROL-RECORD.        PPP140
042400     MOVE RAND-CLOSE TO IO-EDB-ACTION.                            PPP140
042500     PERFORM EDB-ACCESS-9300.                                     PPP140
042600     MOVE XSCR-PROCESS-DATE TO CNTL-DATE.                         PPP140
042700     MOVE XSCR-EDB-GEN-NO   TO CNTL-EDB-GEN-NO.                   PPP140
042800     MOVE XSCR-ACTIVITY-GEN-NO TO CNTL-ACTIV-GEN-NO.              PPP140
042900*    MOVE CNTL-SEGMENT TO XSCR-SYSTEM-CONTROL-RECORD.             13190159
043000     MOVE EDB-SEGMENT TO XSCR-SYSTEM-CONTROL-RECORD.              13190159
043100     MOVE CNTL-EDB-GEN-NO TO XSCR-EDB-GEN-NO.                     PPP140
043200     MOVE CNTL-ACTIV-GEN-NO TO XSCR-ACTIVITY-GEN-NO.              PPP140
043300     MOVE CNTL-DATE         TO XSCR-PROCESS-DATE.                 PPP140
043400     IF     RSTR-LAST-PGM-RUN = '12' OR '41'                      PPP140
043500            MOVE '14'           TO XSCR-LAST-PGM-RUN              PPP140
043600            GO TO BYPASS-PGM-DATE-CHECKS-2300.                    PPP140
043700     MOVE 'RSTR LAST PGM='   TO PEL-MSSG1                         PPP140
043800     MOVE RSTR-LAST-PGM-RUN  TO PEL-PGM1.                         PPP140
043900     MOVE M14110             TO XMSG-NUMBER.                      PPP140
044000     MOVE 1 TO XMSG-REFERENCE.                                    PPP140
044100     PERFORM ERROR-PRNT-9010 THRU ERROR-PRNT-EXIT-9050.           PPP140
044200     SKIP3                                                        PPP140
044300 BYPASS-PGM-DATE-CHECKS-2300.                                     PPP140
044400     IF SPECIAL-RUN                                               PPP140
044500         MOVE '14'           TO XSCR-LAST-PGM-RUN                 PPP140
044600         MOVE SPACES TO XSCR-PAYROLL-RAN, XSCR-CYCLES-PAID (1)    PPP140
044700         MOVE SPACES TO XSCR-CYCLES-PAID (2), XSCR-CYCLES-PAID (3)PPP140
044800         MOVE SPACES TO XSCR-CYCLES-PAID (4)                      PPP140
044900         MOVE M14150         TO XMSG-NUMBER                       PPP140
045000         PERFORM ERROR-PRNT-9010 THRU ERROR-PRNT-EXIT-9050        PPP140
045100         MOVE 1              TO ABEND-CODE.                       PPP140
045200     GO TO CARD-EXIT-2990.                                        PPP140
045300 CARD-ERROR-2800.                                                 PPP140
045400     PERFORM ERROR-PRNT-9010 THRU ERROR-PRNT-EXIT-9050.           PPP140
045500 CARD-EXIT-2990.                                                  PPP140
045600     EXIT.                                                        PPP140
045700     EJECT                                                        PPP140
045800******************************************************************PPP140
045900 CREATE-ISAM-FILE-3000 SECTION.                                   PPP140
046000******************************************************************PPP140
046100     SKIP3                                                        PPP140
046200 OPEN-FILE-3010.                                                  PPP140
046300     MOVE SEQ-OPEN-OUT       TO IO-EDB-ACTION.                    PPP140
046400     PERFORM EDB-ACCESS-9300.                                     PPP140
046500     IF IO-EDB-ERROR-CODE NOT = ZERO                              PPP140
046600         MOVE M14080         TO XMSG-NUMBER                       PPP140
046700         GO TO CREATE-ERROR-3900.                                 PPP140
046800*    MOVE ZERO               TO EDB-INTERFACE                     13190159
046900*                               CTL-INTERFACE.                    13190159
047000     MOVE ZERO               TO EDB-INTERFACE.                    13190159
047100     MOVE SEQ-WRITE          TO IO-EDB-ACTION.                    PPP140
047200     MOVE XSCR-SYSTEM-CONTROL-RECORD  TO DATA-BASE-SEGMENT.       PPP140
047300     MOVE LOW-VALUES         TO LAST-KEY.                         PPP140
047400     GO TO SEGMENT-COUNT-3040.                                    PPP140
047500     SKIP3                                                        PPP140
047600*READ-RESTORE-FILE-3030.                                          13190159
047700 READ-EDB-RESTORE-FILE-3030.                                      13190159
047800*    READ RESTORE-FILE INTO DATA-BASE-SEGMENT                     13190159
047900     READ EDB-RESTORE-FILE INTO DATA-BASE-SEGMENT                 13190159
048000         AT END                                                   PPP140
048100****     GO TO GEN-CONTROL-FILE-3300.                             13190153
048200         MOVE SEQ-CLOSE TO IO-EDB-ACTION                          13190153
048300         PERFORM EDB-ACCESS-9300                                  13190153
048400         GO TO CREATE-ISAM-EXIT-3990.                             13190153
048500     SKIP3                                                        PPP140
048600*                                                                 PPP140
048700*    PERFORM SEGMENT AND USER COUNTS                              PPP140
048800*                                                                 PPP140
048900 SEGMENT-COUNT-3040.                                              PPP140
049000     IF XDBS-KEY > XCFK-CTL-FILE-DELIM                            PPP140
049100        IF      SPEC-SPECIAL-ISICNTL = 'KU1'                      PPP140
049200                MOVE HIGH-VALUES TO XDBS-DELETE.                  PPP140
049300*                                                                 PPP140
049400     MOVE SPACES TO XMSG-NUMBER.                                  PPP140
049500     CALL 'USER14'   USING UCA-STATUS                                CL*10
049600                         MSSG-INTERFACE                           PPP140
049700                         DATA-BASE-SEGMENT.                       PPP140
049800*                                                                 PPP140
049900     IF      XMSG-NUMBER NOT = SPACES                             PPP140
050000             GO TO CREATE-ERROR-3900.                             PPP140
050100*                                                                 PPP140
050200     SKIP3                                                        PPP140
050300*                                                                 PPP140
050400*    WRITE ISAM FILE DELETING FLAGGED RECORDS AND CHECKING KEY SEQPPP140
050500*                                                                 PPP140
050600 WRITE-DATA-BASE-3090.                                            PPP140
050700     IF XDBS-DELETE = HIGH-VALUES                                 PPP140
050800*        GO TO READ-RESTORE-FILE-3030.                            13190159
050900         GO TO READ-EDB-RESTORE-FILE-3030.                        13190159
051000     IF XDBS-KEY NOT > LAST-KEY                                   PPP140
051100         MOVE M14100         TO XMSG-NUMBER                       PPP140
051200         GO TO CREATE-ERROR-3900.                                 PPP140
051300     MOVE XDBS-KEY          TO LAST-KEY.                          PPP140
051400     MOVE XDBS-KEY          TO IO-EDB-NOM-KEY.                    PPP140
051500     ADD 1                   TO TOTAL-OUT.                        PPP140
051600     PERFORM EDB-ACCESS-9300.                                     PPP140
051700*    GO TO READ-RESTORE-FILE-3030.                                13190159
051800     GO TO READ-EDB-RESTORE-FILE-3030.                            13190159
051900     SKIP3                                                        PPP140
052000*                                                                 PPP140
052100*    SET FILES TO COPY THE CONTROL FILE FROM THE DATA BASE        PPP140
052200*    TO THE SEPARATE CONTROL FILE                                 PPP140
052300*                                                                 PPP140
052400*GEN-CONTROL-FILE-3300.                                           13190153
052500**** IF CNTL-FILE-HERE                                            13190153
052600****     MOVE RAND-CLOSE     TO IO-CTL-ACTION                     13190153
052700****     PERFORM CNTL-ACCESS-9100                                 13190153
052800****     MOVE SPACE          TO CNTL-OPEN.                        13190153
052900**** MOVE SEQ-CLOSE          TO IO-EDB-ACTION.                    13190153
053000**** PERFORM EDB-ACCESS-9300.                                     13190153
053100**** IF  NORMAL-RUN AND CNTL-FILE-HERE                            13190153
053200****     GO TO CREATE-ISAM-EXIT-3990.                             13190153
053300**** MOVE SEQ-OPEN-OUT       TO IO-CTL-ACTION.                    13190153
053400**** PERFORM CNTL-ACCESS-9100.                                    13190153
053500**** MOVE SEQ-WRITE          TO IO-CTL-ACTION.                    13190153
053600**** MOVE SEQ-OPEN-IN        TO IO-EDB-ACTION.                    13190153
053700**** PERFORM EDB-ACCESS-9300.                                     13190153
053800**** MOVE SEQ-READ           TO IO-EDB-ACTION.                    13190153
053900**** MOVE XCFK-SCR         TO IO-EDB-NOM-KEY.                     13190153
054000**** SKIP3                                                        13190153
054100****                                                              13190153
054200**** COPY THE CONTROL FILE                                        13190153
054300****                                                              13190153
054400*COPY-CONTROL-FILE-3400.                                          13190153
054500**** PERFORM EDB-ACCESS-9300.                                     13190153
054600**** MOVE ZERO               TO IO-EDB-NOM-KEY.                   13190153
054700**** IF IO-EDB-ERROR-CODE = 06 OR                                 13190153
054800****    XDBS-KEY > XCFK-CTL-FILE-DELIM                            13190153
054900****     GO TO END-CONTROL-FILE-3500.                             13190153
055000**** MOVE DATA-BASE-SEGMENT  TO CNTL-SEGMENT.                     13190153
055100**** MOVE XDBS-KEY          TO IO-CTL-NOM-KEY.                    13190153
055200**** PERFORM CNTL-ACCESS-9100.                                    13190153
055300**** GO TO COPY-CONTROL-FILE-3400.                                13190153
055400**** SKIP3                                                        13190153
055500*END-CONTROL-FILE-3500.                                           13190153
055600**** MOVE SEQ-CLOSE          TO IO-CTL-ACTION                     13190153
055700****                            IO-EDB-ACTION.                    13190153
055800**** PERFORM CNTL-ACCESS-9100.                                    13190153
055900**** MOVE SPACE              TO CNTL-OPEN.                        13190153
056000**** PERFORM EDB-ACCESS-9300.                                     13190153
056100**** MOVE SPACE              TO EDB-OPEN.                         13190153
056200**** GO TO CREATE-ISAM-EXIT-3990.                                 13190153
056300**BEGIN DELETE***********************************************     13190153
056400*************************************************************     13190153
056500************************************************************      13190153
056600**END DELETE*************************************************     13190153
056700*************************************************************     13190153
056800 CREATE-ERROR-3900.                                               PPP140
056900     PERFORM ERROR-PRNT-9010 THRU                                 PPP140
057000             ERROR-PRNT-EXIT-9050.                                PPP140
057100 CREATE-ISAM-EXIT-3990.                                           PPP140
057200     EXIT.                                                        PPP140
057300     EJECT                                                        PPP140
057400     EJECT                                                        PPP140
057500******************************************************************PPP140
057600 FREQ-USED-ROUTINES-9000 SECTION.                                 PPP140
057700******************************************************************PPP140
057800     SKIP3                                                        PPP140
057900 ERROR-PRNT-9010.                                                 PPP140
058000**** IF NOT CNTL-FILE-HERE                                        13190153
058100****     GO TO CNTL-NOT-OPEN-9020.                                13190153
058200**** IF CNTL-OPEN NOT = '*'                                       13190153
058300****     GO TO CNTL-NOT-OPEN-9020.                                13190153
058400**** GO TO ERROR-PRNT-9030.                                       13190153
058500*CNTL-NOT-OPEN-9020.                                              13190153
058600**** MOVE ZERO               TO J.                                13190153
058700**** MOVE 'NO-CNTL' TO XMSG-ID-NO.                                13190153
058800 SCAN-WS-TABLE-9021.                                              PPP140
058900     ADD 1                   TO J.                                PPP140
059000     IF J > 13                                                    21630135
059100         GO TO MSSG-NOT-IN-WS-9022.                               PPP140
059200     IF XMSG-NUMBER = WS-MSSG-NO (J)                              PPP140
059300         MOVE WS-MSSG-SEV (J)    TO  K                            21630135
059400         MOVE MSG-SEV-TEXT (K)   TO XMSG-DATA                     PPP140
059500         SUBTRACT 1 FROM WS-MSSG-SEV(J)                           21630135
059600         MOVE WS-MSSG-SEV(J) TO XMSG-SEVERITY                     21630135
059700         MOVE WS-MSSG-TEXT (J)   TO XMSG-TEXT                     PPP140
059800         GO TO ERROR-PRNT-9030.                                   PPP140
059900     GO TO SCAN-WS-TABLE-9021.                                    PPP140
060000 MSSG-NOT-IN-WS-9022.                                             PPP140
060100     MOVE 'MESSAGE NOT AVAILABLE' TO XMSG-TEXT                    PPP140
060200     MOVE 'UNKNOWN'          TO XMSG-DATA.                        PPP140
060300     MOVE 5                  TO XMSG-SEVERITY.                    PPP140
060400 ERROR-PRNT-9030.                                                 PPP140
060500     CALL 'PPMSGUTL' USING MSSG-INTERFACE.                        PPP140
060600     MOVE SPACES TO XMSG-REFERENCE.                               PPP140
060700     MOVE SPACES TO XMSG-KEY.                                     PPP140
060800     IF XMSG-SEVERITY > ABEND-CODE                                PPP140
060900         MOVE XMSG-SEVERITY  TO ABEND-CODE.                       PPP140
061000 ERROR-PRNT-EXIT-9050.                                            PPP140
061100     EXIT.                                                        PPP140
061200     SKIP3                                                        21630135
061300 RETURN-CODE-9060.                                                21630135
061400     COPY CPPDXP40.                                               21630135
061500 RETURN-CODE-9060-EXIT.                                           21630135
061600     EXIT.                                                        21630135
061700     SKIP3                                                        PPP140
061800*CNTL-ACCESS-9100.                                                13190153
061900**** CALL 'PPIOCTL' USING CTL-INTERFACE CNTL-SEGMENT.             13190153
062000**** SKIP3                                                        13190153
062100 EDB-ACCESS-9300.                                                 PPP140
062200     CALL 'PPIOEDB' USING EDB-INTERFACE DATA-BASE-SEGMENT.        PPP140
062300     COPY CLPDP140.                                               UCSD0006
